From;To;Type;Through;start_x;start_y;stop_x;stop_y;adjacency_rule_name;Comment
x2B8FC9;x0872E8;sea;-1;-1;-1;-1;-1;;Westrod-Verkal Vazkron
x5B7DDE;x7EE1A5;sea;-1;-1;-1;-1;-1;;Lower Dagrinrod-Hall of the Ancestors
xFA0F64;xDE6C45;sea;-1;-1;-1;-1;-1;;Jorkad Junction-Argrod Junction
xEF2139;xED2A0A;sea;-1;-1;-1;-1;-1;;Jorkad Junction-Vazumrod
xDBD94C;x23E030;sea;-1;-1;-1;-1;-1;;Ozumrod-Copper Road
xE1CD24;x0D5E6D;sea;-1;-1;-1;-1;-1;;Drunken Road-Western Jaderod