﻿# ARABLE LAND ONLY in this region has been doubled, other resources still need buffing to match what PDX did
STATE_DAMESEAR = {
    id = 1
    subsistence_building = "building_subsistence_farms"
    provinces = { "x000D6F" "x002480" "x0028FF" "x002C40" "x0130C0" "x014759" "x169BDC" "x1870C0" "x36D216" "x4A38FF" "x4F5ADB" "x5AFED6" "x8026C0" "x802A00" "x8132FF" "x813640" "x8A6C5E" "xB79F41" "xBE2330" "xC3F8D7" "xD662A8" "xFC700A" }
    traits = { state_trait_good_soils }
    city = "x0130c0" #Anbenncost
    port = "xc3f8d7" #New Damenath
    farm = "x1870c0" #Auraire
    mine = "x4f5adb" #Earshore
    wood = "x5afed6" #Marionaire
    arable_land = 180
    arable_resources = { bg_wheat_farms bg_livestock_ranches }
    capped_resources = {
        bg_iron_mining = 36
        bg_coal_mining = 92 #from eu4
        bg_logging = 9
        bg_fishing = 17
        bg_lead_mining = 48
        bg_damestear_mining = 10
    }
    naval_exit_id = 3011
}
STATE_ISTRALORIAN_DALES = {
    id = 2
    subsistence_building = "building_subsistence_farms"
    provinces = { "x274840" "x2F3400" "x845AFF" "x856A80" "x89224F" "xA74A80" }
    traits = { state_trait_luna_river }
    city = "xa74a80" #Istralore
    port = "x89224f" #Ricanras
    farm = "x2f3400" #Acromton
    mine = "x856a80" #Damesdale
    wood = "x845aff" #Dhanvar
    arable_land = 104
    arable_resources = { bg_wheat_farms bg_livestock_ranches }
    capped_resources = {
        bg_coal_mining = 60
        bg_iron_mining = 66
        bg_logging = 7
        bg_fishing = 4
    }
    naval_exit_id = 3011
}
STATE_MOONHAVEN = {
    id = 3
    subsistence_building = "building_subsistence_farms"
    provinces = { "x078880" "x078CFF" "x089040" "x5BAD22" "x878AC0" "x878E00" "xD19787" }
    traits = { state_trait_luna_river }
    city = "x878ac0" #Moonhaven
    port = "x078880" #Port Munas
    farm = "x878e00" #Aistlun
    mine = "x078cff" #Dancer's Retreat
    wood = "xd19787" #Arca Airge
    arable_land = 90
    arable_resources = { bg_wheat_farms bg_livestock_ranches bg_tea_plantations bg_silk_plantations bg_vineyard_plantations }
    capped_resources = {
        bg_logging = 20
        bg_fishing = 10
    }
    naval_exit_id = 3011
}
STATE_DAMERIAN_HEARTLANDS = {
    id = 4
    subsistence_building = "building_subsistence_farms"
    provinces = { "x0A3820" "x274CC0" "x285480" "x2A7040" "x2E30C0" "x3834FF" "xA85240" }
    traits = { state_trait_good_soils state_trait_luna_river }
    city = "xa85240" #Plumwall
    farm = "x2a7040" #Tirufeld
    mine = "x2e30c0" #Silvelar
    wood = "x274cc0" #Palemarket
    arable_land = 200 #rural heartland of dameria and anbennar
    arable_resources = { bg_wheat_farms bg_livestock_ranches bg_vineyard_plantations }
    capped_resources = {
        bg_iron_mining = 5
        bg_coal_mining = 10
        bg_logging = 5
        bg_gold_mining = 2
    }
}
STATE_PASHAINE = {
    #REDO
    id = 5
    subsistence_building = "building_subsistence_farms"
    provinces = { "x092020" "x0A3020" "x2858FF" "x2A74C0" "x7DF8F1" "x8F7AFF" "xA95E80" "xAA6E00" "xAA76FF" "xAE2E80" "xAF32FF" "xD33680" }
    traits = { state_trait_luna_river }
    city = "x2858ff" #Thanallen
    farm = "xd33680" #Bellacaire 
    mine = "xaa6e00" #Galeinn
    wood = "xaa76ff" #Aranthil
    arable_land = 150
    arable_resources = { bg_wheat_farms bg_livestock_ranches bg_vineyard_plantations }
    capped_resources = {
        bg_coal_mining = 60
        bg_logging = 7
    }
}
STATE_MENIBOR = {
    id = 6
    subsistence_building = "building_subsistence_farms"
    provinces = { "x078400" "x285C40" "x4F0008" "x835200" "x867A00" "x878640" "xA856C0" "xA85A00" "xAF3640" "xCC4416" "xD192FF" }
    traits = { state_trait_luna_river }
    city = "xd192ff" #Menibor
    port = "x078400" #Napesbay
    farm = "x285c40" #Heroes Rest   
    mine = "xa85a00" #Idhaine
    wood = "x835200" #Plainsby
    arable_land = 120
    arable_resources = { bg_wheat_farms bg_livestock_ranches bg_cotton_plantations bg_tobacco_plantations bg_vineyard_plantations }
    capped_resources = {
        bg_logging = 4
        bg_fishing = 12
        bg_whaling = 3
    }
    naval_exit_id = 3011
}
STATE_VERNE = {
    id = 7
    subsistence_building = "building_subsistence_farms"
    provinces = { "x002820" "x143579" "x1FDCFA" "x2960C0" "x296400" "x296880" "x359040" "x65E25D" "x799E1B" "x918387" "xA962FF" "xA96640" "xA96AC0" "xB58E00" }
    traits = {}
    city = "x296880" #Verne
    port = "x2960c0" #Heartspier
    farm = "xa96ac0" #Huntersfield
    mine = "xa96640" #Arca Lar
    wood = "xa962ff" #Clawmarches
    arable_land = 150
    arable_resources = { bg_wheat_farms bg_livestock_ranches bg_cotton_plantations bg_tobacco_plantations bg_vineyard_plantations }
    capped_resources = {
        bg_lead_mining = 30
        bg_logging = 8
        bg_fishing = 9
    }
    naval_exit_id = 3001
}
STATE_KONWELL = {
    id = 8
    subsistence_building = "building_subsistence_farms"
    provinces = { "x8A2EAD" "xA63AFF" "xA74600" "xC82160" "xD29E00" }
    traits = {}
    city = "xa74600" #Konwell
    port = "xc82160" #Coraston
    farm = "xd29e00" #Sweetcastle
    wood = "xa63aff" #Fencewood
    mine = "x8a2ead" #Millsbay
    arable_land = 90
    arable_resources = { bg_wheat_farms bg_livestock_ranches }
    capped_resources = {
        bg_logging = 17 #higher than usual just for the paper vibes
        bg_fishing = 6
    }
    naval_exit_id = 3000
}
STATE_ESTALLEN = {
    id = 9
    subsistence_building = "building_subsistence_farms"
    provinces = { "x0678FF" "x0B447E" "x2744FF" "x285000" "x4AE34D" "x522040" "xA74EFF" "xAB7A40" "xAF3AC0" }
    traits = { state_trait_esmar_river state_trait_terrman_flower_beatles_dwindling } #we should add a journal entry to revive their population
    city = "x285000" #Estallen
    farm = "x0b447e" #Seinathil
    mine = "xab7a40" #Terr
    wood = "xaf3ac0" #Deamoine
    arable_land = 100
    arable_resources = { bg_wheat_farms bg_livestock_ranches bg_silk_plantations bg_dye_plantations bg_vineyard_plantations } # Silk from Estallen MT, Dye from Terr
    capped_resources = {
        bg_logging = 8
    }
}
STATE_HIGH_ESMAR = {
    id = 10
    subsistence_building = "building_subsistence_farms"
    provinces = { "x09247E" "x264080" "x2B7C80" "x8926AD" "xA742C0" "xAC8AFF" }
    traits = { state_trait_esmar_river }
    city = "xac8aff" #Varaine
    farm = "x8926ad" #Leslinpar
    mine = "x2b7c80" #Yellowford
    wood = "x09247e" #Elvellen
    arable_land = 170
    arable_resources = { bg_wheat_farms bg_livestock_ranches }
    capped_resources = {
        bg_sulfur_mining = 8
        bg_logging = 10
    }
}
STATE_SILVERFORGE = {
    #TODO
    id = 138
    subsistence_building = "building_subsistence_farms"
    provinces = { "x0B3C7E" "x2C88C0" }
    traits = { state_trait_esmar_river }
    city = "x2c88c0" #1
    mine = "x0b3c7e" #2
    arable_land = 50
    arable_resources = { bg_wheat_farms bg_livestock_ranches }
    capped_resources = {
        bg_coal_mining = 60
        bg_iron_mining = 60
        bg_sulfur_mining = 24 #from volcano vibe Havoral Divide
        bg_logging = 7
    }
}
STATE_BENNON = {
    id = 11
    subsistence_building = "building_subsistence_farms"
    provinces = { "x2638C0" "x263C00" "x8A36AD" "xA52EC0" "xA63E40" }
    traits = { state_trait_esmar_river }
    city = "x2638c0" #Giberd
    farm = "xa63e40" #Bennon
    mine = "xa52ec0" #Oldpassage
    wood = "x8a36ad" #Havorton
    arable_land = 60
    arable_resources = { bg_wheat_farms bg_livestock_ranches }
    capped_resources = {
        bg_sulfur_mining = 20 #from volcano vibe Havoral Divide
        bg_iron_mining = 54 #Oldpassage mines etc
        bg_coal_mining = 60
        bg_logging = 4
    }
#naval_exit_id = 3000
}
STATE_CANN_ESMAR = {
    id = 12
    subsistence_building = "building_subsistence_farms"
    provinces = { "x252800" "x2530FF" "x263440" "x8B46AD" "xA53200" "xA63680" }
    traits = { state_trait_esmar_river }
    city = "x263440" #Esmaraine
    port = "xa53200" #Ryalanar
    farm = "xa63680" #Themarenn
    mine = "x252800" #Gabmorionn
    wood = "x8b46ad" #Loveswood
    arable_land = 160
    arable_resources = { bg_wheat_farms bg_livestock_ranches }
    capped_resources = {
        bg_logging = 7
        bg_fishing = 3
    }
    naval_exit_id = 3000
}
STATE_TELGEIR_CALASCANDAR = {
    id = 142
    subsistence_building = "building_subsistence_farms"
    provinces = { "x249CFF" "x252C80" "x6278B4" "x8B3A4F" "xA526FF" }
    traits = { state_trait_esmar_river }
    city = "x249cff" #Calascandar
    port = "xa526ff" #Coastroad
    farm = "x252c80" #Aranmas
    mine = "x8b3a4f" #Telgeir
    wood = "x6278b4" #Arkfloat
    arable_land = 40
    arable_resources = { bg_wheat_farms bg_livestock_ranches }
    capped_resources = {
        bg_iron_mining = 60
        bg_coal_mining = 100
        bg_logging = 4
        bg_fishing = 2
        bg_sulfur_mining = 30 #from volcano vibe Havoral Divide
    }
    naval_exit_id = 3000
}
STATE_DAMESCROWN = {
    id = 13
    subsistence_building = "building_subsistence_farms"
    provinces = { "x0A347E" "x0B4020" "x2174FF" "x8B424F" "xA392FF" "xA49E00" "xA6CB5D" "xAF3E00" }
    traits = { state_trait_esmar_river }
    city = "x2174ff" #Damescrown
    port = "xa392ff" #St. Aras
    farm = "x0b4020" #Marcestir
    mine = "xaf3e00" #Elfsmithy
    wood = "x8b424f" #Crothan
    arable_land = 150
    arable_resources = { bg_wheat_farms bg_livestock_ranches }
    capped_resources = {
        bg_fishing = 14
        bg_gold_mining = 4 # Meant to have a lot of gold
    }
    naval_exit_id = 3000
}
STATE_ARBARAN = {
    id = 14
    subsistence_building = "building_subsistence_farms"
    provinces = { "x03DCFA" "x06C8FA" "x217840" "x227CC0" "x2288FF" "x239400" "x249880" "x2F3CFF" "x9934A5" "xA49AC0" "xB15AFF" }
    traits = {}
    city = "xb15aff" #Arbaran
    farm = "xa49ac0" #Derwing
    mine = "x249880" #Arca Pirvar
    wood = "x2288ff" #Arca Dhaneann
    arable_land = 120
    arable_resources = { bg_rye_farms bg_livestock_ranches }
    capped_resources = {
        bg_logging = 17
    }
}
STATE_FREECESTIR = {
    id = 15
    subsistence_building = "building_subsistence_farms"
    provinces = { "x11C8C8" "x238C40" "x2390C0" "x242040" "x2424C0" "x304C80" "x935A57" "x972EA4" "xA38A00" "xA38E80" "xA49AF4" "xB36A80" "xF8886A" }
    traits = {}
    city = "xa38a00" #Freecestir
    farm = "x2424c0" #Teagansfield
    mine = "x2390c0" #Freetower
    wood = "x238c40" #Fort Vigil
    arable_land = 144
    arable_resources = { bg_wheat_farms bg_livestock_ranches }
    capped_resources = {
        bg_logging = 17
    }
}
STATE_BISAN = {
    id = 16
    subsistence_building = "building_subsistence_farms"
    provinces = { "x2A6CFF" "x2A7800" "x2F3880" "x8C524F" "xAD9600" "xD226FF" }
    traits = {}
    city = "x2a6cff" #Magdalaire
    farm = "x2a7800" #Bisan
    mine = "x8c524f" #Aelthil
    wood = "x2f3880" #Corseton
    arable_land = 90
    arable_resources = { bg_wheat_farms bg_livestock_ranches }
    capped_resources = {
        bg_logging = 7
        bg_coal_mining = 60
    }
}
STATE_WEX = {
    id = 17
    subsistence_building = "building_subsistence_farms"
    provinces = { "x2B80FF" "x2B8440" "x851B11" "x892A4F" "xAB7EC0" "xAB8200" "xAB8680" "xD8BD00" }
    traits = { state_trait_luna_river }
    city = "x892a4f" #Indlebury
    farm = "xab8680" #Ottocam
    mine = "x2b8440" #Wexkeep
    wood = "xab8200" #Threeguard
    arable_land = 82
    arable_resources = { bg_wheat_farms bg_livestock_ranches }
    capped_resources = {
        bg_iron_mining = 75 #apparently Wexhills is one of the largest iron sources in the world from their ideas. Vanilla has 64 as highest
        bg_coal_mining = 100
        bg_logging = 16
    }
}
STATE_WESDAM = {
    id = 18
    subsistence_building = "building_subsistence_farms"
    provinces = { "x013400" "x024040" "x0458C0" "x813AC0" "x823E00" "x824280" "x834A40" }
    traits = {}
    city = "x823e00" #Gabelaire
    port = "x024040" #Windtower
    farm = "x013400" #Wesdam
    mine = "x0458c0" #Modgate
    wood = "x824280" #Lenceiande
    arable_land = 116
    arable_resources = { bg_wheat_farms bg_livestock_ranches bg_vineyard_plantations }
    capped_resources = {
        bg_coal_mining = 40
        bg_iron_mining = 30
        bg_logging = 5
        bg_fishing = 3
    }
    naval_exit_id = 3011
}
STATE_NECKCLIFFE = {
    id = 19
    subsistence_building = "building_subsistence_farms"
    provinces = { "x0350FF" "x035440" "x1AC8FA" "x834EC0" "x835680" }
    traits = {}
    city = "x1ac8fa" #Neckcliffe
    port = "x035440" #Throatport
    farm = "x835680" #Riverstead
    mine = "x0350ff" #Stoneview
    wood = "x834ec0" #Triancost
    arable_land = 104
    arable_resources = { bg_wheat_farms bg_livestock_ranches bg_cotton_plantations bg_vineyard_plantations }
    capped_resources = {
        bg_logging = 6
        bg_fishing = 6
    }
    naval_exit_id = 3011
}
STATE_PEARLSEDGE = {
    id = 20
    subsistence_building = "building_subsistence_farms"
    provinces = { "x023CFF" "x067480" "x067C40" "x0680C0" "x857240" "x8676C0" "x867E80" "x8782FF" "x889280" }
    traits = {}
    city = "x8782ff" #Old Pearlywine - Dhantras
    port = "x067c40" #Jewelpoint
    farm = "x857240" #New Pearlywine 
    mine = "x0680c0" #Tretun
    wood = "x889280" #Timberfort
    arable_land = 134
    arable_resources = { bg_wheat_farms bg_livestock_ranches bg_cotton_plantations bg_vineyard_plantations }
    capped_resources = {
        bg_lead_mining = 18
        bg_coal_mining = 44
        bg_logging = 12
        bg_fishing = 8
    }
    naval_exit_id = 3004
}
STATE_CARNETER = {
    id = 21
    subsistence_building = "building_subsistence_farms"
    provinces = { "x024800" "x034C80" "x045C00" "x8246FF" "x845E40" }
    traits = { state_trait_magically_drained_lands }
    city = "x024800" #Ordoin
    farm = "x845e40" #Ilvandet
    mine = "x034c80" #Woodwell
    wood = "x045c00" #Ancard's Crossing
    arable_land = 84
    arable_resources = { bg_wheat_farms bg_livestock_ranches }
    capped_resources = {
        bg_sulfur_mining = 40 #same deposits as Roilsard. Makes this place COMPETITIVE!
        bg_coal_mining = 24
        bg_logging = 20
        bg_lead_mining = 9
    }
}
STATE_EXWES = {
    id = 22
    subsistence_building = "building_subsistence_farms"
    provinces = { "x0244C0" "x1654FF" "x165840" "x5AC0B5" "x9552C0" "x965A80" }
    traits = {}
    city = "x965a80" #Orston
    port = "x1654ff" #Exwes-by-the-Sea
    farm = "x9552c0" #Exwes
    mine = "x0244c0" #Troutcoast
    wood = "x165840" #Hookfield
    arable_land = 96
    arable_resources = { bg_wheat_farms bg_livestock_ranches }
    capped_resources = {
        bg_fishing = 22
    }
    naval_exit_id = 3000
}
STATE_SUGAMBER = {
    id = 23
    subsistence_building = "building_subsistence_farms"
    provinces = { "x2D9840" "x8B3EAD" "x8C4A4F" "xAD9A80" "xBA52FF" "xBB5E00" }
    traits = {}
    city = "x8c4a4f" #Rhinmond
    farm = "xbb5e00" #Lockcastle
    mine = "xad9a89" #Escandar
    wood = "xba52ff" #Birchwhite
    arable_land = 84
    arable_resources = { bg_wheat_farms bg_livestock_ranches }
    capped_resources = {
        bg_iron_mining = 30
        bg_logging = 2
    }
}
STATE_BARDSWOOD = {
    id = 24
    subsistence_building = "building_subsistence_farms"
    provinces = { "x0C4820" "x2D9CC0" "x8A324F" "xAD9EFF" "xBB6280" }
    traits = {}
    city = "xbb6280" #Tellum
    farm = "xad9eff" #Butchersfield
    mine = "x8a324f" #Vinerick
    wood = "x0c4820" #Deedaunt
    arable_land = 74
    arable_resources = { bg_wheat_farms bg_livestock_ranches }
    capped_resources = {
        bg_logging = 12
    }
    resource = {
        type = "bg_damestear_fields"
        depleted_type = "bg_damestear_mining"
        undiscovered_amount = 4
    }
}
STATE_CELLIANDE = {
    id = 25
    subsistence_building = "building_subsistence_farms"
    provinces = { "x017E90" "x3A5400" "x3A5880" "x3B5CFF" "xBA5640" "xBB5AC0" }
    traits = {}
    city = "x3a5880" #Doveswall
    port = "xbb5ac0" #Sorncell
    farm = "x3a5400" #Hawkshot
    mine = "xba5640" #Irmathmas
    wood = "x3b5cff" #Old Vache
    arable_land = 84
    arable_resources = { bg_wheat_farms bg_livestock_ranches bg_cotton_plantations bg_vineyard_plantations }
    capped_resources = {
        bg_iron_mining = 12
        bg_logging = 6
    }
    naval_exit_id = 3002
}
STATE_TOARNEN = {
    id = 26
    subsistence_building = "building_subsistence_farms"
    provinces = { "x0C5020" "x36C8FA" "x3B6040" "x3C8C00" "x8C4EAD" }
    traits = {}
    city = "x0c5020" #Aiscestir
    port = "x8c4ead" #Bordercliff
    farm = "x36c8fa" #Rooksmount
    mine = "x3c8c00" #Aenawick
    wood = "x3b6040" #Antirhalan
    arable_land = 78
    arable_resources = { bg_wheat_farms bg_livestock_ranches bg_cotton_plantations bg_vineyard_plantations }
    capped_resources = {
        bg_sulfur_mining = 20 #inflammatory gamers
        bg_logging = 8 #cos of tar pine trees, make em more prominent a bit
    }
    naval_exit_id = 3002
}
STATE_ASHENIANDE = {
    id = 27
    subsistence_building = "building_subsistence_farms"
    provinces = { "x092820" "x266F26" "x2C8C00" "x2D2000" "xAC8E40" "xBC6EC0" }
    traits = { state_trait_ashwheat_fields }
    city = "x2c8c00" #Cestirbridge
    farm = "xac8e40" #Ashfield
    mine = "x2d2000" #Livergrave
    wood = "x092820" #Embergarden
    arable_land = 160 #its a proper farming place
    arable_resources = { bg_wheat_farms bg_livestock_ranches bg_vineyard_plantations }
    capped_resources = {
        bg_sulfur_mining = 32 #from volcano vibe Havoral Divide
        bg_coal_mining = 48
        bg_logging = 4
    }
}
STATE_ARANNEN = {
    id = 28
    subsistence_building = "building_subsistence_farms"
    provinces = { "x0A2C7E" "x2E2480" "x2E28FF" "x3B64C0" "x4800F0" "xAE26C0" "xAE2A00" "xBB66FF" }
    traits = {}
    city = "x0a2c7e" #Arannen
    farm = "x3b64c0" #Marllin
    mine = "xae2a00" #Cronesford
    wood = "x2e2480" #Brinkwick
    arable_land = 110
    arable_resources = { bg_wheat_farms bg_livestock_ranches bg_vineyard_plantations }
    capped_resources = {
        bg_logging = 12
    }
}
STATE_GISDEN = {
    id = 29
    subsistence_building = "building_subsistence_farms"
    provinces = { "x0c4c7e" "x2c9080" "x2e2c40" "xad2240" }
    traits = {}
    city = "x2e2c40" #Gisden
    farm = "xad2240" #Upsfield
    mine = "x0c4c7e" #Autumnfield
    wood = "x2c9080" #Quintenbury
    arable_land = 80
    arable_resources = { bg_wheat_farms bg_livestock_ranches bg_vineyard_plantations }
    capped_resources = {
        bg_logging = 6
    }
}
STATE_CORVURIAN_PLAINS = {
    id = 30
    subsistence_building = "building_subsistence_farms"
    provinces = { "x3C70FF" "x3C7440" "x3D78C0" "x3D7C00" "xBC7200" "xBD7680" }
    traits = { state_trait_dostanesck_river }
    city = "x3c7440" #El?anore
    farm = "x3d78c0" #Rackman's Court
    mine = "x3c70ff" #Shroudfort
    wood = "x3d7c00" #Cannvalley
    arable_land = 86
    arable_resources = { bg_wheat_farms bg_livestock_ranches bg_vineyard_plantations }
    capped_resources = {
        bg_iron_mining = 15
        bg_logging = 4
    }
}
STATE_THE_LAND = {
    #I AM THE LAND -Strahd von Zarovich
    id = 31
    subsistence_building = "building_subsistence_farms"
    provinces = { "x3D8080" "x3E84FF" "x3E8CC0" "x3E9000" "x63EE8B" "xA2A80D" "xBD82C0" "xBE8EFF" "xBF9240" "xE98F5C" }
    traits = { state_trait_dostanesck_river }
    city = "xbd82c0" #Gablaine
    farm = "x3d8080" #Cannmarionn
    mine = "xbf9240" #Village of Corvuria
    wood = "x3e84ff" #Arca Kaldere
    arable_land = 74
    arable_resources = { bg_wheat_farms bg_livestock_ranches }
    capped_resources = {
        bg_iron_mining = 24 #eu4 trade good
        bg_coal_mining = 48
        bg_logging = 15
    }
}
STATE_BLACKWOODS = {
    id = 32
    subsistence_building = "building_subsistence_farms"
    provinces = { "x010401" "x3E8840" "x4991EB" "xBD7AFF" "xBE8600" "xBE8A80" "xE1DF19" }
    traits = {}
    city = "xbe8a80" #Kortir
    farm = "xbd7aff" #Holstead
    mine = "x3e8840" #Karn's Hold
    wood = "xbe8600" #Blackwood
    arable_land = 50
    arable_resources = { bg_wheat_farms bg_livestock_ranches }
    capped_resources = {
        bg_iron_mining = 33 #eu4 trade good
        bg_coal_mining = 36
        bg_logging = 23
    }
}
STATE_FENNFORT = {
    id = 33
    subsistence_building = "building_subsistence_farms"
    provinces = { "x0A8D89" "x3F98FF" "x42C8FA" "x85A43D" "xBC6A40" "xBF96C0" "xCAA6E2" "xCCFE72" "xFB0270" }
    traits = {}
    city = "x85a43d" #Fennfort
    farm = "xbc6a40" #Wisphollow
    mine = "xccfe72" #Voltur
    wood = "x3f98ff" #Grufel
    arable_land = 66
    arable_resources = { bg_wheat_farms bg_livestock_ranches }
    capped_resources = {}
}
STATE_RAVENGARD = {
    id = 34
    subsistence_building = "building_subsistence_farms"
    provinces = { "x00A8DD" "x05C8C8" "x3EC8FA" "x3F9480" "x40FAFA" "x4B9F7B" "x7268FF" "xA5205F" "xA8DA11" "xB735CC" "xBD7E40" "xD42234" "xD6818F" "xDBAC0C" "xFAA187" }
    traits = { state_trait_dostanesck_river }
    city = "xbd7e40" #Ravenhill
    farm = "xfaa187" #Dihensein
    mine = "xd42234" #Xhazobain's End
    wood = "x7268ff" #Glademarch
    arable_land = 72
    arable_resources = { bg_wheat_farms bg_livestock_ranches }
    capped_resources = {}
}
STATE_DREADMIRE = {
    id = 35
    subsistence_building = "building_subsistence_farms"
    provinces = { "x3196F8" "x35C8C8" "x3F9C40" "x402400" "x521127" "x601E0C" "x6542B0" "x710F78" "x77B793" "x7C385F" "xBB532D" "xC7E903" "xC7EB17" "xC8AB5B" "xE58594" "xF492A2" }
    traits = { state_trait_dostanesck_river }
    city = "x3196f8" #Tcharei
    farm = "xf492a2" #Visfeld 
    mine = "x35c8c8" #Cl?maire
    wood = "xbb532d" #Lorest's Watch
    arable_land = 83
    arable_resources = { bg_wheat_farms bg_livestock_ranches bg_cotton_plantations }
    capped_resources = {}
    resource = {
        type = "bg_damestear_fields"
        depleted_type = "bg_damestear_mining"
        undiscovered_amount = 10
    }
}
STATE_CORVELD = {
    id = 36
    subsistence_building = "building_subsistence_farms"
    provinces = { "x14DCCC" "x26220D" "x30BF2A" "x31C8C8" "x396221" "x4020C0" "x405DCA" "x40AE32" "x489440" "x5B0A19" "x983566" "xBF9A00" "xBF9E80" "xC022FF" "xC02640" }
    traits = { state_trait_dostanesck_river }
    city = "xbf9e80" #New Corveld
    port = "xc02640" #Nathalaire
    farm = "xbf9a00" #Jorathur
    mine = "x30bf2a" #Dostanesck
    wood = "x31c8c8" #Ueleden
    arable_land = 100
    arable_resources = { bg_wheat_farms bg_livestock_ranches bg_cotton_plantations }
    capped_resources = {
    #needs discoverable. WIP until Folly is designed
    }
    resource = {
        type = "bg_damestear_fields"
        depleted_type = "bg_damestear_mining"
        undiscovered_amount = 6
    }
    naval_exit_id = 3002
}
STATE_ROILSARD = {
    id = 37
    subsistence_building = "building_subsistence_farms"
    provinces = { "x046080" "x0464FF" "x057000" "x8462C0" "x8896FF" }
    traits = {}
    city = "x046080" #Saloren
    port = "x8462c0" #Toarnaire
    farm = "x8896ff" #Roilsard
    mine = "x046080" #Loopuis
    wood = "x057000" #Vivinmar
    arable_land = 112
    arable_resources = { bg_wheat_farms bg_livestock_ranches bg_cotton_plantations bg_vineyard_plantations }
    capped_resources = {
        bg_sulfur_mining = 24
        bg_iron_mining = 12
        bg_logging = 9
        bg_fishing = 7
    }
    naval_exit_id = 3004
}
STATE_ROSECROWN = {
    id = 38
    subsistence_building = "building_subsistence_farms"
    provinces = { "x056CC0" "x0928C0" "x0A2C00" "x0A3080" "x889A40" "x892680" "x892AFF" "x8A2E40" "x8A32C0" "x8E894F" "xC51517" }
    traits = { state_trait_bloodwine_river }
    city = "x892680" #Lorentaine
    port = "x056cc0" #Oldport
    farm = "x0a2c00" #Ionnidar
    mine = "x889a40" #Lorenith
    wood = "x892aff" #Rewanfork
    arable_land = 120
    arable_resources = { bg_wheat_farms bg_livestock_ranches bg_vineyard_plantations }
    capped_resources = {
        bg_coal_mining = 84 #from eu4
        bg_iron_mining = 39
        bg_logging = 7
        bg_fishing = 4
    }
    naval_exit_id = 3004
}
STATE_BLOODWINE = {
    id = 39
    subsistence_building = "building_subsistence_farms"
    provinces = { "x0B4000" "x0D6040" "x0E64C0" "x0F78C0" "x1084FF" "x344D19" "x397381" "x598D34" "x8B3EFF" "x8D5E00" "x903C03" }
    traits = { state_trait_bloodwine_river state_trait_magically_enriched_soils }
    city = "x0f78c0" #Rubenaire
    port = "x0b4000" #Pircost
    farm = "x0d6040" #Enteben
    mine = "x1084ff" #Madelaire
    wood = "x8b3eff" #Eilisin
    arable_land = 138
    arable_resources = { bg_wheat_farms bg_livestock_ranches bg_vineyard_plantations }
    capped_resources = {
        bg_lead_mining = 8 #overlap from Sorncost deposits
        bg_coal_mining = 6
        bg_logging = 7
        bg_fishing = 2
    }
    naval_exit_id = 3004
}
STATE_GREAT_ORDING = {
    id = 40
    subsistence_building = "building_subsistence_farms"
    provinces = { "x09DB72" "x0A34FF" "x0D5880" "x345ED1" "x601040" "x8A3600" "x8C4E80" "x8F7680" "x918EFF" "x9DBFBB" }
    traits = { state_trait_bloodwine_river }
    city = "x0a34ff" #Kyliande becomes the administrative center
    farm = "x8a3600" #High Ording
    mine = "x8c4e80" #Wesmar
    wood = "x918eff" #Ioriel's Rest
    arable_land = 110
    arable_resources = { bg_wheat_farms bg_livestock_ranches bg_vineyard_plantations }
    capped_resources = {}
}
STATE_WINEBAY = {
    id = 41
    subsistence_building = "building_subsistence_farms"
    provinces = { "x0C48FF" "x0C4C40" "x8B4240" "x8D6280" "x8E6A40" "xCDB290" }
    traits = { state_trait_bloodwine_river }
    city = "x8d6280" #Minar
    port = "x8e6a40" #Wineport
    farm = "x8b4240" #Foxalley
    mine = "x0c4c40" #Bottlepoint
    wood = "x0c48ff" #Coruan
    arable_land = 76
    arable_resources = { bg_wheat_farms bg_livestock_ranches bg_cotton_plantations bg_vineyard_plantations }
    capped_resources = {
        bg_coal_mining = 10
        bg_fishing = 10
        bg_logging = 2
    }
    naval_exit_id = 3004
}
STATE_SORNCOST = {
    id = 42
    subsistence_building = "building_subsistence_farms"
    provinces = { "x0C50C0" "x0C5400" "x0E6800" "x2016BB" "x49AB29" "x813F40" "x8C4A00" "x8C52FF" "x8D5640" "x8E66FF" "xE63CC8" "xE74B82" }
    traits = { state_trait_sornroy_river }
    city = "x0c50c0" #Sornaire
    port = "x8c4a00" #Sornbay
    farm = "x8e66ff" #Fioncavin
    mine = "x0e6800" #Aelhill
    wood = "x8c52ff" #Ebenuel
    arable_land = 80
    arable_resources = { bg_wheat_farms bg_livestock_ranches bg_cotton_plantations bg_vineyard_plantations }
    capped_resources = {
        bg_iron_mining = 45
        bg_lead_mining = 22
        bg_coal_mining = 100
        bg_logging = 16
        bg_fishing = 7
    }
    naval_exit_id = 3012
}
STATE_RUBYHOLD = {
    id = 139
    subsistence_building = "building_subsistence_farms"
    provinces = { "x00000A" "x019127" "x089C80" "x0920FF" "x0A75FF" "x1D0B2C" "x2B0D72" "x33301E" "x51E8BE" "x773101" "x871046" "x892200" "x949B67" "xA01669" "xAC3CC6" "xE1DF1D" }
    impassable = { "xe1df1d" }
    traits = {}
    city = "x0920ff" #Rubyhold
    farm = "x892200" #Rivergate
    wood = "x2b0d72" #Redgate
    mine = "x1d0b2c" #Deepmines
    arable_land = 120 #need to be sorted when hold mechanics in
    arable_resources = { bg_mushroom_farms bg_livestock_ranches }
    capped_resources = {
        bg_iron_mining = 60
        bg_coal_mining = 80
    }
}
STATE_VENAIL = {
    id = 141
    subsistence_building = "building_subsistence_farms"
    provinces = { "x0D5CFF" "x47561E" "x665F61" "x802240" "x8D5AC0" "x8D9705" "x923C09" "x929E80" }
    traits = {}
    city = "x8d5ac0" #Venail
    port = "x929e80" #Firstsight
    farm = "x47561e" #Edilliande
    wood = "x923c09" #Var
    mine = "x8d9705" #Larcas
    arable_land = 45
    arable_resources = { bg_wheat_farms bg_livestock_ranches bg_banana_plantations bg_cotton_plantations bg_vineyard_plantations }
    capped_resources = {
        bg_logging = 7
        bg_fishing = 15
    }
    naval_exit_id = 3012
}
STATE_DAROM = {
    id = 43
    subsistence_building = "building_subsistence_farms"
    provinces = { "x0894C0" "x0B3CC0" "x0B4480" "x0E6C80" "x0E70FF" "x0F7440" "x40F5C0" "x8B46C0" "x8F7200" "x99CD15" "xB3A072" "xC9F9B2" "xD2F055" "xDEB057" }
    traits = {}
    city = "x0894c0" #Daromsfort
    port = "x0e6c80" #Lencesk
    farm = "x0b3cc0" #Greatfield
    mine = "x0c5400" #Casna Ola
    wood = "x0f7440" #Mistspear - that weird house on the hill, Medron House from CK3
    arable_land = 112
    arable_resources = { bg_wheat_farms bg_livestock_ranches bg_vineyard_plantations }
    capped_resources = {
        bg_fishing = 12
        bg_logging = 6
    }
    naval_exit_id = 3006
}
STATE_DERANNE = {
    id = 44
    subsistence_building = "building_subsistence_farms"
    provinces = { "x0F7C00" "x108080" "x59968E" "x8F7E40" "x9082C0" "x919240" "xDBA581" }
    traits = { state_trait_middanroy_river }
    city = "x9082c0" #Deranne
    port = "x108080" #Westport
    farm = "x8f7e40" #Rosereach
    mine = "x919240" #Clearshore
    wood = "x0f7c00" #Aelvar
    arable_land = 100
    arable_resources = { bg_wheat_farms bg_livestock_ranches bg_vineyard_plantations } #cotton from aelantir or someshizz
    capped_resources = {
        bg_coal_mining = 24
        bg_logging = 15 #cos of aelvar woods
        bg_whaling = 5
        bg_fishing = 12
    }
    naval_exit_id = 3006
}
STATE_REDGLADES = {
    id = 45
    subsistence_building = "building_subsistence_farms"
    provinces = { "x108840" "x108CC0" "x119000" "x8B3A80" "x908600" "x908A80" "xCA4A5D" }
    traits = { state_trait_middanroy_river }
    city = "x908600" #Ioriellen
    farm = "x8b3a80" #Gladegate
    mine = "x108cc0" #Summerglade
    wood = "x108840" #Autumnglade - all these should get better elven names
    arable_land = 90
    arable_resources = { bg_wheat_farms bg_livestock_ranches bg_silk_plantations bg_vineyard_plantations }
    capped_resources = {
        bg_logging = 19
    }
}
STATE_SOUTHROY = {
    id = 46
    subsistence_building = "building_subsistence_farms"
    provinces = { "x1198FF" "x1220C0" "x26C8FA" "x9196C0" "x919A00" "xB63F36" }
    traits = { state_trait_middanroy_river }
    city = "x1198ff" #Sildthol
    port = "x9196c0" #Thunderward
    farm = "x919a00" #Haysfield
    mine = "x26c8fa" #NEW PLACE
    wood = "x1220c0" #Southroy
    arable_land = 110
    arable_resources = { bg_wheat_farms bg_livestock_ranches }
    capped_resources = {
        bg_fishing = 6
    }
    naval_exit_id = 3006
}
STATE_KHENAK = {
    id = 47
    subsistence_building = "building_subsistence_farms"
    provinces = { "x14FAFA" "x15C8C8" "x17DCFA" "x337480" "x3478FF" "x7692F9" "x856A7B" "xB376C0" "xC3CF61" "xE7E016" }
    traits = {}
    city = "x337480" #Elsine
    farm = "xb376c0" #Stonehold
    mine = "xe7e016" #Khenak Range
    wood = "xb376c0" #Hortosare
    arable_land = 37
    arable_resources = { bg_wheat_farms bg_livestock_ranches bg_cotton_plantations }
    capped_resources = {
        bg_lead_mining = 60 #copper
        bg_iron_mining = 15
        bg_logging = 8
    }
}
STATE_LORIN_CANNO = {
    id = 48
    subsistence_building = "building_subsistence_farms"
    provinces = { "x1BDCFA" "x2CFAFA" "x348400" "x358CFF" "x3694C0" "x5FDDFB" "xB58640" "xB59280" }
    traits = {}
    city = "x348400" #Cannohap
    port = "x358cff" #Lorin
    farm = "xb59280" #Taulos
    mine = "xb58640" #Khenahap
    wood = "x1bdcfa" #Madar
    arable_land = 86
    arable_resources = { bg_wheat_farms bg_livestock_ranches bg_cotton_plantations bg_vineyard_plantations }
    capped_resources = {
        bg_lead_mining = 24
        bg_fishing = 4
    }
    naval_exit_id = 3005
}
STATE_HAPAINE = {
    id = 49
    subsistence_building = "building_subsistence_farms"
    provinces = { "x21C8C8" "x329452" "x347C40" "x3A50C0" "xB47A00" "xB47E80" }
    traits = {}
    city = "x3a50c0" #Hapaine
    port = "xb47a00" #Port Jaher
    farm = "x329452" #Cedor
    mine = "xb47e80" #Busilar
    wood = "x347c40" #Lorbet
    arable_land = 96
    arable_resources = { bg_wheat_farms bg_livestock_ranches bg_cotton_plantations bg_sugar_plantations bg_vineyard_plantations }
    capped_resources = {
        bg_lead_mining = 30
        bg_iron_mining = 21
        bg_logging = 5
        bg_fishing = 6
    }
    naval_exit_id = 3002
}
STATE_LIONCOST = {
    id = 50
    subsistence_building = "building_subsistence_farms"
    provinces = { "x1CFAFA" "x2FDCFA" "x3480C0" "x358880" "x856EFF" "xB58AC0" }
    traits = {}
    city = "x1cfafa" #Ohitkes
    port = "x3480c0" #Arca Haren
    farm = "xb58ac0" #Derancestir
    mine = "x358880" #Carverhouse
    wood = "x856eff" #Lion's Pass
    arable_land = 80
    arable_resources = { bg_wheat_farms bg_livestock_ranches bg_silk_plantations bg_cotton_plantations bg_sugar_plantations bg_vineyard_plantations }
    capped_resources = {
        bg_fishing = 11
    }
    naval_exit_id = 3005
}
STATE_EBORTHIL = {
    id = 51
    subsistence_building = "building_subsistence_farms"
    provinces = { "x056840" "x369800" "x856600" "xB482FF" "xB696FF" }
    traits = {}
    city = "x369800" #Eborthil
    port = "xb482ff" #Port Jurith
    farm = "x856600" #Toref Citadel
    mine = "xb696ff" #Stonegaze
    wood = "x056840" #New Tefkora
    arable_land = 48
    arable_resources = { bg_rice_farms bg_livestock_ranches bg_silk_plantations bg_cotton_plantations bg_tobacco_plantations bg_sugar_plantations bg_vineyard_plantations }
    capped_resources = {
        bg_sulfur_mining = 80
        bg_lead_mining = 38
        bg_gold_mining = 3
        bg_coal_mining = 84
        bg_fishing = 16
        bg_logging = 2
    }
    naval_exit_id = 3005
}
STATE_DESHAK = {
    id = 52
    subsistence_building = "building_subsistence_farms"
    provinces = { "x369C80" "x3948FF" "x4134C0" "xB69A40" "xB83A80" "xB93EFF" "xB946C0" "xB94A00" "xC02AC0" }
    traits = {}
    city = "x369c80" #Deshak
    port = "x3948ff" #Mushesh
    farm = "xb94a00" #Khalur
    mine = "xb83a80" #Hapak
    wood = "xb69a40" #Krodamat
    arable_land = 60
    arable_resources = { bg_wheat_farms bg_livestock_ranches bg_cotton_plantations bg_sugar_plantations bg_vineyard_plantations }
    capped_resources = {
        bg_coal_mining = 50 #from eborthil deposits
        bg_logging = 4
        bg_fishing = 6
    }
    naval_exit_id = 3001
}
STATE_KHASA = {
    id = 53
    subsistence_building = "building_subsistence_farms"
    provinces = { "x3620FF" "x372440" "x394000" "xB69EC0" "xB72200" "xB832C0" }
    traits = {}
    city = "x394000" #Khasa
    port = "x372440" #Akasat
    farm = "x3620ff" #Adseenu
    mine = "xb832c0" #Kokerrat
    wood = "xb72200" #Addsen
    arable_land = 72
    arable_resources = { bg_wheat_farms bg_livestock_ranches bg_cotton_plantations bg_vineyard_plantations }
    capped_resources = {
        bg_logging = 2
        bg_fishing = 5
    }
    naval_exit_id = 3001
}
STATE_EKHA = {
    id = 54
    subsistence_building = "building_subsistence_farms"
    provinces = { "x3728C0" "x372C00" "x394480" "x3A4C40" "xB72680" "xB72AFF" "xB72E40" }
    traits = {}
    city = "x394480" #Ekha
    port = "xb72aff" #Benirkes
    farm = "xb72680" #Sensha
    mine = "x372c00" #Sirik
    wood = "x3728c0" #Tipspit
    arable_land = 50
    arable_resources = { bg_wheat_farms bg_livestock_ranches bg_banana_plantations bg_cotton_plantations bg_sugar_plantations bg_vineyard_plantations }
    capped_resources = {
        bg_logging = 1
        bg_fishing = 8
    }
    naval_exit_id = 3013
}
STATE_AKASIK = {
    id = 55
    subsistence_building = "building_subsistence_orchards"
    provinces = { "x383080" "x383840" "x383CC0" "xB83600" "xB94240" }
    traits = {}
    city = "xb83600" #Srihaf
    farm = "x383080" #Sirspit
    mine = "xb94240" #Akbia
    wood = "x383840" #Thik
    arable_land = 22
    arable_resources = { bg_wheat_farms bg_livestock_ranches }
    capped_resources = {
        bg_iron_mining = 30
    }
}
STATE_ROYSFORT = {
    id = 56
    subsistence_building = "building_subsistence_farms"
    provinces = { "x122400" "x122880" "x133040" "x4515D2" "x922640" "xBDCB6F" "xDF9239" }
    traits = { state_trait_good_soils state_trait_middanroy_river }
    city = "x133040" #Breadburd
    farm = "x122880" #Greenberry
    mine = "x922640" #Roysfort
    wood = "x122400" #Haibo
    arable_land = 138
    arable_resources = { bg_rye_farms bg_livestock_ranches }
    capped_resources = {
        bg_logging = 2
    }
}
STATE_THOMSBRIDGE = {
    id = 57
    subsistence_building = "building_subsistence_farms"
    provinces = { "x132CFF" "x155080" "x165CC0" "x176C40" "x4A237A" "x932AC0" "x932E00" "x965EFF" "xD5115E" }
    traits = { state_trait_good_soils state_trait_middanroy_river }
    city = "x965eff" #Thomsbridge
    farm = "x932e00" #Tipney
    mine = "x165cc0" #Lasean
    wood = "x132cff" #Middlewood
    arable_land = 200
    arable_resources = { bg_wheat_farms bg_livestock_ranches bg_tobacco_plantations }
    capped_resources = {
        bg_logging = 10
    }
}
STATE_CIDERFIELD = {
    id = 58
    subsistence_building = "building_subsistence_farms"
    provinces = { "x28EF12" "x555020" "x933280" "x9336FF" "x943A40" "x954680" "x9766C0" "x976A00" "xA9AF29" }
    traits = { state_trait_good_soils state_trait_middanroy_river }
    city = "x943a40" #Turnwell
    farm = "x954680" #Pearview
    mine = "x976a00" #Newcobble
    wood = "x9336ff" #Appleton
    arable_land = 162
    arable_resources = { bg_rye_farms bg_livestock_ranches }
    capped_resources = {
        bg_logging = 8
    }
}
STATE_HOMEHILLS = {
    id = 59
    subsistence_building = "building_subsistence_farms"
    provinces = { "x013880" "x0A3840" "x166000" "x176480" "x1768FF" "x899EC0" "x954AFF" "x976240" }
    traits = { state_trait_good_soils state_trait_middanroy_river }
    city = "x899ec0" #Viswall
    farm = "x176480" #Aelcandar
    mine = "x166000" #Coppertown
    wood = "x954aff" #Norley
    arable_land = 180
    arable_resources = { bg_rye_farms bg_livestock_ranches bg_dye_plantations }
    capped_resources = {
        bg_coal_mining = 80 #from eu4
        bg_lead_mining = 36 #as coppertown has copper which is ferrous like lead
        bg_logging = 6
    }
}
STATE_ELKMARCH = {
    id = 60
    subsistence_building = "building_subsistence_farms"
    provinces = { "x151BCE" "x15BF9C" "x1D3C40" "x1D40C0" "x1E4400" "x3158C0" "x812E80" "x9D3E80" "x9D42FF" "xB15680" "xDE562E" }
    traits = { state_trait_middanroy_river }
    city = "x3158c0" #Twofork
    port = "x9d3e80" #Uelaire
    farm = "xb15680" #Newacre
    mine = "x1d40c0" #Westmere
    wood = "x1d3c40" #Elkwood
    arable_land = 70
    arable_resources = { bg_rye_farms bg_livestock_ranches }
    capped_resources = {
        bg_logging = 17
    }
    naval_exit_id = 3000
}
STATE_BEEPECK = {
    id = 61
    subsistence_building = "building_subsistence_farms"
    provinces = { "x089800" "x3EEAFC" "x954E40" "x965600" "x9D3A00" }
    traits = {}
    city = "x954e40" #Beepeck
    port = "x089800" #Beepiers
    farm = "x29caca" #The Strip
    mine = "x965600" #Saltfort
    wood = "x9d3a00" #Braydens
    arable_land = 54
    arable_resources = { bg_rye_farms bg_livestock_ranches }
    capped_resources = {
        bg_coal_mining = 22
    }
    naval_exit_id = 3000
}
STATE_DRAGONHILLS = {
    id = 62
    subsistence_building = "building_subsistence_farms"
    provinces = { "x079CBC" "x092440" "x154C00" "x2999F4" "x9E4640" "x9E4AC0" "xFF3449" }
    traits = { state_trait_middanroy_river }
    city = "x9e4ac0" #Eaglecrest
    farm = "x154c00" #Lodan
    mine = "x092440" #Feycombe
    wood = "x9e4640" #Grodplodd
    arable_land = 44
    arable_resources = { bg_rye_farms bg_livestock_ranches }
    capped_resources = {
        bg_coal_mining = 20
        bg_lead_mining = 21
        bg_logging = 8
    }
}
STATE_IOCHAND = {
    id = 63
    subsistence_building = "building_subsistence_farms"
    provinces = { "x0C8FC6" "x129C40" "x143C80" "x23DCFA" "x9222FF" "x943EC0" "xBD889C" }
    traits = {}
    city = "x129c40" #Portnamm
    port = "x9222ff" #Eldergreen
    farm = "x143c80" #Iochand
    mine = "x943ec0" #Carverhold
    wood = "x23dcfa" #Croons
    arable_land = 100
    arable_resources = { bg_rye_farms bg_livestock_ranches }
    capped_resources = {
        bg_logging = 6
    }
    naval_exit_id = 3006
}
STATE_REVERIA = {
    id = 64
    subsistence_building = "building_subsistence_farms"
    provinces = { "x119480" "x1334C0" "x143800" "x1440FF" "x32C8FA" "xB0688D" }
    traits = {}
    city = "x1440ff" #Manerd
    port = "x1334c0" #Reaver's Landing
    farm = "x143800" #Aamdstook
    mine = "x119480" #Baynoms
    wood = "x32c8fa" #Stormpoint
    arable_land = 84
    arable_resources = { bg_rye_farms bg_livestock_ranches }
    capped_resources = {
        bg_logging = 12
        bg_fishing = 15
    }
    naval_exit_id = 3006
}
STATE_GNOMISH_PASS = {
    id = 65
    subsistence_building = "building_subsistence_farms"
    provinces = { "x144440" "x1548C0" "x187400" "x1C9894" "x3FC020" "x944200" "x952D2D" "x976E80" "xC20A82" }
    traits = { state_trait_baycodds_damestear_mine }
    city = "x976e80" #Royvibobb
    port = "x144440" #Baycodds
    farm = "x944200" #Olmaddit
    mine = "x187400" #Haighpeck
    wood = "x1548c0" #Manyburrows
    arable_land = 32
    arable_resources = { bg_rye_farms bg_livestock_ranches }
    capped_resources = {
        bg_coal_mining = 40
        bg_lead_mining = 27
        bg_logging = 7
        bg_damestear_mining = 6 #from baycodds
    }
    naval_exit_id = 3006
}
STATE_THE_IONDDAMMO = {
    id = 66
    subsistence_building = "building_subsistence_farms"
    provinces = { "x02A8B1" "x154F1E" "x1670E8" "x187880" "x187CFF" "x71EF21" "x987640" "x987AC0" "x998A40" "x9A8EC0" "xBF2BC4" }
    traits = { state_trait_widderoy_river }
    city = "x987ac0" #Sildnamm
    port = "x187880" #Widdechand
    farm = "x998a40" #Ionddammroy
    mine = "x187cff" #Sildnomm
    wood = "x987640" #Tholod
    arable_land = 128
    arable_resources = { bg_rye_farms bg_livestock_ranches }
    capped_resources = {
        bg_sulfur_mining = 20
        bg_coal_mining = 50
        bg_iron_mining = 45
        bg_lead_mining = 33
        bg_logging = 7
        bg_fishing = 8
    }
    naval_exit_id = 3006
}
STATE_ODDANROY = {
    #gnomish provs dont have a lot of coal on purpose, make em go electric or other power source later
    id = 67
    subsistence_building = "building_subsistence_farms"
    provinces = { "x198040" "x1984C0" "x637E68" "x83C67B" "x9872FF" "x997E00" "x998280" "x9986FF" "xBF832D" "xCD7D5A" "xE5F930" }
    traits = { state_trait_widderoy_river }
    city = "x998280" #Oddansbay
    port = "x9872ff" #Nimscodd
    farm = "x997e00" #Chiddeburd
    mine = "x9986ff" #Norbit
    wood = "x1984c0" #Norcamb
    arable_land = 64
    arable_resources = { bg_rye_farms bg_livestock_ranches }
    capped_resources = {
        bg_sulfur_mining = 60
        bg_logging = 9
        bg_fishing = 10
        bg_gold_mining = 3
    }
    naval_exit_id = 3006
}
STATE_DRAGONSPINE = {
    id = 68
    subsistence_building = "building_subsistence_farms"
    provinces = { "x140F8A" "x198800" "x1A8C80" "x1A90FF" "x4339DF" "x47DCFA" "x736F00" "x73E788" "x80782D" "x9BBBA9" "xCB362B" "xDF5A92" "xE4BB0E" "xEF7B24" }
    traits = {}
    city = "x47dcfa" #Middanbit
    port = "x1a8c80" #NEW PLACE
    farm = "x1a90ff" #Moorbob
    mine = "x9bbba9" #Dragonspine
    wood = "x198800" #Adderodd
    arable_land = 32
    arable_resources = { bg_livestock_ranches bg_rye_farms }
    capped_resources = {
        bg_iron_mining = 38
        bg_sulfur_mining = 28
        bg_fishing = 15
    }
    resource = {
        type = "bg_damestear_fields"
        depleted_type = "bg_damestear_mining"
        undiscovered_amount = 6
    }
    naval_exit_id = 3010
}
STATE_STORM_ISLES = {
    id = 69
    subsistence_building = "building_subsistence_farms"
    provinces = { "x1A98C0" "x1B9C00" "x1C2CC0" "x48FAFA" "x9C2EFF" }
    traits = { state_trait_storm_islands_fishing }
    city = "x48fafa" #NEW PLACE
    port = "x1b9c00" #NEW PLACE
    farm = "x1a98c0" #Lilcodd
    mine = "x1c2cc0" #Oddcodd
    wood = "x9c2eff" #Docodd
    arable_land = 12
    arable_resources = { bg_livestock_ranches }
    capped_resources = {
        bg_fishing = 10
        bg_whaling = 6
    }
    naval_exit_id = 3010
}
STATE_BRECC = {
    #a city of gnomish and kobold exiles. Imagine a city spilling out of a cliff edge and massive mouth of a cave
    id = 70
    subsistence_building = "building_subsistence_farms"
    provinces = { "x2EC8FA" "x9A9680" }
    traits = { state_trait_widderoy_river }
    city = "x9a9680" #Outer Brecc
    mine = "x2ec8fa" #Inner Brecc
    farm = "x9a9680" #Felds
    wood = "x9a9680" #Uppys
    arable_land = 40
    arable_resources = { bg_livestock_ranches }
    capped_resources = {
        bg_sulfur_mining = 32
        bg_coal_mining = 70
        bg_lead_mining = 45
        bg_logging = 2
    }
}
STATE_KOBILDZAN = {
    id = 71
    subsistence_building = "building_subsistence_farms"
    provinces = { "x1A9440" "x510EC8" "x7945E1" "x93DEDA" "x9B9AFF" "xA189FA" "xC9B096" "xe0dc75" }
    impassable = { "xe0dc75" }
    traits = { state_trait_cramped_caverns state_trait_dragonheights }
    city = "x9b9aff" #Kobildzan Undercity
    farm = "xa189fa" #Malazkurn
    mine = "x93deda" #Mallayd
    wood = "x1a9440" #Kobildzex
    arable_land = 84
    arable_resources = { bg_wheat_farms bg_livestock_ranches }
    capped_resources = {
        bg_iron_mining = 45
        bg_lead_mining = 60
        bg_sulfur_mining = 40
        bg_coal_mining = 80
    }
}
STATE_FLOODMARCHES = {
    id = 72
    subsistence_building = "building_subsistence_farms"
    provinces = { "x0505A1" "x1E4880" "x1E4CFF" "x24D985" "x27E5CF" "x30F440" "x44A804" "x463F7A" "x9C8D87" "x9E4E00" "xE11435" "xF6C505" }
    traits = { state_trait_alen_river }
    city = "x30f440" #Fludhill
    port = "x1e4cff" #Wickham
    mine = "x9e4e00" #Puddledrown
    wood = "x1e4880" #Lonevalley
    farm = "29caca" #Floodmark
    arable_land = 34
    arable_resources = { bg_wheat_farms bg_livestock_ranches }
    capped_resources = {
        bg_lead_mining = 15
        bg_logging = 4
        bg_fishing = 5
    }
    naval_exit_id = 3000
}
STATE_VERTESK = {
    id = 73
    subsistence_building = "building_subsistence_farms"
    provinces = { "x12C8FA" "x1E5040" "x470DAC" "x9F56FF" "xA17600" "xA39640" "xA8CF5A" "xD4BED7" "xF8307F" }
    traits = { state_trait_alen_river }
    city = "x1e5040" #Vertesk
    port = "xa39640" #Highharbour
    farm = "x12c8fa" #Oakvale
    mine = "x9f56ff" #Tenbury
    wood = "xa17600" #Greenley
    arable_land = 100
    arable_resources = { bg_rye_farms bg_livestock_ranches }
    capped_resources = {
        bg_lead_mining = 30
        bg_coal_mining = 72
        bg_fishing = 12
    }
    naval_exit_id = 3000
}
STATE_LOWER_ALEN = {
    id = 74
    subsistence_building = "building_subsistence_farms"
    provinces = { "x1F54C0" "x1F5800" "x304800" "x42E15F" "x677591" "x77C95E" "x9F5280" "xA10E01" "xB04280" "xB046FF" "xB0CCD5" }
    traits = { state_trait_alen_river }
    city = "xb04280" #Alenath
    farm = "xb046ff" #Elwick-upon-Alen
    mine = "x9f5280" #Talonmount
    wood = "x1f5800" #Ginnfield
    arable_land = 118
    arable_resources = { bg_rye_farms bg_livestock_ranches }
    capped_resources = {
        bg_coal_mining = 120 #coal from eu4 
        bg_lead_mining = 27 #moved this from Gawed
        bg_logging = 5
    }
}
STATE_GAWED = {
    id = 75
    subsistence_building = "building_subsistence_farms"
    provinces = { "x1F5C80" "x315440" "x61C65C" "x9F5A40" "x9F5EC0" "xB04A40" "xE2992E" }
    traits = { state_trait_alen_river }
    city = "x9f5a40" #Gaweton
    farm = "xb04a40" #Norleigh
    mine = "x1f5c80" #Vanbury
    wood = "x9f5ec0" #Drakesford
    arable_land = 106
    arable_resources = { bg_rye_farms bg_livestock_ranches }
    capped_resources = {
        bg_coal_mining = 100
        bg_iron_mining = 60 #not as big as say telgeir or wex, but starts more industrialized
        bg_lead_mining = 6
        bg_logging = 7
    }
}
STATE_ALENIC_EXPANSE = {
    id = 76
    subsistence_building = "building_subsistence_farms"
    provinces = { "x0A75E4" "x2060FF" "x3044C0" "x8DD539" "x93F8C6" "x9FFCB3" "xA17A80" "xA27EFF" "xA286C0" "xAAB6A5" "xEBF66E" "xF25A1A" "xF85DC8" }
    traits = {}
    city = "xa286c0" #Gerwick
    farm = "x3044c0" #Morban
    mine = "xa17a80" #Baldfather
    wood = "x2060ff" #Humbercroft
    arable_land = 110
    arable_resources = { bg_rye_farms bg_livestock_ranches }
    capped_resources = {
        bg_logging = 5
        bg_iron_mining = 12
    }
}
STATE_GREATWOODS = {
    id = 77
    subsistence_building = "building_subsistence_farms"
    provinces = { "x13CCFE" "x206440" "x2068C0" "x228000" "x228480" "x3150FF" "x3D7AA7" "x4B202D" "x4D3C2E" "x7FD0E5" "xA06200" "xA06680" "xA28240" "xB14EC0" "xBDD01B" "xC12D85" "xCBA5CE" "xED1861" }
    traits = { state_trait_alen_river state_trait_greatwoods }
    city = "xa06200" #Alenvord
    farm = "x206440" #Legion's Clearing
    mine = "x3150ff" #Oudescker
    wood = "xa06680" #Aldtempel
    arable_land = 72
    arable_resources = { bg_rye_farms bg_livestock_ranches }
    capped_resources = {
        bg_coal_mining = 80 #from eu4
        bg_iron_mining = 22
        bg_logging = 39
    }
    resource = {
        type = "bg_damestear_fields"
        depleted_type = "bg_damestear_mining"
        undiscovered_amount = 4
    }
}
STATE_BERONMOOR = {
    id = 78
    subsistence_building = "building_subsistence_farms"
    provinces = { "x131B5B" "x1C3480" "x1D38FF" "x2D94B0" "x4AC8FA" "x58EF72" "x86E45D" "x930F69" "x9486EC" "x9C3240" "x9C78F7" "x9D36C0" "xB6016B" "xCF5BF4" "xD64E92" }
    traits = {}
    city = "x1c3480" #Moorton
    farm = "x9d36c0" #Cockerwall
    mine = "x9c3240" #Beron Heights
    wood = "x1d38ff" #Edgemoor
    arable_land = 48
    arable_resources = { bg_rye_farms bg_livestock_ranches }
    capped_resources = {
        bg_coal_mining = 20
        bg_logging = 2
    }
    resource = {
        type = "bg_damestear_fields"
        depleted_type = "bg_damestear_mining"
        undiscovered_amount = 4
    }
}
STATE_WESTMOORS_PROPER = {
    id = 79
    subsistence_building = "building_subsistence_farms"
    provinces = { "x095350" "x119348" "x1B2080" "x1B24FF" "x1C2840" "x1D8E8F" "x343C7E" "x7C855D" "x9B22C0" "x9B2600" "x9B9E40" "xA71BB2" "xB15200" "xB3729B" "xD741B2" "xD85DB4" }
    traits = {}
    city = "xb15200" #Bleakpass
    port = "x9b9e40" #Brontay Point
    farm = "x1b2080" #Cottersea
    mine = "x1c2840" #Redferne Hill
    wood = "x9b22c0" #Leapdon
    arable_land = 62
    arable_resources = { bg_rye_farms bg_livestock_ranches }
    capped_resources = {
        bg_sulfur_mining = 12
        bg_iron_mining = 15
        bg_coal_mining = 40 #likely from nearby lower alen deposits
        bg_whaling = 4
        bg_fishing = 10
        bg_logging = 1
    }
    naval_exit_id = 3010
}
STATE_CODDORRAN_HEIGHTS = {
    id = 80
    subsistence_building = "building_subsistence_farms"
    provinces = { "x1CF800" "x36C073" "x3CAECB" "x3F32BC" "x4C8F3C" "x71A859" "x9C2A80" "x9DBA2A" "xA26F82" "xBB28DE" }
    traits = { state_trait_storm_islands_fishing }
    city = "x4c8f3c" #Coddorran City
    port = "xa26f82" #Haighbobben
    farm = "x9dba2a" #NEW PLACE
    mine = "x1cf800" #NEW PLACE
    wood = "x3caecb" #NEW PLACE
    arable_land = 25
    arable_resources = { bg_rye_farms bg_livestock_ranches }
    capped_resources = {
        bg_fishing = 12
        bg_sulfur_mining = 20 #dragonheights mountain range has sulfur in general now
    }
    naval_exit_id = 3010
}
STATE_SERPENTSHEAD = {
    id = 81
    subsistence_building = "building_subsistence_farms"
    provinces = { "x2B00F6" "x46B48C" "x638CFF" "x639040" "x6394C0" "x649800" "x680BB5" "x7B994C" "x884170" "x8BC648" "x92E397" "x9E8DF5" "xA409C0" "xB35AD6" "xB3F025" "xC34748" "xCD2826" "xCE989F" "xE38E00" "xE39280" "xE396FF" "xE5B709" "xF162C2" }
    traits = { state_trait_greatwoods state_trait_giants_grave_fishing }
    city = "x639040" #Celmaldor
    port = "xe39280" #Mawdock
    farm = "xe396ff" #Serpentback
    mine = "xe38e00" #Deland
    wood = "x649800" #Coldmarket
    arable_land = 94
    arable_resources = { bg_rye_farms bg_livestock_ranches }
    capped_resources = {
        bg_logging = 28
        bg_whaling = 5
        bg_fishing = 14
    }
    naval_exit_id = 3010
}
STATE_ADSHAW = {
    id = 82
    subsistence_building = "building_subsistence_farms"
    provinces = { "x0A111D" "x3FAED7" "x404728" "x565EC8" "x602770" "x649C80" "x6B8080" "xD11A3C" "xD82127" "xE46E35" "xE49EC0" "xE85640" }
    traits = { state_trait_greatwoods }
    city = "xd82127" #Dinesck
    farm = "xe85640" #Rycastle
    mine = "xe49ec0" #Adderwood
    wood = "x649c80" #Shawmark
    arable_land = 58
    arable_resources = { bg_rye_farms bg_livestock_ranches }
    capped_resources = {
        bg_logging = 56
        bg_damestear_fields = 4
    }
}
STATE_BAYVEK = {
    id = 83
    subsistence_building = "building_subsistence_farms"
    provinces = { "x044592" "x07DCFA" "x61C9C9" "x6748FF" "xE42200" "xE746C0" }
    traits = { state_trait_greatwoods state_trait_giants_grave_fishing }
    city = "xe746c0" #Bayvek
    port = "x6748ff" #Envermarck
    farm = "x07dcfa" #Meadby
    mine = "xe42200" #Ordal
    wood = "x61c9c9" #Viderton
    arable_land = 88
    arable_resources = { bg_rye_farms bg_livestock_ranches }
    capped_resources = {
        bg_sulfur_mining = 40
        bg_logging = 12
        bg_fishing = 12
    }
    naval_exit_id = 3007
}
STATE_REACHSPIER = {
    id = 84
    subsistence_building = "building_subsistence_farms"
    provinces = { "x6420FF" "x642440" "x674480" "x6BE153" "x735DA4" "xE74240" "xEDD1E9" }
    traits = { state_trait_greatwoods state_trait_giants_grave_fishing }
    city = "xedd1e9" #Reachspier
    port = "x674480" #Everwharf
    farm = "xe74240" #Alencay
    wood = "x642440" #Drengerton
    mine = "xedd1e9"
    arable_land = 70
    arable_resources = { bg_rye_farms bg_livestock_ranches }
    capped_resources = {
        bg_sulfur_mining = 20
        bg_logging = 16
    }
    naval_exit_id = 3007
}
STATE_BALMIRE = {
    id = 85
    subsistence_building = "building_subsistence_farms"
    provinces = { "x02250F" "x0B3790" "x206C00" "x217080" "x360474" "x37EB3E" "x3F59F8" "xA06AFF" "xA105A6" "xA16E40" }
    traits = { state_trait_alen_river }
    city = "xa06aff" #Bal Mire
    farm = "x206c00" #Rottenstep
    mine = "x217080" #Venomfen
    wood = "xa16e40" #Cravens Walk
    arable_land = 50
    arable_resources = { bg_rye_farms bg_livestock_ranches }
    capped_resources = {
        bg_logging = 8
    }
    resource = {
        type = "bg_damestear_fields"
        depleted_type = "bg_damestear_mining"
        undiscovered_amount = 3
    }
}
STATE_NORTH_IBEVAR = {
    id = 86
    subsistence_building = "building_subsistence_farms"
    provinces = { "x325C00" "x326080" "x337000" "x878E4F" "xA52A40" "xB25E40" }
    traits = {}
    city = "x326080" #Ibevar City
    farm = "x337000" #Thanas
    wood = "xa52a40" #Carodir's Pass
    mine = "xb25e40" #Nurael
    arable_land = 90
    arable_resources = { bg_wheat_farms bg_livestock_ranches }
    capped_resources = {
        bg_logging = 22
    }
    resource = {
        type = "bg_damestear_fields"
        depleted_type = "bg_damestear_mining"
        undiscovered_amount = 4 #undiscovered due to spooky forest
    }
}
STATE_SOUTH_IBEVAR = {
    id = 87
    subsistence_building = "building_subsistence_farms"
    provinces = { "x2B6AFC" "x2C94FF" "x3264FF" "x326840" "x3C6C80" "x3EE6FC" "xB262C0" "xB37240" "xC9A17F" "xD0CA27" }
    traits = {}
    city = "xb262c0" #Varillen
    farm = "x3264ff" #Larthan
    wood = "xb37240" #Blaidscall
    mine = "x326840" #Ar Einnas
    arable_land = 84
    arable_resources = { bg_wheat_farms bg_livestock_ranches }
    capped_resources = {
        bg_iron_mining = 30
        bg_logging = 17
    }
}
STATE_CURSEWOOD = {
    id = 88
    subsistence_building = "building_subsistence_farms"
    provinces = { "x015BE4" "x336CC0" "x4780B3" "xA42280" "xB26600" "xB36EFF" "xDDA57F" }
    traits = {}
    city = "xb36eff" #Ainethil
    farm = "xa42280" #Tederfremh
    wood = "x336cc0" #West bit of Coldrest/Riarcithe
    mine = "xdda57f" #East bit of Coldrest/Riarcithe
    arable_land = 84
    arable_resources = { bg_wheat_farms bg_livestock_ranches }
    capped_resources = {
        bg_logging = 13 #spooky number, didn't update amount like rest of logging
    }
}
STATE_FARRANEAN = {
    id = 89
    subsistence_building = "building_subsistence_farms"
    provinces = { "x6E3040" "x6F34C0" "x6F3800" "xBC019A" "xE78C45" "xEE2E00" "xEF3280" "xEF36FF" "xFA241C" }
    traits = {}
    city = "xef3280" #Escin
    farm = "xee2e00" #Lonesfield
    wood = "x6f34c0" #Hushdell
    mine = "x6f3800" #Valefort
    arable_land = 92    #reduced
    arable_resources = { bg_wheat_farms bg_livestock_ranches }
    capped_resources = {
        bg_coal_mining = 52
        bg_logging = 5
    }
}
STATE_ADENICA = {
    id = 90
    subsistence_building = "building_subsistence_farms"
    provinces = { "x6C9480" "x6D98FF" "x715080" "xEC9240" "xED96C0" "xED9A00" }
    traits = {}
    city = "xed9a00" #Tiltwick
    farm = "xed96c0" #Listfields
    wood = "x6d98ff" #Upcreek
    mine = "x715080" #Balgarton
    arable_land = 67
    arable_resources = { bg_wheat_farms bg_livestock_ranches }
    capped_resources = {
        bg_logging = 4
    }
}
STATE_ROHIBON = {
    id = 91
    subsistence_building = "building_subsistence_farms"
    provinces = { "x6D20C0" "x6E2400" "xED22FF" "xEE2640" }
    traits = {}
    city = "xed22ff" #Rohibon
    farm = "x6d20c0" #Gallopsway
    wood = "x6e2400" #Horsemans Advance
    mine = "xee2640" #Halansar
    arable_land = 60
    arable_resources = { bg_wheat_farms bg_livestock_ranches }
    capped_resources = {}
#naval_exit_id = 3000
}
STATE_ANCARDIAN_PLAINS = {
    id = 92
    subsistence_building = "building_subsistence_farms"
    provinces = { "x1DC8C8" "x6E2880" "x6E2CFF" "xEE2AC0" }
    traits = {}
    city = "x6e2cff" #Ancardaire
    farm = "x6e2880" #Banwick
    wood = "x1dc8c8" #Lasaliande
    mine = "xee2ac0" #Cantercurse
    arable_land = 74
    arable_resources = { bg_wheat_farms bg_livestock_ranches }
    capped_resources = {
        bg_logging = 4
    }
#naval_exit_id = 3000
}
STATE_NEWSHIRE = {
    id = 93
    subsistence_building = "building_subsistence_farms"
    provinces = { "x2BDCFA" "x5EC9FB" "x6F3C80" "xEF3A40" }
    traits = {}
    city = "x6f3c80" #Verteben
    farm = "x5ec9fb" #Hillshires
    wood = "x2bdcfa" #Aesawic
    mine = "xef3a40" #Shieldrest
    arable_land = 100
    arable_resources = { bg_wheat_farms bg_livestock_ranches }
    capped_resources = {
        bg_iron_mining = 45 #Mines of Shieldrest from CK3
        bg_logging = 4
    }
#naval_exit_id = 3000
}
STATE_MORECED = {
    id = 94
    subsistence_building = "building_subsistence_farms"
    provinces = { "x6D9C40" "x704440" "x7048C0" "x704C00" "xEF3EC0" "xF04200" }
    traits = {}
    city = "xf04200" #Moreced
    farm = "x6d9c40" #Aldaine
    wood = "x7048c0" #Nortmerewood
    mine = "xef3ec0" #Acenaire
    arable_land = 60
    arable_resources = { bg_wheat_farms bg_livestock_ranches }
    capped_resources = {
        bg_logging = 28
    }
#naval_exit_id = 3000
}
STATE_OUDMERE = {
    id = 95
    subsistence_building = "building_subsistence_farms"
    provinces = { "x7040FF" "x7154FF" "x715840" "xF04680" "xF04AFF" "xF15600" }
    traits = {}
    city = "xwf04680" #Turnmarket
    farm = "xf04aff" #Esckerpost
    wood = "xf15600" #Acenthan
    mine = "x7040ff" #Craghyl
    arable_land = 84
    arable_resources = { bg_wheat_farms bg_livestock_ranches }
    capped_resources = {
        bg_iron_mining = 30
        bg_logging = 12
    }
#naval_exit_id = 3000
}
STATE_DEVACED = {
    id = 96
    subsistence_building = "building_subsistence_farms"
    provinces = { "xD7BFD4" "xF14E40" "xF152C0" "xF15A80" "xF25EFF" }
    traits = { state_trait_dostanesck_river }
    city = "xf15a80" #Devaced
    farm = "xf25eff" #Catelsvord
    wood = "xd7bfd4" #Diremill
    mine = "xf14e40" #Godescker
    arable_land = 76
    arable_resources = { bg_wheat_farms bg_livestock_ranches }
    capped_resources = {
        bg_iron_mining = 38
        bg_coal_mining = 40
        bg_logging = 5
    }
#naval_exit_id = 3000
}
STATE_VERNHAM = {
    id = 97
    subsistence_building = "building_subsistence_farms"
    provinces = { "x726000" "x7370C0" "x737400" "xF26240" "xF372FF" "xF37640" "xF47E00" }
    traits = { state_trait_dostanesck_river }
    city = "x7370c0" #Vernham
    farm = "xf372ff" #Mereham
    wood = "xf47e00" #Satyr's Stand
    mine = "x726000" #Old Vernham
    arable_land = 114
    arable_resources = { bg_wheat_farms bg_livestock_ranches }
    capped_resources = {
        bg_iron_mining = 45
        bg_logging = 4
    }
#naval_exit_id = 3000
}
STATE_DOSTANS_WAY = {
    id = 98
    subsistence_building = "building_subsistence_farms"
    provinces = { "x726480" "x736C40" "x747880" "xF266C0" "xF36A00" "xF36E80" }
    traits = {}
    city = "xf36a00" #Aldcamp
    mine = "x726480" #Woodmarck - coal deposit
    farm = "xf266c0" #Dostan's Way - need actual name
    wood = "x747880" #Beastgrave
    arable_land = 52
    arable_resources = { bg_wheat_farms bg_livestock_ranches }
    capped_resources = {
        bg_coal_mining = 90 #from eu4
        bg_logging = 14
    }
#naval_exit_id = 3000
}
STATE_BLADEMARCH = {
    id = 99
    subsistence_building = "building_subsistence_farms"
    provinces = { "x078820" "x747CFF" "x748040" "x7484C0" "x878A4F" "xF47AC0" "xF48280" "xF586FF" }
    traits = { state_trait_dostanesck_river }
    city = "xf47ac0" #Banesfork - cool new city place that gets trade from marches and marrhold
    farm = "x7484c0" #Glitterdell
    wood = "x878a4f" #Swapstoke
    mine = "xf586ff" #Steward's Hold
    arable_land = 114
    arable_resources = { bg_wheat_farms bg_livestock_ranches }
    capped_resources = {
        bg_logging = 9
    }
#naval_exit_id = 3000
}
STATE_ROSANVORD = {
    id = 100
    subsistence_building = "building_subsistence_farms"
    provinces = { "x034C7E" "x7590FF" "x769440" "x834EAD" "xA69B7F" "xF69680" }
    traits = {}
    city = "xf69680" #Ionntras
    farm = "x7590ff" #Humac's Rest
    wood = "x034c7e" #Forkwic
    mine = "x834ead" #Grannvale
    arable_land = 124
    arable_resources = { bg_wheat_farms bg_livestock_ranches bg_vineyard_plantations }
    capped_resources = {
        bg_logging = 4
    }
#naval_exit_id = 3000
}
STATE_MEDIRLEIGH = {
    id = 101
    subsistence_building = "building_subsistence_farms"
    provinces = { "x06747E" "x85724F" "x8676AD" "x8786AD" }
    traits = {}
    city = "x8786ad" #Hendon
    farm = "x06747e" #Medirleigh
    wood = "x85724f" #Breakseben
    mine = "x8676ad" #Boggartstead
    arable_land = 108
    arable_resources = { bg_wheat_farms bg_livestock_ranches }
    capped_resources = {
        bg_logging = 5
    }
#naval_exit_id = 3000
}
STATE_SILVERVORD = {
    id = 102
    subsistence_building = "building_subsistence_farms"
    provinces = { "x6C8840" "x6C9000" "xEC8A80" "xEC8EFF" "xED9E80" }
    traits = {}
    city = "xec8a80" #Carlanhal
    farm = "xec8eff" #Badeben
    wood = "x6c9000" #Acengard
    mine = "xed9e80" #Feldham
    arable_land = 50
    arable_resources = { bg_rye_farms bg_livestock_ranches }
    capped_resources = {
        bg_logging = 7
    }
#naval_exit_id = 3000
}
STATE_CANNWOOD = {
    id = 103
    subsistence_building = "building_subsistence_farms"
    provinces = { "x6850C0" "x6B7C00" "x6C8CC0" "xE74E80" "xEB7E40" "xEB82C0" }
    traits = {}
    city = "xeb7e40" #Esckerfort
    farm = "xeb82c0" #Westwatch
    wood = "x6c8cc0" #Westwall Wood
    mine = "x6b7c00" #Cannwic
    arable_land = 40
    arable_resources = { bg_rye_farms bg_livestock_ranches }
    capped_resources = {
        bg_logging = 17
        bg_sulfur_mining = 46 #cos of Cannwood's connotations with Agrados and hell
    }
#naval_exit_id = 3000
}
STATE_EBONMARCK = {
    id = 104
    subsistence_building = "building_subsistence_farms"
    provinces = { "x685400" "x685880" "x6A6C80" "x6A70FF" "x6A78C0" "xBB2497" "xCCCF72" "xD4C3AF" "xE852FF" "xE96A40" "xEA7200" "xEB7AFF" }
    traits = {}
    city = "xe852ff" #Athfork
    farm = "xea7200" #Ebonham
    wood = "x6a6c80" #Giantsfort
    mine = "x685400" #Tencfor
    arable_land = 67
    arable_resources = { bg_rye_farms bg_livestock_ranches }
    capped_resources = {
        bg_coal_mining = 80 #Tencfor from EU4
        bg_lead_mining = 39
        bg_logging = 23
    }
#naval_exit_id = 3000
}
STATE_MIDDLE_ALEN = {
    id = 105
    subsistence_building = "building_subsistence_farms"
    provinces = { "x34CAD9" "x652C00" "x674C40" "x72BC77" "x9E7356" "xAA702A" "xE74A00" }
    traits = { state_trait_greatwoods }
    city = "xe74a00" #Garbar
    wood = "x652c00" #Mirelook
    farm = "x72bc77" #Ordingwood
    mine = "x34cad9" #Rojanka
    arable_land = 36
    arable_resources = { bg_rye_farms bg_livestock_ranches }
    capped_resources = {
        bg_logging = 30
    }
#naval_exit_id = 3000
}
STATE_DRYADSDALE = {
    id = 106
    subsistence_building = "building_subsistence_farms"
    provinces = { "x06A3DF" "x078C7E" "x3DC8C8" "x87824F" "x88924F" }
    traits = {}
    city = "x078c7e" #Pixiebury
    farm = "x3dc8c8" #Wendshaw
    wood = "x87824f" #Spritescage
    mine = "x88924f" #Dryadsdale
    arable_land = 30
    arable_resources = { bg_wheat_farms bg_livestock_ranches }
    capped_resources = {
        bg_logging = 12
    }
#naval_exit_id = 3000
}
STATE_HORNWOOD = {
    id = 107
    subsistence_building = "building_subsistence_farms"
    provinces = { "x089020" "x08947E" "x089820" "x7DFA09" "x878EAD" "x8896AD" }
    traits = {}
    city = "x08947e" #Lover's Quarrel
    farm = "x089020" #Nymphlea
    wood = "x8896ad" #Doescker
    mine = "x089820" #Willowmore
    arable_land = 38
    arable_resources = { bg_wheat_farms bg_livestock_ranches }
    capped_resources = {
        bg_logging = 14
    }
    resource = {
        type = "bg_damestear_fields"
        depleted_type = "bg_damestear_mining"
        undiscovered_amount = 4
    }
#naval_exit_id = 3000
}
STATE_MARRVALE = {
    id = 108
    subsistence_building = "building_subsistence_farms"
    provinces = { "x089C7E" "x3BDCFA" "x7B2547" "x889A4F" "x899EAD" }
    impassable = { "x7B2547" }
    traits = {}
    city = "x089c7e" #Marrvale
    farm = "x889a4f" #Griffonsgate
    mine = "x899ead" #Marrhyl
    wood = "x3bdcfa" #NEW PLACE
    arable_land = 52
    arable_resources = { bg_rye_farms bg_livestock_ranches }
    capped_resources = {
        bg_iron_mining = 57 #good iron wealth, most in escann proper aside from steelhyl
        bg_coal_mining = 60
    }
#naval_exit_id = 3000
}
STATE_ESSHYL = {
    id = 110
    subsistence_building = "building_subsistence_farms"
    provinces = { "x067C7E" "x068020" "x07847E" "x3CFAFA" }
    traits = {}
    city = "x067c7e" #Esswyck
    farm = "x3cfafa" #Gorse
    wood = "x068020" #Esswood
    mine = "x07847e" #Farhyl
    arable_land = 40
    arable_resources = { bg_rye_farms bg_livestock_ranches }
    capped_resources = {
        bg_logging = 10
        bg_iron_mining = 30
        bg_coal_mining = 40
    }
#naval_exit_id = 3000
}
STATE_UNGULDAVOR = {
    id = 111
    subsistence_building = "building_subsistence_farms"
    provinces = { "x056C7E" "x067820" "x667F50" "x84624F" "x856A4F" "x867A4F" "x867EAD" "x896E6B" "xCF6C75" }
    traits = { state_trait_nath_river }
    city = "x067820" #Osdar
    farm = "x867ead" #Sardarbar
    wood = "x056c7e" #Sagungul
    mine = "x856a4f" #Dudgsohul
    arable_land = 54
    arable_resources = { bg_rye_farms bg_livestock_ranches }
    capped_resources = {
        bg_logging = 23
        bg_iron_mining = 45
        bg_coal_mining = 44
    }
    resource = {
        type = "bg_damestear_fields"
        depleted_type = "bg_damestear_mining"
        undiscovered_amount = 12
    }
#naval_exit_id = 3000
}
STATE_KONDUNN = {
    id = 112
    subsistence_building = "building_subsistence_farms"
    provinces = { "x04647E" "x056820" "x403914" "x77996B" "x8356AD" "x845A4F" }
    traits = {}
    city = "x04647e" #Utrakodar
    farm = "x056820" #Kondunn
    wood = "x845a4f" #Bokhurbak
    mine = "x8356ad" #Halutobur
    arable_land = 32
    arable_resources = { bg_rye_farms bg_livestock_ranches }
    capped_resources = {
        bg_logging = 20
        bg_iron_mining = 36
        bg_lead_mining = 36 #to make this place matter more
        bg_coal_mining = 36
    }
#naval_exit_id = 3000
}
STATE_BURNOLL = {
    id = 113
    subsistence_building = "building_subsistence_farms"
    provinces = { "x758800" "x758C80" "xF58A40" "xF58EC0" "xF59200" }
    traits = {}
    city = "x758800" #Theminath
    farm = "xf59200" #Camircost
    wood = "xf59200" #Smallmere
    mine = "xf58ec0" #Burnoll
    arable_land = 84
    arable_resources = { bg_wheat_farms bg_livestock_ranches bg_vineyard_plantations }
    capped_resources = {
        bg_logging = 5
    }
#naval_exit_id = 3000
}
STATE_CASTONATH = {
    id = 114
    subsistence_building = "building_subsistence_farms"
    provinces = { "x002C7E" "x762080" "x7698C0" "x769C00" "x812EAD" "x81324F" "xF69AFF" "xF69E40" "xF722C0" }
    traits = { state_trait_nath_river }
    city = "xf722c0" #Castonath
    farm = "x769c00" #The Manorfields
    wood = "x81324f" #Trialwood
    mine = "x7698c0" #Ar Urion
    arable_land = 124
    arable_resources = { bg_rye_farms bg_livestock_ranches bg_vineyard_plantations }
    capped_resources = {
        bg_logging = 7
    }
#naval_exit_id = 3000
}
STATE_UPPER_NATH = {
    id = 115
    subsistence_building = "building_subsistence_farms"
    provinces = { "x01347E" "x024820" "x82424F" "x8246AD" "x834A4F" }
    traits = { state_trait_nath_river }
    city = "x8246ad" #Foarhal
    farm = "x024820" #Bradhal
    wood = "x82424f" #Narronath
    mine = "x01347e" #Mintirley
    arable_land = 87
    arable_resources = { bg_rye_farms bg_livestock_ranches }
    capped_resources = {
        bg_logging = 5
    }
#naval_exit_id = 3000
}
STATE_EASTGATE = {
    id = 116
    subsistence_building = "building_subsistence_farms"
    provinces = { "x045C7E" "x046020" "x057020" "x26EC55" "x845EAD" "x8566AD" "x856EAD" }
    traits = { state_trait_nath_river }
    city = "x8566ad" #Eswall
    farm = "x845ead" #Ardent Keep
    wood = "x057020" #Oldhaven
    mine = "x046020" #Annistoft
    arable_land = 76
    arable_resources = { bg_rye_farms bg_livestock_ranches }
    capped_resources = {
        bg_logging = 14
    }
#naval_exit_id = 3000
}
STATE_STEELHYL = {
    id = 117
    subsistence_building = "building_subsistence_farms"
    provinces = { "x03547E" "x045820" "x2AC8FA" "x83524F" "xE1F181" }
    traits = {}
    city = "x045820" #Steelmarket
    wood = "x83524f" #Charwic
    mine = "x03547e" #Old Hyl
    farm = "x045820" #Coalton
    arable_land = 30
    arable_resources = { bg_rye_farms bg_livestock_ranches }
    capped_resources = {
        bg_coal_mining = 88 #from eu4 
        bg_iron_mining = 75
        bg_lead_mining = 30 #from copper in eu4
        bg_logging = 16
    }
#naval_exit_id = 3000
}
STATE_SERPENTSMARCK = {
    id = 118
    subsistence_building = "building_subsistence_farms"
    provinces = { "x013820" "x02447E" "x035020" "x2BE8DB" "x8136AD" "x813A4F" }
    traits = {}
    city = "x013820" #Serpentswic
    farm = "x02447e" #Nortmarck
    wood = "x035020" #Shatterwood
    mine = "x813a4f" #Glory Road - need new name
    arable_land = 36
    arable_resources = { bg_rye_farms bg_livestock_ranches }
    capped_resources = {
        bg_logging = 18
        bg_coal_mining = 40
        bg_damestear_mining = 12    #demesne brought down a meteorite here
    }
#naval_exit_id = 3000
}
STATE_NORTHYL = {
    id = 119
    subsistence_building = "building_subsistence_farms"
    provinces = { "x023C7E" "x024020" "x6A7440" "x823EAD" "xEA6EC0" }
    traits = {}
    city = "x6a7440" #Acenort
    farm = "x023c7e" #Westwood
    wood = "x024020" #Hunters Folly
    mine = "xea6ec0" #Nortwood
    arable_land = 38
    arable_resources = { bg_rye_farms bg_livestock_ranches }
    capped_resources = {
        bg_logging = 16
        bg_coal_mining = 80 #eu4 latent good
    }
#naval_exit_id = 3000
}
STATE_WESTGATE = {
    id = 120
    subsistence_building = "building_subsistence_farms"
    provinces = { "x013020" "x09C8C8" "x13DCFA" "x6B84FF" "x8026AD" "xEA7680" }
    traits = { state_trait_nath_river }
    city = "x8026ad" #Aldenmore
    farm = "x13dcfa" #Caylensfort
    wood = "xea7680" #Rigelham
    mine = "x013020" #Venacvord
    arable_land = 46
    arable_resources = { bg_rye_farms bg_livestock_ranches }
    capped_resources = {
        bg_logging = 14
    }
#naval_exit_id = 3000
}
STATE_LOWER_NATH = {
    id = 121
    subsistence_building = "building_subsistence_farms"
    provinces = { "x00247E" "x7724FF" "x80224F" "x802A4F" "xEB8600" }
    traits = { state_trait_magically_enriched_soils state_trait_nath_river } # Esthili MT re-imagined into magic similar to Eilisins
    city = "x802a4f" #Elderlan
    wood = "xeb8600" #Wardenhall
    farm = "x7724ff" #Sapphirewatch
    mine = "x00247e" #Nurced
    arable_land = 87
    arable_resources = { bg_rye_farms bg_livestock_ranches bg_vineyard_plantations }
    capped_resources = {
        bg_logging = 14
    }
#naval_exit_id = 3000
}
STATE_TANNUSVALE = {
    id = 122
    subsistence_building = "building_subsistence_farms"
    provinces = { "x03755D" "x41395E" "x653080" "x663840" "xA57389" "xC468BE" "xE52AFF" "xE52E40" "xE85AC0" }
    traits = { state_trait_greatwoods state_trait_giants_grave_fishing }
    city = "x663840" #Tannusvale
    port = "x653080" #Ostyar
    farm = "xe52aff" #Whitwic
    wood = "xe52e40" #Ungulbar
    mine = "xe85ac0" #Gulletpeak
    arable_land = 56
    arable_resources = { bg_rye_farms bg_livestock_ranches }
    capped_resources = {
        bg_iron_mining = 30
        bg_logging = 34
        bg_fishing = 10
    }
    naval_exit_id = 3007
}
STATE_ESALD = {
    id = 123
    subsistence_building = "building_subsistence_farms"
    provinces = { "x65B65D" "x6634FF" "xE49A40" "xE52680" "xE532C0" "xE63600" "xF24934" }
    traits = { state_trait_giants_grave_fishing }
    city = "xe49a40" #Garok
    port = "xe532c0" #Honok Osul
    farm = "x6634ff" #Sondaar
    wood = "xe63600" #Eskerborg
    mine = "x65b65d" #Estmark
    arable_land = 77
    arable_resources = { bg_rye_farms bg_livestock_ranches }
    capped_resources = {
        bg_logging = 24
        bg_fishing = 20
        bg_whaling = 5 #makes esald a more special province, especially if its capital of Grombar
    }
    naval_exit_id = 3007
}
STATE_CEDESCK = {
    id = 124
    subsistence_building = "building_subsistence_farms"
    provinces = { "x442A6C" "x663CC0" "x664000" "x685CFF" "xC5F673" "xE63A80" "xE63EFF" }
    traits = { state_trait_greatwoods state_trait_giants_grave_fishing }
    city = "xe63a80" #Cedevik
    port = "x663cc0" #Rivsby - Rudyar
    farm = "x664000" #Vertwic - Bolunduskur
    wood = "xe63eff" #Coldwood - Borungul
    mine = "x685cff" #Hideguzzle
    arable_land = 50
    arable_resources = { bg_rye_farms bg_livestock_ranches }
    capped_resources = {
        bg_logging = 32
        bg_iron_mining = 30
        bg_lead_mining = 30 #some special shizz as Grombar's schtick was trading in metals and rarer stuff
        bg_fishing = 15
    }
    naval_exit_id = 3007
}
STATE_VROREN = {
    id = 125
    subsistence_building = "building_subsistence_farms"
    provinces = { "x038FD6" "x40C7C7" "x6964C0" "x696800" "x7C04E8" "x822510" "x91C46B" "x95524F" "x9802E3" "x9986AD" "xA37913" "xD9A4A4" "xE96280" "xE966FF" }
    traits = { state_trait_vroren_river state_trait_mammoth_breeding_area state_trait_giants_grave_fishing }
    city = "x696800" #Bal Vroren - Ur Sarmozd
    port = "x95524f" #Saryar
    farm = "x9986ad" #Seawall - Zurdavor
    wood = "xe96280" #Mammoth Hall - Ostobarg
    mine = "xe966ff" #Serpentswall - Mardavor
    arable_land = 46
    arable_resources = { bg_rye_farms bg_livestock_ranches }
    capped_resources = {
        bg_coal_mining = 24
        bg_logging = 22
        bg_fishing = 5
    }
    naval_exit_id = 3007
}
STATE_GIANTS_TEARS = {
    id = 126
    subsistence_building = "building_subsistence_farms"
    provinces = { "x084CAC" "x0D1457" "x0F4C3D" "x134494" "x16547E" "x165820" "x165C7E" "x1D11A0" "x22DF51" "x320F3D" "x3BCC2A" "x415B94" "x67D51F" "x6D74E2" "x722537" "x9656AD" "x965A4F" "xA49B8E" "xA4AE5C" "xA93A48" "xAD6F70" "xB4F97E" "xDD44A9" "xE019F7" "xE0864A" "xE7CC7E" "xEDEA92" "xF710D7" }
    traits = { state_trait_vroren_river state_trait_northern_forests state_trait_mammoth_breeding_area }
    city = "x9656ad" #Boz-Ashkan
    wood = "x165820" #Osadar
    mine = "x965a4f" #Temargul
    farm = "e7cc7e" #Myrk
    arable_land = 42
    arable_resources = { bg_rye_farms bg_livestock_ranches }
    capped_resources = {
        bg_logging = 53
        bg_coal_mining = 90
        bg_iron_mining = 60
    }
    resource = {
        type = "bg_damestear_fields"
        depleted_type = "bg_damestear_mining"
        undiscovered_amount = 14    #ironic
    }
    naval_exit_id = 3007
}
STATE_GIFRBYGD = {
    id = 127
    subsistence_building = "building_subsistence_pastures"
    provinces = { "x00B4F8" "x00ED15" "x010B0C" "x019360" "x02FE94" "x04CFF9" "x0DB261" "x153FDD" "x154977" "x166785" "x1855B9" "x21E365" "x284A6C" "x2A81F3" "x2CAE68" "x2FBD4F" "x30C5F8" "x317CE6" "x33AEE0" "x35CB07" "x3E6A8B" "x450FD2" "x4A3CA8" "x4A9334" "x4E5FFD" "x4F0DC9" "x553FEC" "x5BEB3A" "x5E833E" "x610513" "x64A663" "x6D7957" "x833E08" "x8C5DC3" "x8CF3A4" "x92F252" "x95326C" "xA4436B" "xAB2AB6" "xB0BA60" "xB99F1B" "xBA7367" "xC0C3C5" "xC3138B" "xC4683F" "xC9C2AD" "xC9D240" "xCB1C1C" "xD1068C" "xD118AD" "xD4910F" "xD52D01" "xE010DE" "xE3CDA2" "xE5BBDB" "xE9617F" "xEE4CFE" "xEE827E" "xF49B63" "xF4AA14" "xF90CD4" "xFA35A3" "xFA91EF" "xFB79F8" "xFCF014" }
    impassable = { "xe9617f" "xc9d240" }
    traits = { state_trait_northern_forests }
    city = "xe5bbdb" #Dulzabon
    wood = "xb0ba60" #Kostohul
    mine = "x35cb07" #Takht-Darakh
    farm = "cb1c1c" #Grenholt
    arable_land = 20
    arable_resources = { bg_livestock_ranches }
    capped_resources = {
        bg_logging = 40
    }
}
STATE_EAST_OLAVLUND = {
    id = 128
    subsistence_building = "building_subsistence_farms"
    provinces = { "x144020" "x14447E" "x154820" "x154C7E" "x155020" "x2052C6" "x290F3A" "x32DBED" "x3E6C56" "x55D16A" "x61CDC4" "x68FE93" "x826618" "x8B7040" "x94424F" "x9546AD" "x954A4F" "xA31C28" }
    traits = { state_trait_olavlund_fjords state_trait_giants_grave_fishing state_trait_titans_mountains }
    city = "x144020" #Brasudar
    port = "x154820" #Naugsvol
    farm = "x14447e" #Orstengard
    wood = "x94424f" #Nyrford
    mine = "x154c7e" #Urviksten
    arable_land = 44
    arable_resources = { bg_rye_farms bg_livestock_ranches }
    capped_resources = {
        bg_logging = 20
        bg_fishing = 10
        bg_sulfur_mining = 12 #as per norway in vanilla
        bg_iron_mining = 60 #Ebonsteel origin
    }
    naval_exit_id = 3007
}
STATE_WEST_OLAVLUND = {
    id = 129
    subsistence_building = "building_subsistence_farms"
    provinces = { "x032D65" "x0497AF" "x13347E" "x143820" "x143C7E" "x2217F9" "x2AC795" "x353E68" "x40A3E5" "x5831DA" "x62C9FB" "x6F8F5A" "x7095F1" "x8589D5" "x8ADFBB" "x9336AD" "x93A4B3" "x943A4F" "x943EAD" "x999BB0" "xAFE394" "xB36D23" "xD0D01F" "xD5C1BD" "xE1DF13" "xE9A726" "xF5709F" }
    traits = { state_trait_olavlund_fjords state_trait_giants_grave_fishing state_trait_titans_mountains }
    city = "x943a4f" #Redgarhavn
    port = "x62c9fb" #Redgarhavn port
    farm = "x943ead" #Olavsborg
    wood = "x143c7e" #Skaldol
    mine = "x143820" #Glodborg
    arable_land = 40
    arable_resources = { bg_rye_farms bg_livestock_ranches }
    capped_resources = {
        bg_logging = 10
        bg_fishing = 10
        bg_iron_mining = 50
        bg_sulfur_mining = 16 #as per norway in vanilla
        bg_gold_mining = 1
    }
    naval_exit_id = 3007
}
STATE_GIANTS_MANSE = {
    id = 130
    subsistence_building = "building_subsistence_farms"
    provinces = { "x25c8c8" "x954ead" }
    traits = { state_trait_giants_grave_fishing }
    city = "x954ead" #Giants Manse
    port = "x25c8c8" #Giants Manse
    arable_land = 8
    arable_resources = { bg_rye_farms bg_livestock_ranches }
    capped_resources = {
        bg_fishing = 2
        bg_logging = 4
    }
    naval_exit_id = 3007
}
STATE_BJARNLAND = {
    id = 131
    subsistence_building = "building_subsistence_farms"
    provinces = { "x019470" "x119020" "x11947E" "x12247E" "x1BAA4F" "x2644A5" "x33CAFB" "x3BDDFB" "x5EE205" "x79E4CB" "x83F9A9" "x91924F" "x9196AD" "x96A5E2" "xC0C1F6" "xD0D788" "xDF0A8A" "xE3820F" "xEB9A78" "xEBCE77" "xF1D3A4" }
    traits = { state_trait_rafn_river state_trait_giants_grave_fishing }
    city = "x11947e" #Konungrhavn
    port = "x3bddfb" #NEW PLACE
    farm = "x3bddfb" #Torbjoldhavn
    wood = "x12247e" #Burrholt
    mine = "x12247e" #Alptborg
    arable_land = 70
    arable_resources = { bg_rye_farms bg_livestock_ranches }
    capped_resources = {
        bg_logging = 4
        bg_coal_mining = 84 #keep this "low" in gerudia overall to make em reliant on trade like Scandinavia
    }
    naval_exit_id = 3008
}
STATE_SPORREYN = {
    id = 132
    subsistence_building = "building_subsistence_farms"
    provinces = { "x108C7E" "x17732A" "x6528C0" "x918EAD" }
    traits = { state_trait_giants_grave_fishing }
    city = "x108c7e" #Sporreyn
    port = "x918ead" #Fuglborg
    farm = "x6528c0" #Jotunsglotta
    wood = "x108c7e" #NEW PLACE
    arable_land = 32
    arable_resources = { bg_rye_farms bg_livestock_ranches }
    capped_resources = {
        bg_fishing = 15
        bg_coal_mining = 40 # Uncovered by Bjarnrik MT
    }
    naval_exit_id = 3008
}
STATE_REVRLAND = {
    id = 133
    subsistence_building = "building_subsistence_farms"
    provinces = { "x122020" "x129C7E" "x25CEEC" "x4BDCFA" "x919A4F" "x929EAD" "x965EAD" "x9766AD" "xA128AD" "xCA5EA7" "xECCB74" "xF271BF" "xF8562B" "xF8F0E7" }
    traits = { state_trait_storm_islands_fishing }
    city = "x129c7e" #Vestrund
    port = "x919a4f" #Revrhavn
    farm = "x9766ad" #Eikodr
    wood = "x4vdcfa" #NEW PLACE
    mine = "x122020" #Leifsborg
    arable_land = 42
    arable_resources = { bg_rye_farms bg_livestock_ranches }
    capped_resources = {
        bg_logging = 14
        bg_fishing = 5
    }
    naval_exit_id = 3009
}
STATE_FEGRAS = {
    id = 134
    subsistence_building = "building_subsistence_farms"
    provinces = { "x119820" "x14395A" "x176820" "x3DB39D" "x709ACF" "x92224F" "x932EAD" "x940A43" "xA520AF" "xAA7EAF" "xBD5DCF" "xC6B1C2" "xF2C303" }
    traits = {}
    city = "x709acf" #Fegras
    farm = "x119820" #Fegras 2
    wood = "x92224f" #Sarbann
    mine = "xbd5dcf" #Kaldrland
    arable_land = 44
    arable_resources = { bg_rye_farms bg_livestock_ranches }
    capped_resources = {
        bg_logging = 16
        bg_iron_mining = 38 # Uncovered by Bjarnrik MT
        bg_lead_mining = 15 # Just some extra up here
    }
}
STATE_SIDAETT = {
    id = 135
    subsistence_building = "building_subsistence_farms"
    provinces = { "x09BEF7" "x0B96E1" "x122820" "x132C7E" "x133020" "x15C016" "x28E955" "x2CEF5A" "x30E89E" "x3DDD92" "x44E373" "x53DF1E" "x5501C5" "x55904B" "x688659" "x68A16D" "x6BF8B0" "x7CA3C1" "x9226AD" "x932A4F" "x93324F" "x95BC60" "xA6A275" "xACC07E" "xB7971C" "xBEBE88" "xC41AAB" "xFEC41B" }
    traits = { state_trait_rafn_river state_trait_northern_forests }
    city = "x122820" #Silfrhof
    farm = "x932a4f" #Sildhalda
    wood = "x133020" #Algrar
    mine = "x9226ad" #Vargrhol
    arable_land = 69
    arable_resources = { bg_rye_farms bg_livestock_ranches }
    capped_resources = {
        bg_logging = 25
    }
    resource = {
        type = "bg_damestear_fields"
        depleted_type = "bg_damestear_mining"
        undiscovered_amount = 6
    }
}
STATE_FJORDSBAY = {
    id = 136
    subsistence_building = "building_subsistence_pastures"
    provinces = { "x05CFB2" "x0D20F7" "x10A113" "x113DAE" "x166020" "x17647E" "x176C7E" "x1C2AE9" "x1EE7EA" "x224A7E" "x2DD4D2" "x2E2B77" "x31968A" "x31D64D" "x34765E" "x36F0BC" "x378C15" "x37E773" "x46CDE6" "x5DF742" "x6992A6" "x777469" "x78CC1A" "x7B792F" "x7E848E" "x8FEF2E" "x92249F" "x97624F" "x976A4F" "xB31243" "xB54D80" "xB58248" "xBAFB81" "xBE8253" "xC04062" "xC75BA5" "xC8D7F1" "xCB6785" "xD8759D" "xDE554F" "xF7F8FB" "xFC46FA" }
    impassable = { "x224a7e" }
    traits = { state_trait_dalrfjall_prospecting state_trait_fjordsbay_fjords }
    city = "x97624f" #Murtrhol
    port = "x976a4f" #Allt
    farm = "x176c7e" #Dukklbjarg
    mine = "x166020" #Brutnord
    wood = "x17647e" #Thurrsbol
    arable_land = 22
    arable_resources = { bg_livestock_ranches }
    capped_resources = {
        bg_fishing = 10 # Too cold for many fish
        bg_whaling = 5
        bg_iron_mining = 60
        bg_lead_mining = 60 # Uncovered by Bjarnrik MT
        bg_sulfur_mining = 12 #as per norway in vanilla
    }
    naval_exit_id = 3009
}
STATE_GULLMORK = {
    id = 137
    subsistence_building = "building_subsistence_pastures"
    provinces = { "x017ECB" "x2332F8" "x23340B" "x357E0D" "x46AD99" "x4CD64F" "x5BE711" "x64B572" "x71B108" "x81AAB0" "x821D7B" "x8B0C25" "x9FA507" "x9FE3D7" "xAFF0ED" "xB361FC" "xB5C9CA" "xC3A557" "xD43679" "xD4740E" "xD4C879" "xDAD0B0" "xDD8138" "xFB3575" }
    impassable = { "x9fe3d7" }
    traits = { state_trait_northern_forests }
    city = "xd43679" #Gullmork
    farm = "x46ad99" #Sarrvatn
    wood = "xd4c879" #Hvitrfold
    mine = "x81aab0" #Hagisander
    arable_land = 22
    arable_resources = { bg_livestock_ranches }
    capped_resources = {
        bg_logging = 16
    }
    #From Bjarnrik
    resource = {
        type = "bg_gold_fields"
        depleted_type = "bg_gold_mining"
        undiscovered_amount = 6
        discover_amount_max = 6
    }
}
STATE_LAKE_GROVE = {
    id = 147
    subsistence_building = "building_subsistence_pastures"
    provinces = { "x019043" "x1A5496" "x41C8C8" "x8AC169" "xBD6EDC" "xC06EDC" "xCF6EF7" }
    impassable = { "x019043" }
    traits = { state_trait_ellyn_river }
    city = "xd43679" #Gullmork
    farm = "x46ad99" #Sarrvatn
    wood = "xd4c879" #Hvitrfold
    mine = "x81aab0" #Hagisander
    arable_land = 80
    arable_resources = { bg_livestock_ranches bg_vineyard_plantations }
    capped_resources = {
        bg_logging = 16
    }
}
STATE_MOUNTAIN_GROVE = {
    id = 148
    subsistence_building = "building_subsistence_pastures"
    provinces = { "x20FAFA" "x2DC8C8" "x3FDCFA" "x54716A" "x62B357" "xCE6EDC" "xCF6E03" "xCF6E11" "xCF6EF8" "xCF6EFA" }
    impassable = { "x62b357" }
    traits = { state_trait_ellyn_river }
    city = "xd43679" #Gullmork
    farm = "x46ad99" #Sarrvatn
    wood = "xd4c879" #Hvitrfold
    mine = "x81aab0" #Hagisander
    arable_land = 64
    arable_resources = { bg_livestock_ranches }
    capped_resources = {
        bg_logging = 16
    }
}
STATE_THORN_GROVE = {
    id = 149
    subsistence_building = "building_subsistence_pastures"
    provinces = { "x325620" "x33DCFA" "x64FBFB" "xC96EDC" "xCB0338" "xCD8B06" "xCF6E02" "xCF6E0F" }
    impassable = { "x325620" }
    traits = { state_trait_ellyn_river }
    city = "xd43679" #Gullmork
    farm = "x46ad99" #Sarrvatn
    wood = "xd4c879" #Hvitrfold
    mine = "x81aab0" #Hagisander
    arable_land = 60
    arable_resources = { bg_livestock_ranches }
    capped_resources = {
        bg_logging = 16
    }
}
STATE_BONE_GROVE = {
    id = 140
    subsistence_building = "building_subsistence_pastures"
    provinces = { "x000009" "x04FAFA" "x10B739" "x34FAFA" "x3ED2FC" "x3EDAFC" "xC56EDC" "xCF6E10" "xCF6E14" }
    impassable = { "x10b739" }
    traits = {}
    city = "xd43679" #Gullmork
    farm = "x46ad99" #Sarrvatn
    wood = "xd4c879" #Hvitrfold
    mine = "x81aab0" #Hagisander
    arable_land = 54
    arable_resources = { bg_livestock_ranches }
    capped_resources = {
        bg_logging = 16
    }
}
STATE_ARROW_GROVE = {
    id = 150
    subsistence_building = "building_subsistence_pastures"
    provinces = { "x37DCFA" "x3BEA40" "x46C8FA" "x5D9349" "x7C9625" "x8B0F28" "xCF6E06" "xCF6E07" "xCF6E0C" "xCF6E0E" "xCF6EE7" "xCF6EED" }
    impassable = { "x5d9349" }
    traits = { state_trait_ellyn_river }
    city = "xd43679" #Gullmork
    farm = "x46ad99" #Sarrvatn
    wood = "xd4c879" #Hvitrfold
    mine = "x81aab0" #Hagisander
    arable_land = 62
    arable_resources = { bg_livestock_ranches }
    capped_resources = {
        bg_logging = 16
    }
}
STATE_HUNTER_GROVE = {
    id = 152
    subsistence_building = "building_subsistence_pastures"
    provinces = { "x0EC8FA" "x13DFFD" "x20083F" "x294234" "x3ACAFC" "xCF6E04" "xCF6EDF" }
    impassable = { "x294234" }
    traits = { state_trait_ellyn_river }
    city = "xd43679" #Gullmork
    farm = "x46ad99" #Sarrvatn
    wood = "xd4c879" #Hvitrfold
    mine = "x81aab0" #Hagisander
    arable_land = 70
    arable_resources = { bg_livestock_ranches }
    capped_resources = {
        bg_logging = 16
    }
}
STATE_FLOWER_GROVE = {
    id = 143
    subsistence_building = "building_subsistence_pastures"
    provinces = { "x1096C5" "x28FAFA" "x36A036" "x66C9FB" "xCF6E05" "xCF6E08" "xCF6E12" "xCF6E16" "xCF6EE4" }
    impassable = { "x36a036" }
    traits = {}
    city = "xd43679" #Gullmork
    farm = "x46ad99" #Sarrvatn
    wood = "xd4c879" #Hvitrfold
    mine = "x81aab0" #Hagisander
    arable_land = 78
    arable_resources = { bg_livestock_ranches }
    capped_resources = {
        bg_logging = 16
    }
}
STATE_RIVER_GROVE = {
    id = 144
    subsistence_building = "building_subsistence_pastures"
    provinces = { "x0AC8FA" "x0FDCFA" "x42DF86" "x44FAFA" "xCF6E0B" "xCF6E13" "xCF6E15" "xCF6EF1" }
    impassable = { "x42df86" }
    traits = { state_trait_ellyn_river }
    city = "xd43679" #Gullmork
    farm = "x46ad99" #Sarrvatn
    wood = "xd4c879" #Hvitrfold
    mine = "x81aab0" #Hagisander
    arable_land = 84
    arable_resources = { bg_livestock_ranches }
    capped_resources = {
        bg_logging = 16
    }
}
STATE_SHADOW_GROVE = {
    id = 145
    subsistence_building = "building_subsistence_pastures"
    provinces = { "x43DCFA" "x48947E" "x67DDFB" "xCBAA78" "xCF6E0D" "xCF6EF6" "xFC7F77" }
    impassable = { "x48947e" }
    traits = {}
    city = "xd43679" #Gullmork
    farm = "x46ad99" #Sarrvatn
    wood = "xd4c879" #Hvitrfold
    mine = "x81aab0" #Hagisander
    arable_land = 60
    arable_resources = { bg_livestock_ranches }
    capped_resources = {
        bg_logging = 8
    }
}
STATE_OURDIA = {
    id = 146
    subsistence_building = "building_subsistence_pastures"
    provinces = { "x040284" "x07B040" "x1B92F3" "x28B3A5" "x4898C0" "x489C00" "x492080" "x6832AB" "x72ADFE" "xA1094B" "xC37ED4" "xC89680" "xC89AFF" "xC922C0" "xC99E40" "xDE33CE" "xF061B7" "xFAFC5B" "xFF3B52" }
    traits = {}
    city = "xc89aff" #Mestikisorotin
    farm = "x4898c0" #Landsend
    wood = "x489c00" #Bal Ouord
    mine = "xfafc5b" #Ciernhibin
    arable_land = 71
    arable_resources = { bg_wheat_farms bg_livestock_ranches bg_cotton_plantations bg_tobacco_plantations bg_vineyard_plantations }
    capped_resources = {
        bg_logging = 8
    }
    naval_exit_id = 3002
}
STATE_LONELY_ISLE = {
    id = 153
    subsistence_building = "building_subsistence_pastures"
    provinces = { "x976ead" "xf0f8d5" }
    traits = {}
    city = "x976ead" #NEW PLACE
    farm = "x976ead" #TODO
    wood = "x976ead" #TODO
    mine = "x976ead" #TODO
    port = "xf0f8d5" #NEW PLACE
    arable_land = 4
    arable_resources = { bg_livestock_ranches }
    capped_resources = {
        bg_whaling = 3
        bg_fishing = 7
    }
    naval_exit_id = 3052
}