﻿object={
	name="env_geyser_large_obj"
	clamp_to_water_level=no
	render_under_water=yes
	generated_content=no
	layer="environmental_effects"
	entity="env_geyser_large"
	count=0
}
object={
	name="env_geyser_medium_obj"
	clamp_to_water_level=no
	render_under_water=yes
	generated_content=no
	layer="environmental_effects"
	entity="env_geyser_medium"
	count=0
}
object={
	name="env_geyser_small_obj"
	clamp_to_water_level=no
	render_under_water=yes
	generated_content=no
	layer="environmental_effects"
	entity="env_geyser_small"
	count=0
}
object={
	name="env_godrays"
	clamp_to_water_level=no
	render_under_water=no
	generated_content=no
	layer="environmental_effects"
	entity="env_god_rays"
	count=0
}
object={
	name="env_jungle_mist_l"
	clamp_to_water_level=no
	render_under_water=no
	generated_content=no
	layer="environmental_effects"
	entity="env_jungle_mist_l"
	count=3
	transform="2077.572510 0.000000 3057.248291 0.000000 0.000000 0.000000 1.000000 1.000000 1.000000 1.000000
2210.570312 0.000000 3085.238037 0.000000 0.000000 0.000000 1.000000 1.000000 1.000000 1.000000
1993.670044 0.000000 3035.804199 0.000000 0.000000 0.000000 1.000000 1.000000 1.000000 1.000000
"}
object={
	name="env_jungle_mist_s"
	clamp_to_water_level=no
	render_under_water=no
	generated_content=no
	layer="environmental_effects"
	entity="env_jungle_mist_s"
	count=17
	transform="6160.951660 0.000000 2004.809814 0.000000 0.000000 0.000000 1.000000 1.000000 1.000000 1.000000
6131.909668 0.000000 1963.603760 0.000000 0.000000 0.000000 1.000000 1.000000 1.000000 1.000000
6164.070801 0.000000 2037.974609 0.000000 0.000000 0.000000 1.000000 1.000000 1.000000 1.000000
5758.761719 0.000000 2179.911377 0.000000 0.000000 0.000000 1.000000 1.000000 1.000000 1.000000
5797.369629 0.000000 2198.814697 0.000000 0.000000 0.000000 1.000000 1.000000 1.000000 1.000000
5726.120605 0.000000 2212.921631 0.000000 0.000000 0.000000 1.000000 1.000000 1.000000 1.000000
5763.285645 0.000000 2142.158447 0.000000 0.000000 0.000000 1.000000 1.000000 1.000000 1.000000
5945.377930 0.000000 2168.917969 0.000000 0.000000 0.000000 1.000000 1.000000 1.000000 1.000000
6001.962402 0.000000 2185.751465 0.000000 0.000000 0.000000 1.000000 1.000000 1.000000 1.000000
5954.396973 0.000000 2198.050293 0.000000 0.000000 0.000000 1.000000 1.000000 1.000000 1.000000
6081.811035 0.000000 2538.412842 0.000000 0.000000 0.000000 1.000000 1.000000 1.000000 1.000000
6114.170898 0.000000 2473.766602 0.000000 0.000000 0.000000 1.000000 1.000000 1.000000 1.000000
6072.372559 0.000000 2496.439697 0.000000 0.000000 0.000000 1.000000 1.000000 1.000000 1.000000
6147.433105 0.000000 2443.695801 0.000000 0.000000 0.000000 1.000000 1.000000 1.000000 1.000000
5494.405762 0.000000 1426.131714 0.000000 0.000000 0.000000 1.000000 1.000000 1.000000 1.000000
5352.643555 0.000000 1481.523926 0.000000 0.644320 0.000000 0.764756 1.000000 1.000000 1.000000
2060.577637 0.000000 2936.417725 0.000000 -0.325012 0.000000 0.945710 1.000000 1.000000 1.000000
"}
object={
	name="env_rolling_clouds"
	clamp_to_water_level=yes
	render_under_water=no
	generated_content=no
	layer="environmental_effects"
	entity="env_mist"
	count=0
}
object={
	name="env_rolling_fog_mountain"
	clamp_to_water_level=no
	render_under_water=no
	generated_content=no
	layer="environmental_effects"
	entity="env_rolling_fog_mountain"
	count=48
	transform="6094.205566 0.000000 2488.859375 0.000000 0.000000 0.000000 1.000000 1.000000 1.000000 1.000000
6088.835449 0.000000 2522.038574 0.000000 0.000000 0.000000 1.000000 1.000000 1.000000 1.000000
6063.606445 0.000000 2522.416504 0.000000 0.000000 0.000000 1.000000 1.000000 1.000000 1.000000
6107.302734 0.000000 2467.668945 0.000000 0.000000 0.000000 1.000000 1.000000 1.000000 1.000000
6091.820312 0.000000 2523.166748 0.000000 0.000000 0.000000 1.000000 1.000000 1.000000 1.000000
6083.692383 0.000000 2529.909668 0.000000 0.000000 0.000000 1.000000 1.000000 1.000000 1.000000
6054.737305 0.000000 2525.492188 0.000000 0.000000 0.000000 1.000000 1.000000 1.000000 1.000000
6048.104492 0.000000 2525.774170 0.000000 0.000000 0.000000 1.000000 1.000000 1.000000 1.000000
6026.271484 0.000000 2542.463379 0.000000 0.000000 0.000000 1.000000 1.000000 1.000000 1.000000
6030.849121 0.000000 2553.076172 0.000000 0.000000 0.000000 1.000000 1.000000 1.000000 1.000000
6046.109863 0.000000 2561.074951 0.000000 0.000000 0.000000 1.000000 1.000000 1.000000 1.000000
6086.329590 0.000000 2509.595459 0.000000 0.000000 0.000000 1.000000 1.000000 1.000000 1.000000
6075.911621 0.000000 2488.390381 0.000000 0.000000 0.000000 1.000000 1.000000 1.000000 1.000000
6071.075684 0.000000 2481.618896 0.000000 0.000000 0.000000 1.000000 1.000000 1.000000 1.000000
6065.845215 0.000000 2491.228516 0.000000 0.000000 0.000000 1.000000 1.000000 1.000000 1.000000
6061.312988 0.000000 2499.650635 0.000000 0.000000 0.000000 1.000000 1.000000 1.000000 1.000000
6103.350098 0.000000 2467.054932 0.000000 0.000000 0.000000 1.000000 1.000000 1.000000 1.000000
6094.551270 0.000000 2468.013672 0.000000 0.000000 0.000000 1.000000 1.000000 1.000000 1.000000
6084.285156 0.000000 2464.326904 0.000000 0.000000 0.000000 1.000000 1.000000 1.000000 1.000000
6137.546875 0.000000 2447.810791 0.000000 0.000000 0.000000 1.000000 1.000000 1.000000 1.000000
6134.157715 0.000000 2458.813232 0.000000 0.000000 0.000000 1.000000 1.000000 1.000000 1.000000
6130.833984 0.000000 2452.779541 0.000000 0.000000 0.000000 1.000000 1.000000 1.000000 1.000000
6126.939453 0.000000 2466.440674 0.000000 0.000000 0.000000 1.000000 1.000000 1.000000 1.000000
6131.396973 0.000000 2477.123535 0.000000 0.000000 0.000000 1.000000 1.000000 1.000000 1.000000
6143.148438 0.000000 2467.003418 0.000000 0.000000 0.000000 1.000000 1.000000 1.000000 1.000000
6155.107422 0.000000 2455.577393 0.000000 0.000000 0.000000 1.000000 1.000000 1.000000 1.000000
6162.259766 0.000000 2444.504883 0.000000 0.000000 0.000000 1.000000 1.000000 1.000000 1.000000
6169.457520 0.000000 2430.817139 0.000000 0.000000 0.000000 1.000000 1.000000 1.000000 1.000000
6160.653320 0.000000 2424.490479 0.000000 0.000000 0.000000 1.000000 1.000000 1.000000 1.000000
6169.697266 0.000000 2413.457764 0.000000 0.000000 0.000000 1.000000 1.000000 1.000000 1.000000
6199.062012 0.000000 2422.488770 0.000000 0.000000 0.000000 1.000000 1.000000 1.000000 1.000000
6211.725098 0.000000 2432.009521 0.000000 0.000000 0.000000 1.000000 1.000000 1.000000 1.000000
6229.598145 0.000000 2440.694580 0.000000 0.000000 0.000000 1.000000 1.000000 1.000000 1.000000
6134.791992 0.000000 2421.870605 0.000000 0.000000 0.000000 1.000000 1.000000 1.000000 1.000000
6111.721680 0.000000 2495.936523 0.000000 0.000000 0.000000 1.000000 1.000000 1.000000 1.000000
6100.791504 0.000000 2510.047607 0.000000 0.000000 0.000000 1.000000 1.000000 1.000000 1.000000
6093.359375 0.000000 2506.409180 0.000000 0.000000 0.000000 1.000000 1.000000 1.000000 1.000000
6089.139160 0.000000 2514.156250 0.000000 0.000000 0.000000 1.000000 1.000000 1.000000 1.000000
6086.101074 0.000000 2510.289307 0.000000 0.000000 0.000000 1.000000 1.000000 1.000000 1.000000
6113.815430 0.000000 2513.876465 0.000000 0.000000 0.000000 1.000000 1.000000 1.000000 1.000000
6120.761230 0.000000 2510.859619 0.000000 0.000000 0.000000 1.000000 1.000000 1.000000 1.000000
6123.128418 0.000000 2492.023438 0.000000 0.000000 0.000000 1.000000 1.000000 1.000000 1.000000
6116.823242 0.000000 2495.710938 0.000000 0.000000 0.000000 1.000000 1.000000 1.000000 1.000000
6124.220215 0.000000 2533.218994 0.000000 0.000000 0.000000 1.000000 1.000000 1.000000 1.000000
6123.486816 0.000000 2542.895264 0.000000 0.000000 0.000000 1.000000 1.000000 1.000000 1.000000
6116.088867 0.000000 2550.282471 0.000000 0.000000 0.000000 1.000000 1.000000 1.000000 1.000000
6108.733887 0.000000 2548.419189 0.000000 0.000000 0.000000 1.000000 1.000000 1.000000 1.000000
6109.567383 0.000000 2533.877197 0.000000 0.000000 0.000000 1.000000 1.000000 1.000000 1.000000
"}
object={
	name="env_rough_water"
	clamp_to_water_level=yes
	render_under_water=yes
	generated_content=no
	layer="environmental_effects"
	entity="env_rough_water"
	count=0
}
object={
	name="env_sandstorm_obj"
	clamp_to_water_level=no
	render_under_water=no
	generated_content=no
	layer="environmental_effects"
	entity="env_sandstorm"
	count=5
	transform="5722.092773 0.000000 2366.144531 0.000000 0.000000 0.000000 1.000000 1.000000 1.000000 1.000000
5407.239258 0.000000 2351.763428 0.000000 0.000000 0.000000 1.000000 1.000000 1.000000 1.000000
5307.516602 0.000000 2351.672607 0.000000 0.000000 0.000000 1.000000 1.000000 1.000000 1.000000
5360.844238 0.000000 2238.349365 0.000000 0.000000 0.000000 1.000000 1.000000 1.000000 1.000000
5173.653320 0.000000 2286.984863 0.000000 0.000000 0.000000 1.000000 1.000000 1.000000 1.000000
"}
object={
	name="env_sandstorm_small"
	clamp_to_water_level=no
	render_under_water=no
	generated_content=no
	layer="environmental_effects"
	entity="env_sandstorm_small"
	count=2
	transform="5478.765137 0.000000 2230.724121 0.000000 0.000000 0.000000 1.000000 1.000000 1.000000 1.000000
5453.258301 0.000000 2215.019775 0.000000 0.000000 0.000000 1.000000 1.000000 1.000000 1.000000
"}
object={
	name="env_snow_01_obj"
	clamp_to_water_level=no
	render_under_water=yes
	generated_content=no
	layer="environmental_effects"
	entity="env_snow_01"
	count=8
	transform="2338.052979 0.000000 2978.854248 0.000000 0.000000 0.000000 1.000000 1.000000 1.000000 1.000000
2184.697510 0.000000 2852.357422 0.000000 0.000000 0.000000 1.000000 1.000000 1.000000 1.000000
2267.043457 0.000000 2870.118652 0.000000 0.000000 0.000000 1.000000 1.000000 1.000000 1.000000
2261.742432 0.000000 2777.747070 0.000000 0.000000 0.000000 1.000000 1.000000 1.000000 1.000000
2400.773682 0.000000 2795.088623 0.000000 0.000000 0.000000 1.000000 1.000000 1.000000 1.000000
2344.511475 0.000000 2858.221191 0.000000 0.000000 0.000000 1.000000 1.000000 1.000000 1.000000
2356.135986 0.000000 2976.567139 0.000000 0.000000 0.000000 1.000000 1.000000 1.000000 1.000000
2432.043457 0.000000 2981.181152 0.000000 0.000000 0.000000 1.000000 1.000000 1.000000 1.000000
"}
object={
	name="env_snow_02_obj"
	clamp_to_water_level=no
	render_under_water=yes
	generated_content=no
	layer="environmental_effects"
	entity="env_snow_02"
	count=0
}
object={
	name="env_snow_fall"
	clamp_to_water_level=no
	render_under_water=no
	generated_content=no
	layer="environmental_effects"
	entity="env_snow_fall"
	count=1
	transform="2323.064209 0.000000 2876.186279 0.000000 0.000000 0.000000 1.000000 1.000000 1.000000 1.000000
"}
object={
	name="env_snow_fall_small"
	clamp_to_water_level=no
	render_under_water=no
	generated_content=no
	layer="environmental_effects"
	entity="env_snow_fall_small"
	count=2
	transform="2435.549561 0.000000 3155.908447 0.000000 0.000000 0.000000 1.000000 1.000000 1.000000 1.000000
2530.335449 0.000000 3096.082031 0.000000 0.000000 0.000000 1.000000 1.000000 1.000000 1.000000
"}
object={
	name="env_swamp_fog"
	clamp_to_water_level=no
	render_under_water=no
	generated_content=no
	layer="environmental_effects"
	entity="env_swamp_fog"
	count=35
	transform="6416.838379 0.000000 2403.921143 0.000000 0.000000 0.000000 1.000000 1.000000 1.000000 1.000000
6402.207520 0.000000 2407.966553 0.000000 0.000000 0.000000 1.000000 1.000000 1.000000 1.000000
6080.976562 0.000000 2514.764160 0.000000 0.000000 0.000000 1.000000 1.000000 1.000000 1.000000
6109.066895 0.000000 2516.145508 0.000000 0.000000 0.000000 1.000000 1.000000 1.000000 1.000000
6071.265137 0.000000 2537.999268 0.000000 0.000000 0.000000 1.000000 1.000000 1.000000 1.000000
6061.105957 0.000000 2541.729248 0.000000 0.000000 0.000000 1.000000 1.000000 1.000000 1.000000
6065.797363 0.000000 2534.054199 0.000000 0.000000 0.000000 1.000000 1.000000 1.000000 1.000000
6043.914551 0.000000 2542.136230 0.000000 0.000000 0.000000 1.000000 1.000000 1.000000 1.000000
6056.145020 0.000000 2542.629639 0.000000 0.000000 0.000000 1.000000 1.000000 1.000000 1.000000
6047.927734 0.000000 2553.729736 0.000000 0.000000 0.000000 1.000000 1.000000 1.000000 1.000000
6070.070801 0.000000 2553.187988 0.000000 0.000000 0.000000 1.000000 1.000000 1.000000 1.000000
6079.699707 0.000000 2549.964355 0.000000 0.000000 0.000000 1.000000 1.000000 1.000000 1.000000
6097.561035 0.000000 2546.039307 0.000000 0.000000 0.000000 1.000000 1.000000 1.000000 1.000000
6108.416992 0.000000 2543.130127 0.000000 0.000000 0.000000 1.000000 1.000000 1.000000 1.000000
6119.987305 0.000000 2529.722900 0.000000 0.000000 0.000000 1.000000 1.000000 1.000000 1.000000
6105.158203 0.000000 2527.963623 0.000000 0.000000 0.000000 1.000000 1.000000 1.000000 1.000000
6115.583008 0.000000 2512.445312 0.000000 0.000000 0.000000 1.000000 1.000000 1.000000 1.000000
6112.532227 0.000000 2497.563721 0.000000 0.000000 0.000000 1.000000 1.000000 1.000000 1.000000
6121.748535 0.000000 2489.522217 0.000000 0.000000 0.000000 1.000000 1.000000 1.000000 1.000000
6102.626953 0.000000 2497.067871 0.000000 0.000000 0.000000 1.000000 1.000000 1.000000 1.000000
6080.321289 0.000000 2498.880859 0.000000 0.000000 0.000000 1.000000 1.000000 1.000000 1.000000
6095.984375 0.000000 2484.796387 0.000000 0.000000 0.000000 1.000000 1.000000 1.000000 1.000000
6115.606445 0.000000 2476.411133 0.000000 0.000000 0.000000 1.000000 1.000000 1.000000 1.000000
6127.979980 0.000000 2471.307617 0.000000 0.000000 0.000000 1.000000 1.000000 1.000000 1.000000
6140.711426 0.000000 2463.500732 0.000000 0.000000 0.000000 1.000000 1.000000 1.000000 1.000000
6150.115234 0.000000 2446.568848 0.000000 0.000000 0.000000 1.000000 1.000000 1.000000 1.000000
6127.218262 0.000000 2456.723877 0.000000 0.000000 0.000000 1.000000 1.000000 1.000000 1.000000
6095.494141 0.000000 2472.513184 0.000000 0.000000 0.000000 1.000000 1.000000 1.000000 1.000000
6072.437500 0.000000 2484.941650 0.000000 0.000000 0.000000 1.000000 1.000000 1.000000 1.000000
6059.617188 0.000000 2503.335938 0.000000 0.000000 0.000000 1.000000 1.000000 1.000000 1.000000
6166.326172 0.000000 2436.523926 0.000000 0.000000 0.000000 1.000000 1.000000 1.000000 1.000000
6149.973145 0.000000 2448.468262 0.000000 0.000000 0.000000 1.000000 1.000000 1.000000 1.000000
6148.187012 0.000000 2432.195312 0.000000 0.000000 0.000000 1.000000 1.000000 1.000000 1.000000
6129.054199 0.000000 2447.554688 0.000000 0.000000 0.000000 1.000000 1.000000 1.000000 1.000000
1722.507446 0.000000 2881.960938 0.000000 0.000000 0.000000 1.000000 1.000000 1.000000 1.000000
"}
object={
	name="env_tropical_rain"
	clamp_to_water_level=no
	render_under_water=no
	generated_content=no
	layer="environmental_effects"
	entity="env_tropical_rain_entity"
	count=0
}
object={
	name="env_tropical_rain_dense"
	clamp_to_water_level=no
	render_under_water=no
	generated_content=no
	layer="environmental_effects"
	entity="env_tropical_rain_dense_entity"
	count=0
}
object={
	name="env_volcano_idle_obj"
	clamp_to_water_level=no
	render_under_water=no
	generated_content=no
	layer="environmental_effects"
	entity="env_volcano_idle"
	count=1
	transform="2437.017334 0.000000 3155.063477 0.000000 -0.512784 0.000000 0.858518 1.000000 1.000000 1.000000
"}
object={
	name="env_waterfall_bottom"
	clamp_to_water_level=no
	render_under_water=yes
	generated_content=no
	layer="environmental_effects"
	entity="env_waterfall_02"
	count=1
	transform="1939.196045 0.000000 2596.277588 0.000000 0.000000 0.000000 1.000000 1.000000 1.000000 1.000000
"}
object={
	name="env_waterfall_top"
	clamp_to_water_level=no
	render_under_water=yes
	generated_content=no
	layer="environmental_effects"
	entity="env_waterfall_01"
	count=1
	transform="1937.940063 0.000000 2596.544678 0.000000 -0.569988 0.000000 0.821653 1.339934 1.339934 1.339934
"}
object={
	name="rock_granite_river_01_entity"
	clamp_to_water_level=no
	render_under_water=yes
	generated_content=no
	layer="environmental_effects"
	entity="rock_granite_river_01_entity"
	count=0
}
object={
	name="sfx_rain_emitter"
	clamp_to_water_level=no
	render_under_water=no
	generated_content=no
	layer="environmental_effects"
	entity="vfx_rain_emitter"
	count=0
}
object={
	name="sfx_sandstorm_emitter"
	clamp_to_water_level=no
	render_under_water=no
	generated_content=no
	layer="environmental_effects"
	entity="vfx_sandstorm_emitter"
	count=0
}
object={
	name="sfx_snowstorm_emitter"
	clamp_to_water_level=no
	render_under_water=no
	generated_content=no
	layer="environmental_effects"
	entity="vfx_snowstorm_emitter"
	count=0
}
