﻿game_object_locator={
	name="port"
	clamp_to_water_level=yes
	render_under_water=no
	generated_content=no
	layer="locators"
	instances={
		{
			id=1
			position={ 4116.344238 0.000000 2787.887695 }
			rotation={ -0.000000 -0.998975 -0.000000 0.045266 }
			scale={ 1.000000 1.000000 1.000000 }
		}
		{
			id=2
			position={ 4149.389648 0.000000 2741.077637 }
			rotation={ -0.000000 -0.986433 -0.000000 0.164166 }
			scale={ 1.000000 1.000000 1.000000 }
		}
		{
			id=3
			position={ 4152.399902 0.000000 2714.103027 }
			rotation={ -0.000000 -0.912774 -0.000000 0.408466 }
			scale={ 1.000000 1.000000 1.000000 }
		}
		{
			id=6
			position={ 4146.653809 0.000000 2677.806885 }
			rotation={ -0.000000 -0.515166 -0.000000 0.857091 }
			scale={ 1.000000 1.000000 1.000000 }
		}
		{
			id=7
			position={ 4206.467773 0.000000 2642.000488 }
			rotation={ -0.000000 -0.502185 -0.000000 0.864760 }
			scale={ 1.000000 1.000000 1.000000 }
		}
		{
			id=8
			position={ 4195.633789 0.000000 2776.514160 }
			rotation={ -0.000000 -0.947725 -0.000000 0.319089 }
			scale={ 1.000000 1.000000 1.000000 }
		}
		{
			id=12
			position={ 4196.310059 0.000000 2811.517822 }
			rotation={ -0.000000 -0.821890 -0.000000 0.569646 }
			scale={ 1.000000 1.000000 1.000000 }
		}
		{
			id=13
			position={ 4191.899902 0.000000 2914.289307 }
			rotation={ -0.000000 -0.382008 -0.000000 0.924159 }
			scale={ 1.000000 1.000000 1.000000 }
		}
		{
			id=18
			position={ 4067.751953 0.000000 2744.020264 }
			rotation={ -0.000000 -0.996473 -0.000000 -0.083916 }
			scale={ 1.000000 1.000000 1.000000 }
		}
		{
			id=19
			position={ 4090.317871 0.000000 2703.028076 }
			rotation={ -0.000000 0.408355 -0.000000 0.912823 }
			scale={ 1.000000 1.000000 1.000000 }
		}
		{
			id=20
			position={ 4072.188721 0.000000 2669.919678 }
			rotation={ -0.000000 -0.065564 -0.000000 0.997849 }
			scale={ 1.000000 1.000000 1.000000 }
		}
		{
			id=22
			position={ 4071.165771 0.000000 2812.238525 }
			rotation={ -0.000000 0.553767 -0.000000 0.832672 }
			scale={ 1.000000 1.000000 1.000000 }
		}
		{
			id=25
			position={ 4358.210449 0.000000 2654.473389 }
			rotation={ -0.000000 -0.355460 -0.000000 0.934692 }
			scale={ 1.000000 1.000000 1.000000 }
		}
		{
			id=26
			position={ 4371.136719 0.000000 2674.330566 }
			rotation={ -0.000000 0.722556 -0.000000 0.691312 }
			scale={ 1.000000 1.000000 1.000000 }
		}
		{
			id=36
			position={ 4408.112305 0.000000 2687.646973 }
			rotation={ -0.000000 0.127397 -0.000000 0.991852 }
			scale={ 1.000000 1.000000 1.000000 }
		}
		{
			id=37
			position={ 4007.913086 0.000000 2722.708008 }
			rotation={ -0.000000 -0.464899 -0.000000 0.885364 }
			scale={ 1.000000 1.000000 1.000000 }
		}
		{
			id=38
			position={ 3988.239746 0.000000 2742.083496 }
			rotation={ -0.000000 -0.398335 -0.000000 0.917240 }
			scale={ 1.000000 1.000000 1.000000 }
		}
		{
			id=39
			position={ 3968.506104 0.000000 2715.763672 }
			rotation={ -0.000000 -0.894710 -0.000000 -0.446648 }
			scale={ 1.000000 1.000000 1.000000 }
		}
		{
			id=41
			position={ 3973.376953 0.000000 2700.691162 }
			rotation={ -0.000000 0.474197 -0.000000 0.880419 }
			scale={ 1.000000 1.000000 1.000000 }
		}
		{
			id=42
			position={ 3875.835205 0.000000 2660.345215 }
			rotation={ -0.000000 0.248380 -0.000000 0.968663 }
			scale={ 1.000000 1.000000 1.000000 }
		}
		{
			id=43
			position={ 3841.113525 0.000000 2735.718262 }
			rotation={ -0.000000 0.901487 -0.000000 -0.432807 }
			scale={ 1.000000 1.000000 1.000000 }
		}
		{
			id=44
			position={ 3854.479736 0.000000 2791.720459 }
			rotation={ -0.000000 -0.237221 -0.000000 0.971456 }
			scale={ 1.000000 1.000000 1.000000 }
		}
		{
			id=46
			position={ 3869.847412 0.000000 2839.875488 }
			rotation={ -0.000000 -0.939780 -0.000000 0.341781 }
			scale={ 1.000000 1.000000 1.000000 }
		}
		{
			id=48
			position={ 4251.149414 0.000000 2567.725098 }
			rotation={ -0.000000 -0.401775 -0.000000 0.915739 }
			scale={ 1.000000 1.000000 1.000000 }
		}
		{
			id=49
			position={ 4317.525879 0.000000 2592.531494 }
			rotation={ -0.000000 0.938732 -0.000000 0.344650 }
			scale={ 1.000000 1.000000 1.000000 }
		}
		{
			id=50
			position={ 4301.735352 0.000000 2571.378174 }
			rotation={ -0.000000 0.681101 -0.000000 0.732190 }
			scale={ 1.000000 1.000000 1.000000 }
		}
		{
			id=51
			position={ 4278.499023 0.000000 2515.291748 }
			rotation={ -0.000000 0.588403 -0.000000 -0.808568 }
			scale={ 1.000000 1.000000 1.000000 }
		}
		{
			id=52
			position={ 4232.419922 0.000000 2497.553955 }
			rotation={ -0.000000 0.980535 -0.000000 0.196343 }
			scale={ 1.000000 1.000000 1.000000 }
		}
		{
			id=53
			position={ 4039.889648 0.000000 2484.421143 }
			rotation={ -0.000000 -0.976552 -0.000000 0.215281 }
			scale={ 1.000000 1.000000 1.000000 }
		}
		{
			id=54
			position={ 3994.874268 0.000000 2469.563232 }
			rotation={ -0.000000 -0.468053 -0.000000 0.883700 }
			scale={ 1.000000 1.000000 1.000000 }
		}
		{
			id=60
			position={ 4095.295654 0.000000 2876.460938 }
			rotation={ -0.000000 0.539148 -0.000000 0.842211 }
			scale={ 1.000000 1.000000 1.000000 }
		}
		{
			id=61
			position={ 4077.868652 0.000000 2842.205811 }
			rotation={ -0.000000 0.522415 -0.000000 0.852692 }
			scale={ 1.000000 1.000000 1.000000 }
		}
		{
			id=63
			position={ 3892.488281 0.000000 2886.017090 }
			rotation={ -0.000000 -0.907692 -0.000000 0.419636 }
			scale={ 1.000000 1.000000 1.000000 }
		}
		{
			id=64
			position={ 3912.023193 0.000000 2901.723633 }
			rotation={ -0.000000 -0.986678 -0.000000 0.162689 }
			scale={ 1.000000 1.000000 1.000000 }
		}
		{
			id=65
			position={ 3940.621582 0.000000 2943.512451 }
			rotation={ -0.000000 -0.989282 -0.000000 0.146022 }
			scale={ 1.000000 1.000000 1.000000 }
		}
		{
			id=66
			position={ 3878.270508 0.000000 2977.312012 }
			rotation={ -0.000000 -0.909517 -0.000000 0.415665 }
			scale={ 1.000000 1.000000 1.000000 }
		}
		{
			id=67
			position={ 3842.987061 0.000000 2939.783936 }
			rotation={ -0.000000 -0.981211 -0.000000 -0.192935 }
			scale={ 1.000000 1.000000 1.000000 }
		}
		{
			id=68
			position={ 3968.794678 0.000000 3046.694092 }
			rotation={ -0.000000 -0.994213 -0.000000 0.107427 }
			scale={ 1.000000 1.000000 1.000000 }
		}
		{
			id=69
			position={ 3927.307129 0.000000 3156.384766 }
			rotation={ -0.000000 -0.180376 -0.000000 0.983598 }
			scale={ 1.000000 1.000000 1.000000 }
		}
		{
			id=72
			position={ 4135.437500 0.000000 2926.349365 }
			rotation={ 0.000000 0.707107 0.000000 0.707107 }
			scale={ 1.000000 1.000000 1.000000 }
		}
		{
			id=73
			position={ 4168.531250 0.000000 2934.036865 }
			rotation={ -0.000000 -0.394160 -0.000000 0.919042 }
			scale={ 1.000000 1.000000 1.000000 }
		}
		{
			id=79
			position={ 4050.691162 0.000000 3053.321045 }
			rotation={ -0.000000 0.924287 -0.000000 -0.381700 }
			scale={ 1.000000 1.000000 1.000000 }
		}
		{
			id=80
			position={ 4060.147705 0.000000 3094.786377 }
			rotation={ -0.000000 0.218224 -0.000000 -0.975899 }
			scale={ 1.000000 1.000000 1.000000 }
		}
		{
			id=81
			position={ 4139.070801 0.000000 3167.663574 }
			rotation={ -0.000000 0.180157 -0.000000 -0.983638 }
			scale={ 1.000000 1.000000 1.000000 }
		}
		{
			id=83
			position={ 4254.127441 0.000000 3139.958252 }
			rotation={ -0.000000 -0.879129 -0.000000 -0.476584 }
			scale={ 1.000000 1.000000 1.000000 }
		}
		{
			id=84
			position={ 4303.892090 0.000000 3101.890625 }
			rotation={ -0.000000 -1.000000 -0.000000 -0.000000 }
			scale={ 1.000000 1.000000 1.000000 }
		}
		{
			id=122
			position={ 4363.923340 0.000000 3084.557373 }
			rotation={ -0.000000 0.687817 -0.000000 -0.725884 }
			scale={ 1.000000 1.000000 1.000000 }
		}
		{
			id=123
			position={ 4363.381836 0.000000 3132.200439 }
			rotation={ -0.000000 0.861369 -0.000000 -0.507981 }
			scale={ 1.000000 1.000000 1.000000 }
		}
		{
			id=124
			position={ 4445.550781 0.000000 3132.964844 }
			rotation={ -0.000000 -0.925459 -0.000000 0.378847 }
			scale={ 1.000000 1.000000 1.000000 }
		}
		{
			id=125
			position={ 4457.592773 0.000000 3137.480225 }
			rotation={ -0.000000 -0.765856 -0.000000 0.643012 }
			scale={ 1.000000 1.000000 1.000000 }
		}
		{
			id=128
			position={ 4368.958008 0.000000 3254.833984 }
			rotation={ -0.000000 -0.483974 -0.000000 0.875083 }
			scale={ 1.000000 1.000000 1.000000 }
		}
		{
			id=129
			position={ 4334.427246 0.000000 3262.031982 }
			rotation={ -0.000000 0.084066 -0.000000 0.996461 }
			scale={ 1.000000 1.000000 1.000000 }
		}
		{
			id=130
			position={ 4290.576172 0.000000 3216.994385 }
			rotation={ -0.000000 0.338052 -0.000000 0.941128 }
			scale={ 1.000000 1.000000 1.000000 }
		}
		{
			id=131
			position={ 4142.942871 0.000000 3248.232910 }
			rotation={ -0.000000 0.123037 -0.000000 0.992402 }
			scale={ 1.000000 1.000000 1.000000 }
		}
		{
			id=132
			position={ 4111.279785 0.000000 3239.028320 }
			rotation={ -0.000000 -0.418253 -0.000000 0.908331 }
			scale={ 1.000000 1.000000 1.000000 }
		}
		{
			id=133
			position={ 4059.395264 0.000000 3244.440918 }
			rotation={ -0.000000 -0.096653 -0.000000 0.995318 }
			scale={ 1.000000 1.000000 1.000000 }
		}
		{
			id=136
			position={ 3937.247314 0.000000 3410.958252 }
			rotation={ -0.000000 0.035055 -0.000000 0.999386 }
			scale={ 1.000000 1.000000 1.000000 }
		}
		{
			id=141
			position={ 3821.630371 0.000000 2642.125488 }
			rotation={ -0.000000 0.604621 -0.000000 0.796514 }
			scale={ 1.000000 1.000000 1.000000 }
		}
		{
			id=142
			position={ 4212.488770 0.000000 2837.988037 }
			rotation={ -0.000000 -0.936161 -0.000000 0.351571 }
			scale={ 1.000000 1.000000 1.000000 }
		}
		{
			id=146
			position={ 4504.000000 0.000000 2626.000000 }
			rotation={ -0.000000 -0.000000 -0.000000 1.000000 }
			scale={ 1.000000 1.000000 1.000000 }
		}
		{
			id=153
			position={ 3466.000000 0.000000 3103.000000 }
			rotation={ 0.000000 0.707107 0.000000 0.707107 }
			scale={ 1.000000 1.000000 1.000000 }
		}
		{
			id=200
			position={ 3155.000000 0.000000 2441.000000 }
			rotation={ 0.000000 0.707107 0.000000 0.707107 }
			scale={ 1.000000 1.000000 1.000000 }
		}
		{
			id=203
			position={ 2517.000000 0.000000 2602.000000 }
			rotation={ 0.000000 0.707107 0.000000 0.707107 }
			scale={ 1.000000 1.000000 1.000000 }
		}
		{
			id=204
			position={ 2923.000000 0.000000 2366.000000 }
			rotation={ -0.000000 -1.000000 -0.000000 -0.000000 }
			scale={ 1.000000 1.000000 1.000000 }
		}
		{
			id=205
			position={ 2859.000000 0.000000 2399.000000 }
			rotation={ -0.000000 -1.000000 -0.000000 -0.000000 }
			scale={ 1.000000 1.000000 1.000000 }
		}
		{
			id=206
			position={ 2637.000000 0.000000 2428.000000 }
			rotation={ -0.000000 -0.000000 -0.000000 1.000000 }
			scale={ 1.000000 1.000000 1.000000 }
		}
		{
			id=207
			position={ 2551.000000 0.000000 2408.000000 }
			rotation={ -0.000000 -0.000000 -0.000000 1.000000 }
			scale={ 1.000000 1.000000 1.000000 }
		}
		{
			id=209
			position={ 2782.000000 0.000000 2257.000000 }
			rotation={ -0.000000 -0.000000 -0.000000 1.000000 }
			scale={ 1.000000 1.000000 1.000000 }
		}
		{
			id=210
			position={ 3134.000000 0.000000 2241.000000 }
			rotation={ -0.000000 -0.000000 -0.000000 1.000000 }
			scale={ 1.000000 1.000000 1.000000 }
		}
		{
			id=212
			position={ 2780.000000 0.000000 2160.000000 }
			rotation={ -0.000000 -0.707107 -0.000000 0.707107 }
			scale={ 1.000000 1.000000 1.000000 }
		}
		{
			id=213
			position={ 2425.000000 0.000000 1783.000000 }
			rotation={ 0.000000 0.707107 0.000000 0.707107 }
			scale={ 1.000000 1.000000 1.000000 }
		}
		{
			id=214
			position={ 2833.000000 0.000000 2011.000000 }
			rotation={ -0.000000 -0.707107 -0.000000 0.707107 }
			scale={ 1.000000 1.000000 1.000000 }
		}
		{
			id=215
			position={ 2795.000000 0.000000 1809.000000 }
			rotation={ -0.000000 -0.707107 -0.000000 0.707107 }
			scale={ 1.000000 1.000000 1.000000 }
		}
		{
			id=216
			position={ 2622.000000 0.000000 1867.000000 }
			rotation={ 0.000000 0.707107 0.000000 0.707107 }
			scale={ 1.000000 1.000000 1.000000 }
		}
		{
			id=217
			position={ 2707.000000 0.000000 1990.000000 }
			rotation={ -0.000000 -0.707107 -0.000000 0.707107 }
			scale={ 1.000000 1.000000 1.000000 }
		}
		{
			id=218
			position={ 2308.567383 0.000000 2305.062988 }
			rotation={ -0.000000 -0.003542 -0.000000 0.999994 }
			scale={ 1.000000 1.000000 1.000000 }
		}
		{
			id=219
			position={ 2158.000000 0.000000 2072.000000 }
			rotation={ 0.000000 0.707107 0.000000 0.707107 }
			scale={ 1.000000 1.000000 1.000000 }
		}
		{
			id=220
			position={ 2083.000000 0.000000 1951.000000 }
			rotation={ 0.000000 0.707107 0.000000 0.707107 }
			scale={ 1.000000 1.000000 1.000000 }
		}
		{
			id=221
			position={ 1971.000000 0.000000 2032.000000 }
			rotation={ -0.000000 -0.707107 -0.000000 0.707107 }
			scale={ 1.000000 1.000000 1.000000 }
		}
		{
			id=222
			position={ 1872.000000 0.000000 2150.000000 }
			rotation={ 0.000000 0.707107 0.000000 0.707107 }
			scale={ 1.000000 1.000000 1.000000 }
		}
		{
			id=223
			position={ 1965.971558 0.000000 2275.229736 }
			rotation={ -0.000000 -0.057494 -0.000000 0.998346 }
			scale={ 1.000000 1.000000 1.000000 }
		}
		{
			id=224
			position={ 2277.424561 0.000000 2471.077393 }
			rotation={ -0.000000 0.395418 -0.000000 0.918502 }
			scale={ 1.000000 1.000000 1.000000 }
		}
		{
			id=225
			position={ 2413.000000 0.000000 2604.000000 }
			rotation={ 0.000000 0.707107 0.000000 0.707107 }
			scale={ 1.000000 1.000000 1.000000 }
		}
		{
			id=226
			position={ 2362.623779 0.000000 2521.124268 }
			rotation={ -0.000000 0.173102 -0.000000 0.984904 }
			scale={ 1.000000 1.000000 1.000000 }
		}
		{
			id=227
			position={ 2310.774902 0.000000 2535.700439 }
			rotation={ -0.000000 -0.180826 -0.000000 0.983515 }
			scale={ 1.000000 1.000000 1.000000 }
		}
		{
			id=229
			position={ 2429.886719 0.000000 2697.994385 }
			rotation={ -0.000000 0.942288 -0.000000 0.334805 }
			scale={ 1.000000 1.000000 1.000000 }
		}
		{
			id=230
			position={ 2128.809570 0.000000 2502.226562 }
			rotation={ -0.000000 0.866443 -0.000000 0.499277 }
			scale={ 1.000000 1.000000 1.000000 }
		}
		{
			id=232
			position={ 2044.296631 0.000000 2514.522949 }
			rotation={ -0.000000 -0.677471 -0.000000 0.735549 }
			scale={ 1.000000 1.000000 1.000000 }
		}
		{
			id=233
			position={ 2000.121582 0.000000 2532.925781 }
			rotation={ -0.000000 0.468136 -0.000000 0.883657 }
			scale={ 1.000000 1.000000 1.000000 }
		}
		{
			id=235
			position={ 1955.308594 0.000000 2551.124756 }
			rotation={ -0.000000 -0.697410 -0.000000 0.716673 }
			scale={ 1.000000 1.000000 1.000000 }
		}
		{
			id=236
			position={ 1926.555786 0.000000 2518.593750 }
			rotation={ -0.000000 0.194101 -0.000000 0.980982 }
			scale={ 1.000000 1.000000 1.000000 }
		}
		{
			id=237
			position={ 1917.000000 0.000000 2458.000000 }
			rotation={ 0.000000 0.707107 0.000000 0.707107 }
			scale={ 1.000000 1.000000 1.000000 }
		}
		{
			id=238
			position={ 1929.156982 0.000000 2417.521240 }
			rotation={ -0.000000 -0.966857 -0.000000 -0.255320 }
			scale={ 1.000000 1.000000 1.000000 }
		}
		{
			id=240
			position={ 2018.385864 0.000000 2375.330078 }
			rotation={ -0.000000 -0.339443 -0.000000 -0.940627 }
			scale={ 1.000000 1.000000 1.000000 }
		}
		{
			id=241
			position={ 1902.000000 0.000000 2290.000000 }
			rotation={ 0.000000 0.707107 0.000000 0.707107 }
			scale={ 1.000000 1.000000 1.000000 }
		}
		{
			id=243
			position={ 1885.385620 0.000000 2247.532471 }
			rotation={ -0.000000 -0.771117 -0.000000 -0.636694 }
			scale={ 1.000000 1.000000 1.000000 }
		}
		{
			id=244
			position={ 1855.249756 0.000000 2181.193848 }
			rotation={ -0.000000 0.566409 -0.000000 0.824124 }
			scale={ 1.000000 1.000000 1.000000 }
		}
		{
			id=246
			position={ 1791.000000 0.000000 2063.000000 }
			rotation={ 0.000000 0.707107 0.000000 0.707107 }
			scale={ 1.000000 1.000000 1.000000 }
		}
		{
			id=247
			position={ 1799.904419 0.000000 1961.858154 }
			rotation={ -0.000000 -0.537475 -0.000000 0.843280 }
			scale={ 1.000000 1.000000 1.000000 }
		}
		{
			id=295
			position={ 1988.000000 0.000000 3201.000000 }
			rotation={ 0.000000 0.707107 0.000000 0.707107 }
			scale={ 1.000000 1.000000 1.000000 }
		}
		{
			id=296
			position={ 2068.000000 0.000000 3283.000000 }
			rotation={ -0.000000 -0.707107 -0.000000 0.707107 }
			scale={ 1.000000 1.000000 1.000000 }
		}
		{
			id=297
			position={ 1880.000000 0.000000 3105.000000 }
			rotation={ -0.000000 -0.000000 -0.000000 1.000000 }
			scale={ 1.000000 1.000000 1.000000 }
		}
		{
			id=298
			position={ 1851.000000 0.000000 3161.000000 }
			rotation={ 0.000000 0.707107 0.000000 0.707107 }
			scale={ 1.000000 1.000000 1.000000 }
		}
		{
			id=299
			position={ 1762.000000 0.000000 3168.000000 }
			rotation={ -0.000000 -1.000000 -0.000000 -0.000000 }
			scale={ 1.000000 1.000000 1.000000 }
		}
		{
			id=300
			position={ 4467.153809 0.000000 2560.388916 }
			rotation={ -0.000000 -1.000000 -0.000000 -0.000000 }
			scale={ 1.000000 1.000000 1.000000 }
		}
		{
			id=301
			position={ 4539.000000 0.000000 2553.000000 }
			rotation={ -0.000000 -1.000000 -0.000000 -0.000000 }
			scale={ 1.000000 1.000000 1.000000 }
		}
		{
			id=302
			position={ 4571.000000 0.000000 2567.000000 }
			rotation={ 0.000000 0.707107 0.000000 0.707107 }
			scale={ 1.000000 1.000000 1.000000 }
		}
		{
			id=303
			position={ 4642.306152 0.000000 2564.942627 }
			rotation={ -0.000000 -0.672839 -0.000000 0.739789 }
			scale={ 1.000000 1.000000 1.000000 }
		}
		{
			id=304
			position={ 4673.895508 0.000000 2523.198730 }
			rotation={ -0.000000 -0.547272 -0.000000 0.836955 }
			scale={ 1.000000 1.000000 1.000000 }
		}
		{
			id=305
			position={ 4682.917480 0.000000 2434.934326 }
			rotation={ -0.000000 -0.861679 -0.000000 0.507453 }
			scale={ 1.000000 1.000000 1.000000 }
		}
		{
			id=306
			position={ 4725.961426 0.000000 2453.470215 }
			rotation={ -0.000000 -0.917839 -0.000000 0.396955 }
			scale={ 1.000000 1.000000 1.000000 }
		}
		{
			id=307
			position={ 4723.611328 0.000000 2354.311279 }
			rotation={ -0.000000 -0.669445 -0.000000 0.742862 }
			scale={ 1.000000 1.000000 1.000000 }
		}
		{
			id=308
			position={ 4792.000000 0.000000 2305.000000 }
			rotation={ -0.000000 -0.000000 -0.000000 1.000000 }
			scale={ 1.000000 1.000000 1.000000 }
		}
		{
			id=309
			position={ 4765.805664 0.000000 2407.389404 }
			rotation={ -0.000000 -0.999693 -0.000000 0.024774 }
			scale={ 1.000000 1.000000 1.000000 }
		}
		{
			id=323
			position={ 5261.139160 0.000000 2116.855225 }
			rotation={ -0.000000 -0.673284 -0.000000 -0.739385 }
			scale={ 1.000000 1.000000 1.000000 }
		}
		{
			id=324
			position={ 5430.044434 0.000000 2172.370850 }
			rotation={ -0.000000 0.994841 -0.000000 0.101447 }
			scale={ 1.000000 1.000000 1.000000 }
		}
		{
			id=326
			position={ 5624.591797 0.000000 2208.194824 }
			rotation={ -0.000000 0.966184 -0.000000 0.257855 }
			scale={ 1.000000 1.000000 1.000000 }
		}
		{
			id=329
			position={ 4723.000000 0.000000 2300.000000 }
			rotation={ -0.000000 -1.000000 -0.000000 -0.000000 }
			scale={ 1.000000 1.000000 1.000000 }
		}
		{
			id=330
			position={ 4642.000000 0.000000 2336.000000 }
			rotation={ -0.000000 -1.000000 -0.000000 -0.000000 }
			scale={ 1.000000 1.000000 1.000000 }
		}
		{
			id=331
			position={ 4523.000000 0.000000 2337.000000 }
			rotation={ -0.000000 -0.707107 -0.000000 0.707107 }
			scale={ 1.000000 1.000000 1.000000 }
		}
		{
			id=332
			position={ 4540.000000 0.000000 2310.000000 }
			rotation={ -0.000000 -1.000000 -0.000000 -0.000000 }
			scale={ 1.000000 1.000000 1.000000 }
		}
		{
			id=333
			position={ 4405.000000 0.000000 2386.000000 }
			rotation={ -0.000000 -1.000000 -0.000000 -0.000000 }
			scale={ 1.000000 1.000000 1.000000 }
		}
		{
			id=336
			position={ 4117.000000 0.000000 2241.000000 }
			rotation={ 0.000000 0.707107 0.000000 0.707107 }
			scale={ 1.000000 1.000000 1.000000 }
		}
		{
			id=337
			position={ 4075.000000 0.000000 1992.000000 }
			rotation={ -0.000000 -1.000000 -0.000000 -0.000000 }
			scale={ 1.000000 1.000000 1.000000 }
		}
		{
			id=338
			position={ 4482.000000 0.000000 2603.000000 }
			rotation={ -0.000000 -1.000000 -0.000000 -0.000000 }
			scale={ 1.000000 1.000000 1.000000 }
		}
		{
			id=339
			position={ 4525.000000 0.000000 2545.000000 }
			rotation={ 0.000000 0.707107 0.000000 0.707107 }
			scale={ 1.000000 1.000000 1.000000 }
		}
		{
			id=400
			position={ 5683.429199 0.000000 2207.918213 }
			rotation={ -0.000000 -0.212720 -0.000000 0.977114 }
			scale={ 1.000000 1.000000 1.000000 }
		}
		{
			id=401
			position={ 5709.320801 0.000000 2187.103760 }
			rotation={ -0.000000 0.973769 -0.000000 0.227540 }
			scale={ 1.000000 1.000000 1.000000 }
		}
		{
			id=408
			position={ 5802.670410 0.000000 2132.840088 }
			rotation={ -0.000000 0.922918 -0.000000 -0.384997 }
			scale={ 1.000000 1.000000 1.000000 }
		}
		{
			id=409
			position={ 5852.121094 0.000000 2185.127197 }
			rotation={ -0.000000 0.613239 -0.000000 0.789898 }
			scale={ 1.000000 1.000000 1.000000 }
		}
		{
			id=428
			position={ 5872.583496 0.000000 2204.330322 }
			rotation={ -0.000000 0.726011 -0.000000 0.687684 }
			scale={ 1.000000 1.000000 1.000000 }
		}
		{
			id=429
			position={ 6051.000000 0.000000 3159.000000 }
			rotation={ -0.000000 -0.000000 -0.000000 1.000000 }
			scale={ 1.000000 1.000000 1.000000 }
		}
		{
			id=430
			position={ 6325.000000 0.000000 3221.000000 }
			rotation={ -0.000000 -0.000000 -0.000000 1.000000 }
			scale={ 1.000000 1.000000 1.000000 }
		}
		{
			id=432
			position={ 6592.000000 0.000000 2992.000000 }
			rotation={ -0.000000 -0.707107 -0.000000 0.707107 }
			scale={ 1.000000 1.000000 1.000000 }
		}
		{
			id=433
			position={ 6663.000000 0.000000 2931.000000 }
			rotation={ -0.000000 -0.707107 -0.000000 0.707107 }
			scale={ 1.000000 1.000000 1.000000 }
		}
		{
			id=434
			position={ 6269.000000 0.000000 3304.000000 }
			rotation={ -0.000000 -1.000000 -0.000000 -0.000000 }
			scale={ 1.000000 1.000000 1.000000 }
		}
		{
			id=438
			position={ 6575.000000 0.000000 2606.000000 }
			rotation={ 0.000000 0.707107 0.000000 0.707107 }
			scale={ 1.000000 1.000000 1.000000 }
		}
		{
			id=439
			position={ 6688.000000 0.000000 2723.000000 }
			rotation={ -0.000000 -0.707107 -0.000000 0.707107 }
			scale={ 1.000000 1.000000 1.000000 }
		}
		{
			id=440
			position={ 6759.000000 0.000000 2783.000000 }
			rotation={ -0.000000 -0.707107 -0.000000 0.707107 }
			scale={ 1.000000 1.000000 1.000000 }
		}
		{
			id=441
			position={ 6949.000000 0.000000 3292.000000 }
			rotation={ 0.000000 0.707107 0.000000 0.707107 }
			scale={ 1.000000 1.000000 1.000000 }
		}
		{
			id=451
			position={ 6351.187500 0.000000 2261.588135 }
			rotation={ -0.000000 0.066051 -0.000000 0.997817 }
			scale={ 1.000000 1.000000 1.000000 }
		}
		{
			id=452
			position={ 6446.734375 0.000000 2376.305908 }
			rotation={ -0.000000 0.529427 -0.000000 0.848356 }
			scale={ 1.000000 1.000000 1.000000 }
		}
		{
			id=455
			position={ 6495.626953 0.000000 2455.793945 }
			rotation={ -0.000000 -0.454218 -0.000000 0.890891 }
			scale={ 1.000000 1.000000 1.000000 }
		}
		{
			id=456
			position={ 6476.845703 0.000000 2518.064209 }
			rotation={ -0.000000 -0.966450 -0.000000 0.256854 }
			scale={ 1.000000 1.000000 1.000000 }
		}
		{
			id=457
			position={ 6428.590332 0.000000 2557.972168 }
			rotation={ -0.000000 0.713936 -0.000000 0.700212 }
			scale={ 1.000000 1.000000 1.000000 }
		}
		{
			id=461
			position={ 5891.358398 0.000000 2171.156006 }
			rotation={ -0.000000 -0.973895 -0.000000 0.227001 }
			scale={ 1.000000 1.000000 1.000000 }
		}
		{
			id=468
			position={ 5928.144531 0.000000 2130.005127 }
			rotation={ -0.000000 0.006829 -0.000000 -0.999977 }
			scale={ 1.000000 1.000000 1.000000 }
		}
		{
			id=472
			position={ 6040.779297 0.000000 2104.349121 }
			rotation={ -0.000000 0.814907 -0.000000 -0.579592 }
			scale={ 1.000000 1.000000 1.000000 }
		}
		{
			id=475
			position={ 6066.604004 0.000000 2039.692505 }
			rotation={ -0.000000 0.942543 -0.000000 0.334086 }
			scale={ 1.000000 1.000000 1.000000 }
		}
		{
			id=479
			position={ 6293.678711 0.000000 2159.064453 }
			rotation={ -0.000000 0.889946 -0.000000 0.456066 }
			scale={ 1.000000 1.000000 1.000000 }
		}
		{
			id=480
			position={ 6074.868652 0.000000 1870.572876 }
			rotation={ -0.000000 0.463596 -0.000000 -0.886047 }
			scale={ 1.000000 1.000000 1.000000 }
		}
		{
			id=481
			position={ 6106.895996 0.000000 1987.044922 }
			rotation={ -0.000000 0.907486 -0.000000 -0.420083 }
			scale={ 1.000000 1.000000 1.000000 }
		}
		{
			id=482
			position={ 6226.887695 0.000000 1939.184448 }
			rotation={ -0.000000 -0.154575 -0.000000 0.987981 }
			scale={ 1.000000 1.000000 1.000000 }
		}
		{
			id=483
			position={ 6261.660156 0.000000 2027.621826 }
			rotation={ -0.000000 0.733895 -0.000000 0.679264 }
			scale={ 1.000000 1.000000 1.000000 }
		}
		{
			id=484
			position={ 6284.116699 0.000000 2126.571045 }
			rotation={ -0.000000 0.865009 -0.000000 0.501757 }
			scale={ 1.000000 1.000000 1.000000 }
		}
		{
			id=486
			position={ 5861.000000 0.000000 2005.000000 }
			rotation={ 0.000000 0.707107 0.000000 0.707107 }
			scale={ 1.000000 1.000000 1.000000 }
		}
		{
			id=487
			position={ 6223.000000 0.000000 1841.000000 }
			rotation={ 0.000000 0.707107 0.000000 0.707107 }
			scale={ 1.000000 1.000000 1.000000 }
		}
		{
			id=488
			position={ 6204.000000 0.000000 1640.000000 }
			rotation={ 0.000000 0.707107 0.000000 0.707107 }
			scale={ 1.000000 1.000000 1.000000 }
		}
		{
			id=489
			position={ 6125.000000 0.000000 1632.000000 }
			rotation={ 0.000000 0.707107 0.000000 0.707107 }
			scale={ 1.000000 1.000000 1.000000 }
		}
		{
			id=490
			position={ 6089.000000 0.000000 1474.000000 }
			rotation={ 0.000000 0.707107 0.000000 0.707107 }
			scale={ 1.000000 1.000000 1.000000 }
		}
		{
			id=501
			position={ 2128.000000 0.000000 3242.000000 }
			rotation={ 0.000000 0.707107 0.000000 0.707107 }
			scale={ 1.000000 1.000000 1.000000 }
		}
		{
			id=503
			position={ 2370.265625 0.000000 3266.746826 }
			rotation={ -0.000000 -0.996724 -0.000000 -0.080875 }
			scale={ 1.000000 1.000000 1.000000 }
		}
		{
			id=504
			position={ 2476.932373 0.000000 3018.873779 }
			rotation={ -0.000000 0.373586 -0.000000 0.927596 }
			scale={ 1.000000 1.000000 1.000000 }
		}
		{
			id=505
			position={ 2489.725342 0.000000 3189.922363 }
			rotation={ -0.000000 -0.848744 -0.000000 -0.528803 }
			scale={ 1.000000 1.000000 1.000000 }
		}
		{
			id=506
			position={ 2450.613281 0.000000 3359.342529 }
			rotation={ 0.000000 0.707107 0.000000 0.707107 }
			scale={ 1.000000 1.000000 1.000000 }
		}
		{
			id=507
			position={ 2233.706055 0.000000 3294.799072 }
			rotation={ -0.000000 0.002958 -0.000000 0.999996 }
			scale={ 1.000000 1.000000 1.000000 }
		}
		{
			id=508
			position={ 2589.731934 0.000000 3304.971680 }
			rotation={ 0.000000 0.707107 0.000000 0.707107 }
			scale={ 1.000000 1.000000 1.000000 }
		}
		{
			id=509
			position={ 2337.195312 0.000000 2870.777588 }
			rotation={ -0.000000 -0.930664 -0.000000 -0.365875 }
			scale={ 1.000000 1.000000 1.000000 }
		}
		{
			id=511
			position={ 2721.000000 0.000000 2773.000000 }
			rotation={ -0.000000 -0.707107 -0.000000 0.707107 }
			scale={ 1.000000 1.000000 1.000000 }
		}
		{
			id=512
			position={ 1880.000000 0.000000 3300.000000 }
			rotation={ 0.000000 0.707107 0.000000 0.707107 }
			scale={ 1.000000 1.000000 1.000000 }
		}
		{
			id=513
			position={ 1769.000000 0.000000 3346.000000 }
			rotation={ 0.000000 0.707107 0.000000 0.707107 }
			scale={ 1.000000 1.000000 1.000000 }
		}
		{
			id=514
			position={ 2139.000000 0.000000 3291.000000 }
			rotation={ 0.000000 0.707107 0.000000 0.707107 }
			scale={ 1.000000 1.000000 1.000000 }
		}
		{
			id=515
			position={ 2065.000000 0.000000 3392.000000 }
			rotation={ 0.000000 0.707107 0.000000 0.707107 }
			scale={ 1.000000 1.000000 1.000000 }
		}
		{
			id=516
			position={ 1631.000000 0.000000 3276.000000 }
			rotation={ 0.000000 0.707107 0.000000 0.707107 }
			scale={ 1.000000 1.000000 1.000000 }
		}
		{
			id=517
			position={ 1416.000000 0.000000 3248.000000 }
			rotation={ 0.000000 0.707107 0.000000 0.707107 }
			scale={ 1.000000 1.000000 1.000000 }
		}
		{
			id=518
			position={ 1965.000000 0.000000 3195.000000 }
			rotation={ 0.000000 0.707107 0.000000 0.707107 }
			scale={ 1.000000 1.000000 1.000000 }
		}
		{
			id=520
			position={ 2594.243164 0.000000 3027.716797 }
			rotation={ -0.000000 0.004820 -0.000000 0.999989 }
			scale={ 1.000000 1.000000 1.000000 }
		}
		{
			id=523
			position={ 1851.000000 0.000000 3407.000000 }
			rotation={ 0.000000 0.707107 0.000000 0.707107 }
			scale={ 1.000000 1.000000 1.000000 }
		}
		{
			id=524
			position={ 1424.000000 0.000000 3472.000000 }
			rotation={ -0.000000 -1.000000 -0.000000 -0.000000 }
			scale={ 1.000000 1.000000 1.000000 }
		}
		{
			id=525
			position={ 1314.000000 0.000000 3091.000000 }
			rotation={ 0.000000 0.707107 0.000000 0.707107 }
			scale={ 1.000000 1.000000 1.000000 }
		}
		{
			id=526
			position={ 1621.000000 0.000000 1692.000000 }
			rotation={ 0.000000 0.707107 0.000000 0.707107 }
			scale={ 1.000000 1.000000 1.000000 }
		}
		{
			id=527
			position={ 1728.000000 0.000000 1823.000000 }
			rotation={ -0.000000 -0.707107 -0.000000 0.707107 }
			scale={ 1.000000 1.000000 1.000000 }
		}
		{
			id=528
			position={ 1747.000000 0.000000 1630.000000 }
			rotation={ 0.000000 0.707107 0.000000 0.707107 }
			scale={ 1.000000 1.000000 1.000000 }
		}
		{
			id=529
			position={ 1539.000000 0.000000 1597.000000 }
			rotation={ 0.000000 0.707107 0.000000 0.707107 }
			scale={ 1.000000 1.000000 1.000000 }
		}
		{
			id=531
			position={ 1476.000000 0.000000 1859.000000 }
			rotation={ 0.000000 0.707107 0.000000 0.707107 }
			scale={ 1.000000 1.000000 1.000000 }
		}
		{
			id=532
			position={ 1398.000000 0.000000 2007.000000 }
			rotation={ -0.000000 -0.000000 -0.000000 1.000000 }
			scale={ 1.000000 1.000000 1.000000 }
		}
		{
			id=533
			position={ 1687.000000 0.000000 1997.000000 }
			rotation={ 0.000000 0.707107 0.000000 0.707107 }
			scale={ 1.000000 1.000000 1.000000 }
		}
		{
			id=534
			position={ 1570.000000 0.000000 2053.000000 }
			rotation={ -0.000000 -0.000000 -0.000000 1.000000 }
			scale={ 1.000000 1.000000 1.000000 }
		}
		{
			id=536
			position={ 1492.000000 0.000000 2119.000000 }
			rotation={ 0.000000 0.707107 0.000000 0.707107 }
			scale={ 1.000000 1.000000 1.000000 }
		}
		{
			id=542
			position={ 1414.000000 0.000000 2115.000000 }
			rotation={ 0.000000 0.707107 0.000000 0.707107 }
			scale={ 1.000000 1.000000 1.000000 }
		}
		{
			id=544
			position={ 1375.000000 0.000000 2058.000000 }
			rotation={ -0.000000 -0.707107 -0.000000 0.707107 }
			scale={ 1.000000 1.000000 1.000000 }
		}
		{
			id=545
			position={ 1338.000000 0.000000 1992.000000 }
			rotation={ 0.000000 0.707107 0.000000 0.707107 }
			scale={ 1.000000 1.000000 1.000000 }
		}
		{
			id=546
			position={ 1239.000000 0.000000 1901.000000 }
			rotation={ 0.000000 0.707107 0.000000 0.707107 }
			scale={ 1.000000 1.000000 1.000000 }
		}
		{
			id=547
			position={ 1202.000000 0.000000 1903.000000 }
			rotation={ 0.000000 0.707107 0.000000 0.707107 }
			scale={ 1.000000 1.000000 1.000000 }
		}
		{
			id=551
			position={ 1050.000000 0.000000 2123.000000 }
			rotation={ -0.000000 -1.000000 -0.000000 -0.000000 }
			scale={ 1.000000 1.000000 1.000000 }
		}
		{
			id=552
			position={ 983.000000 0.000000 2112.000000 }
			rotation={ -0.000000 -1.000000 -0.000000 -0.000000 }
			scale={ 1.000000 1.000000 1.000000 }
		}
		{
			id=554
			position={ 982.000000 0.000000 1996.000000 }
			rotation={ 0.000000 0.707107 0.000000 0.707107 }
			scale={ 1.000000 1.000000 1.000000 }
		}
		{
			id=555
			position={ 1105.000000 0.000000 1900.000000 }
			rotation={ 0.000000 0.707107 0.000000 0.707107 }
			scale={ 1.000000 1.000000 1.000000 }
		}
		{
			id=556
			position={ 1047.000000 0.000000 2324.000000 }
			rotation={ 0.000000 0.707107 0.000000 0.707107 }
			scale={ 1.000000 1.000000 1.000000 }
		}
		{
			id=557
			position={ 1706.940918 0.000000 1530.130371 }
			rotation={ -0.000000 -1.000000 -0.000000 -0.000000 }
			scale={ 1.000000 1.000000 1.000000 }
		}
		{
			id=558
			position={ 1792.337402 0.000000 1386.270874 }
			rotation={ -0.000000 -0.000000 -0.000000 1.000000 }
			scale={ 1.000000 1.000000 1.000000 }
		}
		{
			id=560
			position={ 1812.834717 0.000000 1584.409668 }
			rotation={ 0.000000 0.707107 0.000000 0.707107 }
			scale={ 1.000000 1.000000 1.000000 }
		}
		{
			id=565
			position={ 1825.000000 0.000000 1337.000000 }
			rotation={ 0.000000 0.707107 0.000000 0.707107 }
			scale={ 1.000000 1.000000 1.000000 }
		}
		{
			id=570
			position={ 1913.000000 0.000000 1670.000000 }
			rotation={ -0.000000 -1.000000 -0.000000 -0.000000 }
			scale={ 1.000000 1.000000 1.000000 }
		}
		{
			id=572
			position={ 2051.000000 0.000000 1749.000000 }
			rotation={ -0.000000 -0.707107 -0.000000 0.707107 }
			scale={ 1.000000 1.000000 1.000000 }
		}
		{
			id=573
			position={ 2213.000000 0.000000 1722.000000 }
			rotation={ 0.000000 0.707107 0.000000 0.707107 }
			scale={ 1.000000 1.000000 1.000000 }
		}
		{
			id=575
			position={ 2354.000000 0.000000 1740.000000 }
			rotation={ -0.000000 -0.707107 -0.000000 0.707107 }
			scale={ 1.000000 1.000000 1.000000 }
		}
		{
			id=576
			position={ 2522.000000 0.000000 1769.000000 }
			rotation={ -0.000000 -1.000000 -0.000000 -0.000000 }
			scale={ 1.000000 1.000000 1.000000 }
		}
		{
			id=577
			position={ 2552.000000 0.000000 1621.000000 }
			rotation={ 0.000000 0.707107 0.000000 0.707107 }
			scale={ 1.000000 1.000000 1.000000 }
		}
		{
			id=578
			position={ 2669.000000 0.000000 1532.000000 }
			rotation={ -0.000000 -1.000000 -0.000000 -0.000000 }
			scale={ 1.000000 1.000000 1.000000 }
		}
		{
			id=579
			position={ 2359.000000 0.000000 1515.000000 }
			rotation={ -0.000000 -1.000000 -0.000000 -0.000000 }
			scale={ 1.000000 1.000000 1.000000 }
		}
		{
			id=582
			position={ 2499.000000 0.000000 1433.000000 }
			rotation={ -0.000000 -1.000000 -0.000000 -0.000000 }
			scale={ 1.000000 1.000000 1.000000 }
		}
		{
			id=584
			position={ 2659.000000 0.000000 1494.000000 }
			rotation={ -0.000000 -1.000000 -0.000000 -0.000000 }
			scale={ 1.000000 1.000000 1.000000 }
		}
		{
			id=585
			position={ 2733.000000 0.000000 1495.000000 }
			rotation={ -0.000000 -1.000000 -0.000000 -0.000000 }
			scale={ 1.000000 1.000000 1.000000 }
		}
		{
			id=586
			position={ 2966.000000 0.000000 1426.000000 }
			rotation={ -0.000000 -0.707107 -0.000000 0.707107 }
			scale={ 1.000000 1.000000 1.000000 }
		}
		{
			id=588
			position={ 3057.000000 0.000000 1429.000000 }
			rotation={ -0.000000 -0.707107 -0.000000 0.707107 }
			scale={ 1.000000 1.000000 1.000000 }
		}
		{
			id=589
			position={ 3122.000000 0.000000 1290.000000 }
			rotation={ -0.000000 -1.000000 -0.000000 -0.000000 }
			scale={ 1.000000 1.000000 1.000000 }
		}
		{
			id=590
			position={ 3166.000000 0.000000 1247.000000 }
			rotation={ -0.000000 -0.707107 -0.000000 0.707107 }
			scale={ 1.000000 1.000000 1.000000 }
		}
		{
			id=591
			position={ 3196.000000 0.000000 1077.000000 }
			rotation={ 0.000000 0.707107 0.000000 0.707107 }
			scale={ 1.000000 1.000000 1.000000 }
		}
		{
			id=592
			position={ 3090.000000 0.000000 1100.000000 }
			rotation={ 0.000000 0.707107 0.000000 0.707107 }
			scale={ 1.000000 1.000000 1.000000 }
		}
		{
			id=593
			position={ 2823.000000 0.000000 1199.000000 }
			rotation={ 0.000000 0.707107 0.000000 0.707107 }
			scale={ 1.000000 1.000000 1.000000 }
		}
		{
			id=594
			position={ 2762.000000 0.000000 1167.000000 }
			rotation={ 0.000000 0.707107 0.000000 0.707107 }
			scale={ 1.000000 1.000000 1.000000 }
		}
		{
			id=595
			position={ 2708.000000 0.000000 1139.000000 }
			rotation={ 0.000000 0.707107 0.000000 0.707107 }
			scale={ 1.000000 1.000000 1.000000 }
		}
		{
			id=596
			position={ 2801.000000 0.000000 1098.000000 }
			rotation={ 0.000000 0.707107 0.000000 0.707107 }
			scale={ 1.000000 1.000000 1.000000 }
		}
		{
			id=597
			position={ 3174.000000 0.000000 921.000000 }
			rotation={ 0.000000 0.707107 0.000000 0.707107 }
			scale={ 1.000000 1.000000 1.000000 }
		}
		{
			id=598
			position={ 3090.000000 0.000000 903.000000 }
			rotation={ 0.000000 0.707107 0.000000 0.707107 }
			scale={ 1.000000 1.000000 1.000000 }
		}
		{
			id=599
			position={ 2906.000000 0.000000 794.000000 }
			rotation={ 0.000000 0.707107 0.000000 0.707107 }
			scale={ 1.000000 1.000000 1.000000 }
		}
		{
			id=602
			position={ 3308.000000 0.000000 1006.000000 }
			rotation={ 0.000000 0.707107 0.000000 0.707107 }
			scale={ 1.000000 1.000000 1.000000 }
		}
		{
			id=603
			position={ 3427.000000 0.000000 1373.000000 }
			rotation={ -0.000000 -0.000000 -0.000000 1.000000 }
			scale={ 1.000000 1.000000 1.000000 }
		}
		{
			id=604
			position={ 3602.000000 0.000000 1312.000000 }
			rotation={ -0.000000 -0.707107 -0.000000 0.707107 }
			scale={ 1.000000 1.000000 1.000000 }
		}
		{
			id=605
			position={ 1079.000000 0.000000 2415.000000 }
			rotation={ -0.000000 -0.000000 -0.000000 1.000000 }
			scale={ 1.000000 1.000000 1.000000 }
		}
		{
			id=606
			position={ 1108.000000 0.000000 2497.000000 }
			rotation={ -0.000000 -1.000000 -0.000000 -0.000000 }
			scale={ 1.000000 1.000000 1.000000 }
		}
		{
			id=607
			position={ 1156.000000 0.000000 2579.000000 }
			rotation={ 0.000000 0.707107 0.000000 0.707107 }
			scale={ 1.000000 1.000000 1.000000 }
		}
		{
			id=608
			position={ 1066.000000 0.000000 2597.000000 }
			rotation={ -0.000000 -0.707107 -0.000000 0.707107 }
			scale={ 1.000000 1.000000 1.000000 }
		}
		{
			id=609
			position={ 973.000000 0.000000 2558.000000 }
			rotation={ 0.000000 0.707107 0.000000 0.707107 }
			scale={ 1.000000 1.000000 1.000000 }
		}
		{
			id=610
			position={ 924.000000 0.000000 2567.000000 }
			rotation={ 0.000000 0.707107 0.000000 0.707107 }
			scale={ 1.000000 1.000000 1.000000 }
		}
		{
			id=612
			position={ 912.000000 0.000000 2712.000000 }
			rotation={ -0.000000 -0.000000 -0.000000 1.000000 }
			scale={ 1.000000 1.000000 1.000000 }
		}
		{
			id=614
			position={ 768.000000 0.000000 2764.000000 }
			rotation={ 0.000000 0.707107 0.000000 0.707107 }
			scale={ 1.000000 1.000000 1.000000 }
		}
		{
			id=615
			position={ 941.000000 0.000000 2887.000000 }
			rotation={ -0.000000 -1.000000 -0.000000 -0.000000 }
			scale={ 1.000000 1.000000 1.000000 }
		}
		{
			id=617
			position={ 1005.000000 0.000000 2887.000000 }
			rotation={ -0.000000 -1.000000 -0.000000 -0.000000 }
			scale={ 1.000000 1.000000 1.000000 }
		}
		{
			id=618
			position={ 1016.000000 0.000000 2960.000000 }
			rotation={ 0.000000 0.707107 0.000000 0.707107 }
			scale={ 1.000000 1.000000 1.000000 }
		}
		{
			id=619
			position={ 1001.000000 0.000000 3012.000000 }
			rotation={ -0.000000 -0.000000 -0.000000 1.000000 }
			scale={ 1.000000 1.000000 1.000000 }
		}
		{
			id=620
			position={ 1219.000000 0.000000 3023.000000 }
			rotation={ -0.000000 -1.000000 -0.000000 -0.000000 }
			scale={ 1.000000 1.000000 1.000000 }
		}
		{
			id=621
			position={ 1287.000000 0.000000 2816.000000 }
			rotation={ -0.000000 -1.000000 -0.000000 -0.000000 }
			scale={ 1.000000 1.000000 1.000000 }
		}
		{
			id=622
			position={ 1365.000000 0.000000 2749.000000 }
			rotation={ -0.000000 -1.000000 -0.000000 -0.000000 }
			scale={ 1.000000 1.000000 1.000000 }
		}
		{
			id=624
			position={ 1438.000000 0.000000 2761.000000 }
			rotation={ -0.000000 -0.000000 -0.000000 1.000000 }
			scale={ 1.000000 1.000000 1.000000 }
		}
		{
			id=625
			position={ 1472.000000 0.000000 3058.000000 }
			rotation={ -0.000000 -0.000000 -0.000000 1.000000 }
			scale={ 1.000000 1.000000 1.000000 }
		}
		{
			id=633
			position={ 5544.000000 0.000000 3370.000000 }
			rotation={ 0.000000 0.707107 0.000000 0.707107 }
			scale={ 1.000000 1.000000 1.000000 }
		}
		{
			id=635
			position={ 5287.000000 0.000000 3060.000000 }
			rotation={ -0.000000 -0.707107 -0.000000 0.707107 }
			scale={ 1.000000 1.000000 1.000000 }
		}
		{
			id=639
			position={ 5605.646484 0.000000 3110.927246 }
			rotation={ -0.000000 -0.707107 -0.000000 0.707107 }
			scale={ 1.000000 1.000000 1.000000 }
		}
		{
			id=641
			position={ 5681.482910 0.000000 3094.130615 }
			rotation={ 0.000000 0.707107 0.000000 0.707107 }
			scale={ 1.000000 1.000000 1.000000 }
		}
		{
			id=651
			position={ 5380.601074 0.000000 2931.505127 }
			rotation={ -0.000000 -0.763613 -0.000000 -0.645675 }
			scale={ 1.000000 1.000000 1.000000 }
		}
		{
			id=652
			position={ 5332.000000 0.000000 2868.000000 }
			rotation={ -0.000000 -1.000000 -0.000000 -0.000000 }
			scale={ 1.000000 1.000000 1.000000 }
		}
		{
			id=653
			position={ 5463.296387 0.000000 2820.014160 }
			rotation={ -0.000000 -0.993864 -0.000000 -0.110615 }
			scale={ 1.000000 1.000000 1.000000 }
		}
		{
			id=654
			position={ 5522.959473 0.000000 2765.078369 }
			rotation={ -0.000000 -0.984225 -0.000000 0.176920 }
			scale={ 1.000000 1.000000 1.000000 }
		}
		{
			id=655
			position={ 5652.424805 0.000000 2828.418213 }
			rotation={ -0.000000 -0.923177 -0.000000 0.384375 }
			scale={ 1.000000 1.000000 1.000000 }
		}
		{
			id=656
			position={ 5785.960938 0.000000 3009.522217 }
			rotation={ -0.000000 -0.991153 -0.000000 0.132725 }
			scale={ 1.000000 1.000000 1.000000 }
		}
		{
			id=658
			position={ 5816.492188 0.000000 3094.212402 }
			rotation={ -0.000000 0.935408 -0.000000 0.353572 }
			scale={ 1.000000 1.000000 1.000000 }
		}
		{
			id=660
			position={ 6021.796875 0.000000 3157.949219 }
			rotation={ -0.000000 -0.959049 -0.000000 -0.283240 }
			scale={ 1.000000 1.000000 1.000000 }
		}
		{
			id=661
			position={ 5542.601562 0.000000 2869.018311 }
			rotation={ -0.000000 -0.989450 -0.000000 0.144874 }
			scale={ 1.000000 1.000000 1.000000 }
		}
		{
			id=662
			position={ 5497.570801 0.000000 2974.252197 }
			rotation={ -0.000000 0.994236 -0.000000 -0.107218 }
			scale={ 1.000000 1.000000 1.000000 }
		}
		{
			id=663
			position={ 5471.457520 0.000000 2924.356934 }
			rotation={ 0.000000 0.707107 0.000000 0.707107 }
			scale={ 1.000000 1.000000 1.000000 }
		}
		{
			id=664
			position={ 5603.492676 0.000000 2949.532471 }
			rotation={ -0.000000 -0.734262 -0.000000 -0.678867 }
			scale={ 1.000000 1.000000 1.000000 }
		}
		{
			id=665
			position={ 5633.940430 0.000000 2970.698486 }
			rotation={ -0.000000 -0.035389 -0.000000 -0.999374 }
			scale={ 1.000000 1.000000 1.000000 }
		}
		{
			id=666
			position={ 5705.043457 0.000000 2960.368896 }
			rotation={ 0.000000 0.707107 0.000000 0.707107 }
			scale={ 1.000000 1.000000 1.000000 }
		}
		{
			id=667
			position={ 5690.595215 0.000000 3039.795654 }
			rotation={ -0.000000 -1.000000 -0.000000 -0.000000 }
			scale={ 1.000000 1.000000 1.000000 }
		}
		{
			id=668
			position={ 5683.147949 0.296631 3140.769043 }
			rotation={ -0.000000 -0.881386 -0.000000 -0.472397 }
			scale={ 1.000000 1.000000 1.000000 }
		}
		{
			id=669
			position={ 5766.746582 0.000000 3118.011719 }
			rotation={ 0.000000 0.707107 0.000000 0.707107 }
			scale={ 1.000000 1.000000 1.000000 }
		}
		{
			id=700
			position={ 1516.000000 0.000000 846.000000 }
			rotation={ 0.000000 0.707107 0.000000 0.707107 }
			scale={ 1.000000 1.000000 1.000000 }
		}
		{
			id=701
			position={ 1592.000000 0.000000 847.000000 }
			rotation={ 0.000000 0.707107 0.000000 0.707107 }
			scale={ 1.000000 1.000000 1.000000 }
		}
		{
			id=702
			position={ 1646.000000 0.000000 940.000000 }
			rotation={ 0.000000 0.707107 0.000000 0.707107 }
			scale={ 1.000000 1.000000 1.000000 }
		}
		{
			id=703
			position={ 1648.000000 0.000000 963.000000 }
			rotation={ 0.000000 0.707107 0.000000 0.707107 }
			scale={ 1.000000 1.000000 1.000000 }
		}
		{
			id=704
			position={ 1600.000000 0.000000 1047.000000 }
			rotation={ -0.000000 -0.707107 -0.000000 0.707107 }
			scale={ 1.000000 1.000000 1.000000 }
		}
		{
			id=705
			position={ 1397.000000 0.000000 894.000000 }
			rotation={ -0.000000 -1.000000 -0.000000 -0.000000 }
			scale={ 1.000000 1.000000 1.000000 }
		}
		{
			id=706
			position={ 1687.000000 0.000000 946.000000 }
			rotation={ 0.000000 0.707107 0.000000 0.707107 }
			scale={ 1.000000 1.000000 1.000000 }
		}
		{
			id=707
			position={ 1722.000000 0.000000 822.000000 }
			rotation={ 0.000000 0.707107 0.000000 0.707107 }
			scale={ 1.000000 1.000000 1.000000 }
		}
		{
			id=708
			position={ 1866.000000 0.000000 967.000000 }
			rotation={ 0.000000 0.707107 0.000000 0.707107 }
			scale={ 1.000000 1.000000 1.000000 }
		}
		{
			id=709
			position={ 1842.000000 0.000000 939.000000 }
			rotation={ -0.000000 -1.000000 -0.000000 -0.000000 }
			scale={ 1.000000 1.000000 1.000000 }
		}
		{
			id=710
			position={ 1824.000000 0.000000 884.000000 }
			rotation={ -0.000000 -0.000000 -0.000000 1.000000 }
			scale={ 1.000000 1.000000 1.000000 }
		}
		{
			id=711
			position={ 1829.000000 0.000000 815.000000 }
			rotation={ -0.000000 -0.000000 -0.000000 1.000000 }
			scale={ 1.000000 1.000000 1.000000 }
		}
		{
			id=712
			position={ 1900.000000 0.000000 684.000000 }
			rotation={ -0.000000 -1.000000 -0.000000 -0.000000 }
			scale={ 1.000000 1.000000 1.000000 }
		}
		{
			id=715
			position={ 2095.000000 0.000000 737.000000 }
			rotation={ 0.000000 0.707107 0.000000 0.707107 }
			scale={ 1.000000 1.000000 1.000000 }
		}
		{
			id=716
			position={ 2181.000000 0.000000 891.000000 }
			rotation={ 0.000000 0.707107 0.000000 0.707107 }
			scale={ 1.000000 1.000000 1.000000 }
		}
		{
			id=720
			position={ 2359.000000 0.000000 909.000000 }
			rotation={ 0.000000 0.707107 0.000000 0.707107 }
			scale={ 1.000000 1.000000 1.000000 }
		}
		{
			id=723
			position={ 2489.000000 0.000000 910.000000 }
			rotation={ 0.000000 0.707107 0.000000 0.707107 }
			scale={ 1.000000 1.000000 1.000000 }
		}
		{
			id=726
			position={ 2573.000000 0.000000 895.000000 }
			rotation={ 0.000000 0.707107 0.000000 0.707107 }
			scale={ 1.000000 1.000000 1.000000 }
		}
		{
			id=727
			position={ 2629.000000 0.000000 1055.000000 }
			rotation={ 0.000000 0.707107 0.000000 0.707107 }
			scale={ 1.000000 1.000000 1.000000 }
		}
		{
			id=752
			position={ 4309.000000 0.000000 2422.000000 }
			rotation={ -0.000000 -1.000000 -0.000000 -0.000000 }
			scale={ 1.000000 1.000000 1.000000 }
		}
		{
			id=756
			position={ 4760.000000 0.000000 2282.000000 }
			rotation={ -0.000000 -1.000000 -0.000000 -0.000000 }
			scale={ 1.000000 1.000000 1.000000 }
		}
		{
			id=764
			position={ 4098.000000 0.000000 1874.000000 }
			rotation={ 0.000000 0.707107 0.000000 0.707107 }
			scale={ 1.000000 1.000000 1.000000 }
		}
		{
			id=765
			position={ 4100.000000 0.000000 1836.000000 }
			rotation={ -0.000000 -0.000000 -0.000000 1.000000 }
			scale={ 1.000000 1.000000 1.000000 }
		}
		{
			id=766
			position={ 4097.000000 0.000000 1774.000000 }
			rotation={ 0.000000 0.707107 0.000000 0.707107 }
			scale={ 1.000000 1.000000 1.000000 }
		}
		{
			id=767
			position={ 4243.000000 0.000000 1670.000000 }
			rotation={ 0.000000 0.707107 0.000000 0.707107 }
			scale={ 1.000000 1.000000 1.000000 }
		}
		{
			id=768
			position={ 4309.000000 0.000000 1708.000000 }
			rotation={ 0.000000 0.707107 0.000000 0.707107 }
			scale={ 1.000000 1.000000 1.000000 }
		}
		{
			id=770
			position={ 4368.000000 0.000000 1740.000000 }
			rotation={ 0.000000 0.707107 0.000000 0.707107 }
			scale={ 1.000000 1.000000 1.000000 }
		}
		{
			id=772
			position={ 4460.000000 0.000000 1726.000000 }
			rotation={ 0.000000 0.707107 0.000000 0.707107 }
			scale={ 1.000000 1.000000 1.000000 }
		}
		{
			id=774
			position={ 4559.000000 0.000000 1790.000000 }
			rotation={ -0.000000 -0.707107 -0.000000 0.707107 }
			scale={ 1.000000 1.000000 1.000000 }
		}
		{
			id=775
			position={ 4598.000000 0.000000 1830.000000 }
			rotation={ 0.000000 0.707107 0.000000 0.707107 }
			scale={ 1.000000 1.000000 1.000000 }
		}
		{
			id=800
			position={ 5812.000000 0.000000 1838.000000 }
			rotation={ -0.000000 -0.707107 -0.000000 0.707107 }
			scale={ 1.000000 1.000000 1.000000 }
		}
		{
			id=801
			position={ 5813.000000 0.000000 1852.000000 }
			rotation={ 0.000000 0.707107 0.000000 0.707107 }
			scale={ 1.000000 1.000000 1.000000 }
		}
		{
			id=819
			position={ 5848.000000 0.000000 1926.000000 }
			rotation={ -0.000000 -1.000000 -0.000000 -0.000000 }
			scale={ 1.000000 1.000000 1.000000 }
		}
		{
			id=821
			position={ 5696.000000 0.000000 1937.000000 }
			rotation={ -0.000000 -1.000000 -0.000000 -0.000000 }
			scale={ 1.000000 1.000000 1.000000 }
		}
		{
			id=822
			position={ 5602.000000 0.000000 1978.000000 }
			rotation={ -0.000000 -1.000000 -0.000000 -0.000000 }
			scale={ 1.000000 1.000000 1.000000 }
		}
		{
			id=823
			position={ 5459.000000 0.000000 2019.000000 }
			rotation={ -0.000000 -1.000000 -0.000000 -0.000000 }
			scale={ 1.000000 1.000000 1.000000 }
		}
		{
			id=824
			position={ 5420.000000 0.000000 2035.000000 }
			rotation={ -0.000000 -0.707107 -0.000000 0.707107 }
			scale={ 1.000000 1.000000 1.000000 }
		}
		{
			id=833
			position={ 4791.000000 0.000000 1614.000000 }
			rotation={ 0.000000 0.707107 0.000000 0.707107 }
			scale={ 1.000000 1.000000 1.000000 }
		}
		{
			id=834
			position={ 4907.000000 0.000000 1510.000000 }
			rotation={ 0.000000 0.707107 0.000000 0.707107 }
			scale={ 1.000000 1.000000 1.000000 }
		}
		{
			id=834
			position={ 4907.000000 0.000000 1510.000000 }
			rotation={ 0.000000 0.707107 0.000000 0.707107 }
			scale={ 1.000000 1.000000 1.000000 }
		}
		{
			id=838
			position={ 5127.000000 0.000000 1527.000000 }
			rotation={ 0.000000 0.707107 0.000000 0.707107 }
			scale={ 1.000000 1.000000 1.000000 }
		}
		{
			id=839
			position={ 5298.000000 0.000000 1474.000000 }
			rotation={ 0.000000 0.707107 0.000000 0.707107 }
			scale={ 1.000000 1.000000 1.000000 }
		}
		{
			id=845
			position={ 5551.000000 0.000000 1482.000000 }
			rotation={ 0.000000 0.707107 0.000000 0.707107 }
			scale={ 1.000000 1.000000 1.000000 }
		}
		{
			id=900
			position={ 5501.166016 0.000000 1206.456787 }
			rotation={ -0.000000 -0.440089 -0.000000 0.897954 }
			scale={ 1.000000 1.000000 1.000000 }
		}
		{
			id=901
			position={ 5565.396484 0.000000 1164.181519 }
			rotation={ -0.000000 -0.542753 -0.000000 -0.839891 }
			scale={ 1.000000 1.000000 1.000000 }
		}
		{
			id=902
			position={ 5636.056152 0.000000 1129.334229 }
			rotation={ -0.000000 -0.707891 -0.000000 0.706321 }
			scale={ 1.000000 1.000000 1.000000 }
		}
		{
			id=903
			position={ 5511.290039 0.000000 1269.955688 }
			rotation={ -0.000000 -0.463501 -0.000000 0.886096 }
			scale={ 1.000000 1.000000 1.000000 }
		}
		{
			id=904
			position={ 5625.216797 0.000000 1042.467896 }
			rotation={ -0.000000 -0.999987 -0.000000 0.005052 }
			scale={ 1.000000 1.000000 1.000000 }
		}
		{
			id=905
			position={ 5697.098633 0.000000 1226.082031 }
			rotation={ -0.000000 -0.990390 -0.000000 -0.138302 }
			scale={ 1.000000 1.000000 1.000000 }
		}
		{
			id=906
			position={ 5550.441895 0.000000 1308.388306 }
			rotation={ -0.000000 -0.999978 -0.000000 -0.006605 }
			scale={ 1.000000 1.000000 1.000000 }
		}
		{
			id=907
			position={ 5499.201172 0.000000 1347.494873 }
			rotation={ -0.000000 -0.047904 -0.000000 0.998851 }
			scale={ 1.000000 1.000000 1.000000 }
		}
		{
			id=908
			position={ 5519.330078 0.000000 1424.301392 }
			rotation={ -0.000000 0.606412 -0.000000 0.795150 }
			scale={ 1.000000 1.000000 1.000000 }
		}
		{
			id=909
			position={ 5380.865723 0.000000 1342.464600 }
			rotation={ -0.000000 0.478292 -0.000000 0.878200 }
			scale={ 1.000000 1.000000 1.000000 }
		}
		{
			id=910
			position={ 5455.143066 0.000000 1365.853760 }
			rotation={ -0.000000 -0.671443 -0.000000 0.741056 }
			scale={ 1.000000 1.000000 1.000000 }
		}
		{
			id=912
			position={ 5350.842285 0.000000 1408.955200 }
			rotation={ -0.000000 -0.980977 -0.000000 0.194119 }
			scale={ 1.000000 1.000000 1.000000 }
		}
		{
			id=913
			position={ 5917.712891 0.000000 921.220154 }
			rotation={ -0.000000 0.594945 -0.000000 0.803766 }
			scale={ 1.000000 1.000000 1.000000 }
		}
		{
			id=914
			position={ 5931.440918 0.000000 933.505127 }
			rotation={ -0.000000 -0.707891 -0.000000 0.706321 }
			scale={ 1.000000 1.000000 1.000000 }
		}
		{
			id=916
			position={ 6112.697754 0.000000 1048.639282 }
			rotation={ -0.000000 0.602474 -0.000000 0.798138 }
			scale={ 1.000000 1.000000 1.000000 }
		}
		{
			id=917
			position={ 6012.271973 0.000000 1083.601807 }
			rotation={ -0.000000 -0.999993 -0.000000 0.003526 }
			scale={ 1.000000 1.000000 1.000000 }
		}
		{
			id=918
			position={ 5903.677734 0.000000 1170.277954 }
			rotation={ -0.000000 0.002310 -0.000000 0.999997 }
			scale={ 1.000000 1.000000 1.000000 }
		}
		{
			id=920
			position={ 5993.257324 0.000000 1248.436890 }
			rotation={ -0.000000 -0.901495 -0.000000 -0.432789 }
			scale={ 1.000000 1.000000 1.000000 }
		}
		{
			id=921
			position={ 5836.092773 0.000000 1313.125366 }
			rotation={ -0.000000 -0.975840 -0.000000 0.218485 }
			scale={ 1.000000 1.000000 1.000000 }
		}
		{
			id=922
			position={ 5318.875000 0.000000 1481.441040 }
			rotation={ -0.000000 -0.144883 -0.000000 0.989448 }
			scale={ 1.000000 1.000000 1.000000 }
		}
	}
}
