﻿object={
	name="vulture_01"
	clamp_to_water_level=no
	render_under_water=no
	generated_content=no
	layer="environmental_effects"
	entity="vulture_01_frame_entity"
	count=1
	transform="5605.455078 0.000000 1120.057861 0.000000 0.000000 0.000000 1.000000 1.000000 1.000000 1.000000
"}
