﻿krakatoa_tsunami_effect = {
	every_state_region = {
		limit = {
			OR = {
				# region = sr:region_indochina
				# region = sr:region_indonesia
				# region = sr:region_south_china
			}
		}
		add_devastation = 30
	}
		
	every_state_region = {
		limit = {
			OR = {
				# region = sr:region_zanj
				# region = sr:region_ethiopia
				# region = sr:region_southern_africa
				# region = sr:region_south_india
				# region = sr:region_japan
				# region = sr:region_oceania
			}
		}
		add_devastation = 10
	}
}